ISO-10303-21;
HEADER;
FILE_DESCRIPTION (( 'STEP AP203' ),
    '1' );
FILE_NAME ('deltal2_Default_sldprt.STEP',
    '2021-07-22T17:49:04',
    ( '' ),
    ( '' ),
    'SwSTEP 2.0',
    'SolidWorks 2020',
    '' );
FILE_SCHEMA (( 'CONFIG_CONTROL_DESIGN' ));
ENDSEC;

DATA;
#1 = DIRECTION ( 'NONE',  ( 0.000000000000000000, 0.000000000000000000, -1.000000000000000000 ) ) ;
#2 = DESIGN_CONTEXT ( 'detailed design', #555, 'design' ) ;
#3 = CIRCLE ( 'NONE', #674, 7.500000000000001776 ) ;
#4 = APPROVAL ( #251, 'UNSPECIFIED' ) ;
#5 = CARTESIAN_POINT ( 'NONE',  ( 1.071565949253933138E-15, -390.1587708172406224, 8.749999999999973355 ) ) ;
#6 = MANIFOLD_SOLID_BREP ( 'Mirror1', #218 ) ;
#7 = AXIS2_PLACEMENT_3D ( 'NONE', #771, #530, #656 ) ;
#8 = FACE_OUTER_BOUND ( 'NONE', #353, .T. ) ;
#9 = AXIS2_PLACEMENT_3D ( 'NONE', #686, #454, #386 ) ;
#10 = APPLICATION_PROTOCOL_DEFINITION ( 'international standard', 'config_control_design', 1994, #180 ) ;
#11 = ORIENTED_EDGE ( 'NONE', *, *, #753, .F. ) ;
#12 = DIRECTION ( 'NONE',  ( 0.000000000000000000, 1.000000000000000000, 0.000000000000000000 ) ) ;
#13 = VERTEX_POINT ( 'NONE', #554 ) ;
#14 = CIRCLE ( 'NONE', #641, 7.500000000000001776 ) ;
#15 = DIRECTION ( 'NONE',  ( 0.000000000000000000, 1.000000000000000000, 0.000000000000000000 ) ) ;
#16 = DIRECTION ( 'NONE',  ( -0.000000000000000000, -1.000000000000000000, -0.000000000000000000 ) ) ;
#17 = ORIENTED_EDGE ( 'NONE', *, *, #370, .T. ) ;
#18 = ADVANCED_FACE ( 'NONE', ( #285 ), #179, .T. ) ;
#19 = CARTESIAN_POINT ( 'NONE',  ( -45.00000000000000000, -395.0000000000000000, -7.500000000000001776 ) ) ;
#20 = DIRECTION ( 'NONE',  ( 0.000000000000000000, 0.000000000000000000, -1.000000000000000000 ) ) ;
#21 = SECURITY_CLASSIFICATION_LEVEL ( 'unclassified' ) ;
#22 = CARTESIAN_POINT ( 'NONE',  ( 0.000000000000000000, 350.0000000000000000, 0.000000000000000000 ) ) ;
#23 = CIRCLE ( 'NONE', #119, 7.500000000000000000 ) ;
#24 = ADVANCED_FACE ( 'NONE', ( #305 ), #799, .F. ) ;
#25 = ORIENTED_EDGE ( 'NONE', *, *, #694, .F. ) ;
#26 = DIRECTION ( 'NONE',  ( 0.000000000000000000, 0.000000000000000000, -1.000000000000000000 ) ) ;
#27 = DIRECTION ( 'NONE',  ( 0.000000000000000000, 0.000000000000000000, -1.000000000000000000 ) ) ;
#28 = DIRECTION ( 'NONE',  ( -1.224646799147356165E-16, 0.000000000000000000, -1.000000000000000000 ) ) ;
#29 = ORIENTED_EDGE ( 'NONE', *, *, #370, .F. ) ;
#30 = DIRECTION ( 'NONE',  ( -0.000000000000000000, -1.000000000000000000, -0.000000000000000000 ) ) ;
#31 = DIRECTION ( 'NONE',  ( 0.000000000000000000, 0.000000000000000000, -1.000000000000000000 ) ) ;
#32 = CIRCLE ( 'NONE', #592, 7.500000000000000000 ) ;
#33 = ORIENTED_EDGE ( 'NONE', *, *, #260, .F. ) ;
#34 = DIRECTION ( 'NONE',  ( 0.000000000000000000, 0.000000000000000000, 1.000000000000000000 ) ) ;
#35 = CARTESIAN_POINT ( 'NONE',  ( -6.641244531331841117, 389.7443220275354179, 5.357395380067128343 ) ) ;
#36 = CYLINDRICAL_SURFACE ( 'NONE', #320, 7.500000000000000000 ) ;
#37 = AXIS2_PLACEMENT_3D ( 'NONE', #598, #440, #236 ) ;
#38 = CARTESIAN_POINT ( 'NONE',  ( -6.724609224833187682, -389.3704090823119941, 4.963017459983316115 ) ) ;
#39 = DIRECTION ( 'NONE',  ( 0.000000000000000000, 1.000000000000000000, 0.000000000000000000 ) ) ;
#40 = CARTESIAN_POINT ( 'NONE',  ( -7.396091703499059200, -387.9915074225916101, 2.683963252864271620 ) ) ;
#41 = ORIENTED_EDGE ( 'NONE', *, *, #694, .T. ) ;
#42 = CARTESIAN_POINT ( 'NONE',  ( 9.184850993605145972E-16, 350.0000000000000000, 7.500000000000000000 ) ) ;
#43 = EDGE_CURVE ( 'NONE', #742, #281, #187, .T. ) ;
#44 = CARTESIAN_POINT ( 'NONE',  ( -7.514866517266869828, 387.8143483518731500, -2.165684304882273370 ) ) ;
#45 = ORIENTED_EDGE ( 'NONE', *, *, #232, .F. ) ;
#46 = VECTOR ( 'NONE', #161, 1000.000000000000000 ) ;
#47 = CIRCLE ( 'NONE', #697, 8.749999999999996447 ) ;
#48 = CARTESIAN_POINT ( 'NONE',  ( -6.614378277661543848, -389.9439068666206936, 5.546626436640419655 ) ) ;
#49 = CARTESIAN_POINT ( 'NONE',  ( -7.513086412620314292, 387.8169476651355012, 2.174025322970093210 ) ) ;
#50 = CARTESIAN_POINT ( 'NONE',  ( 0.000000000000000000, -390.1587708172406224, 0.000000000000000000 ) ) ;
#51 = PERSON ( 'UNSPECIFIED', 'UNSPECIFIED', 'UNSPECIFIED', ('UNSPECIFIED'), ('UNSPECIFIED'), ('UNSPECIFIED') ) ;
#52 = ADVANCED_FACE ( 'NONE', ( #57 ), #496, .T. ) ;
#53 = DIRECTION ( 'NONE',  ( 0.000000000000000000, 1.000000000000000000, 0.000000000000000000 ) ) ;
#54 = CARTESIAN_POINT ( 'NONE',  ( 0.000000000000000000, 395.0000000000000000, 0.000000000000000000 ) ) ;
#55 = EDGE_CURVE ( 'NONE', #375, #747, #411, .T. ) ;
#56 = ORIENTED_EDGE ( 'NONE', *, *, #104, .F. ) ;
#57 = FACE_OUTER_BOUND ( 'NONE', #270, .T. ) ;
#58 = AXIS2_PLACEMENT_3D ( 'NONE', #408, #721, #80 ) ;
#59 = EDGE_CURVE ( 'NONE', #281, #214, #199, .T. ) ;
#60 = AXIS2_PLACEMENT_3D ( 'NONE', #397, #504, #261 ) ;
#61 = ADVANCED_FACE ( 'NONE', ( #443 ), #381, .F. ) ;
#62 = CARTESIAN_POINT ( 'NONE',  ( 0.000000000000000000, -394.9999999999999432, 0.000000000000000000 ) ) ;
#63 = CC_DESIGN_DATE_AND_TIME_ASSIGNMENT ( #702, #78, ( #239 ) ) ;
#64 = VERTEX_POINT ( 'NONE', #740 ) ;
#65 = CARTESIAN_POINT ( 'NONE',  ( 9.184850993605145972E-16, -350.0000000000000000, -7.500000000000000000 ) ) ;
#66 = ADVANCED_BREP_SHAPE_REPRESENTATION ( 'deltal2_Default_sldprt', ( #6, #184 ), #210 ) ;
#67 = ORIENTED_EDGE ( 'NONE', *, *, #202, .F. ) ;
#68 = DIRECTION ( 'NONE',  ( 0.000000000000000000, 1.000000000000000000, -0.000000000000000000 ) ) ;
#69 = ORIENTED_EDGE ( 'NONE', *, *, #528, .F. ) ;
#70 = DIRECTION ( 'NONE',  ( 0.000000000000000000, 0.000000000000000000, -1.000000000000000000 ) ) ;
#71 = CARTESIAN_POINT ( 'NONE',  ( 0.000000000000000000, -390.1587708172406224, 0.000000000000000000 ) ) ;
#72 = PERSON_AND_ORGANIZATION_ROLE ( 'design_owner' ) ;
#73 = EDGE_LOOP ( 'NONE', ( #738, #430 ) ) ;
#74 = LOCAL_TIME ( 23, 19, 4.000000000000000000, #322 ) ;
#75 = AXIS2_PLACEMENT_3D ( 'NONE', #406, #148, #34 ) ;
#76 = LINE ( 'NONE', #19, #482 ) ;
#77 = CARTESIAN_POINT ( 'NONE',  ( 2.143131898507873376E-15, 385.3175416344814153, -17.50000000000000000 ) ) ;
#78 = DATE_TIME_ROLE ( 'classification_date' ) ;
#79 = EDGE_CURVE ( 'NONE', #502, #105, #626, .T. ) ;
#80 = DIRECTION ( 'NONE',  ( 0.000000000000000000, 0.000000000000000000, -1.000000000000000000 ) ) ;
#81 = ORIENTED_EDGE ( 'NONE', *, *, #649, .F. ) ;
#82 = DIRECTION ( 'NONE',  ( 0.000000000000000000, 0.000000000000000000, -1.000000000000000000 ) ) ;
#83 = DIRECTION ( 'NONE',  ( 1.000000000000000000, -0.000000000000000000, 1.224646799147356165E-16 ) ) ;
#84 = CARTESIAN_POINT ( 'NONE',  ( 0.000000000000000000, 350.0000000000000000, -4.999999999999999112 ) ) ;
#85 = CIRCLE ( 'NONE', #545, 10.00000000000000000 ) ;
#86 = VERTEX_POINT ( 'NONE', #735 ) ;
#87 = DIRECTION ( 'NONE',  ( -0.000000000000000000, -1.000000000000000000, -0.000000000000000000 ) ) ;
#88 = CARTESIAN_POINT ( 'NONE',  ( -6.614378277661487893, -394.9999999999999432, 7.499999999999996447 ) ) ;
#89 = CARTESIAN_POINT ( 'NONE',  ( 6.123233995736765296E-16, 350.0000000000000000, 4.999999999999999112 ) ) ;
#90 = EDGE_LOOP ( 'NONE', ( #56, #485, #33, #604, #469, #458 ) ) ;
#91 = APPROVAL_PERSON_ORGANIZATION ( #332, #444, #390 ) ;
#92 = DIRECTION ( 'NONE',  ( 0.000000000000000000, 0.000000000000000000, -1.000000000000000000 ) ) ;
#93 = CIRCLE ( 'NONE', #441, 7.500000000000000000 ) ;
#94 = AXIS2_PLACEMENT_3D ( 'NONE', #304, #107, #795 ) ;
#95 = ORIENTED_EDGE ( 'NONE', *, *, #258, .T. ) ;
#96 = ADVANCED_FACE ( 'NONE', ( #97 ), #36, .T. ) ;
#97 = FACE_OUTER_BOUND ( 'NONE', #404, .T. ) ;
#98 = SHAPE_DEFINITION_REPRESENTATION ( #359, #66 ) ;
#99 = DIRECTION ( 'NONE',  ( 0.000000000000000000, -1.000000000000000000, 0.000000000000000000 ) ) ;
#100 = DIRECTION ( 'NONE',  ( 0.000000000000000000, 0.000000000000000000, 1.000000000000000000 ) ) ;
#101 = AXIS2_PLACEMENT_3D ( 'NONE', #472, #39, #275 ) ;
#102 = CARTESIAN_POINT ( 'NONE',  ( -6.979925487853718913, -388.7184796447889994, 4.106586803752771075 ) ) ;
#103 = CARTESIAN_POINT ( 'NONE',  ( 6.123233995736765296E-16, 350.0000000000000000, 4.999999999999999112 ) ) ;
#104 = EDGE_CURVE ( 'NONE', #174, #86, #749, .T. ) ;
#105 = VERTEX_POINT ( 'NONE', #536 ) ;
#106 = DIRECTION ( 'NONE',  ( 0.000000000000000000, 0.000000000000000000, 1.000000000000000000 ) ) ;
#107 = DIRECTION ( 'NONE',  ( -1.000000000000000000, 0.000000000000000000, 0.000000000000000000 ) ) ;
#108 = ORIENTED_EDGE ( 'NONE', *, *, #104, .T. ) ;
#109 = PLANE ( 'NONE',  #760 ) ;
#110 = CARTESIAN_POINT ( 'NONE',  ( -7.565520132708762446, 387.7420633866117328, 1.909907743338609576 ) ) ;
#111 = VERTEX_POINT ( 'NONE', #627 ) ;
#112 = CC_DESIGN_DATE_AND_TIME_ASSIGNMENT ( #761, #460, ( #194 ) ) ;
#113 = CARTESIAN_POINT ( 'NONE',  ( -6.614378277661487893, -394.9999999999999432, -7.499999999999996447 ) ) ;
#114 = VERTEX_POINT ( 'NONE', #314 ) ;
#115 = VERTEX_POINT ( 'NONE', #129 ) ;
#116 = ORIENTED_EDGE ( 'NONE', *, *, #59, .T. ) ;
#117 = LOCAL_TIME ( 23, 19, 4.000000000000000000, #693 ) ;
#118 = ADVANCED_FACE ( 'NONE', ( #631 ), #695, .T. ) ;
#119 = AXIS2_PLACEMENT_3D ( 'NONE', #567, #12, #338 ) ;
#120 = ORIENTED_EDGE ( 'NONE', *, *, #360, .T. ) ;
#121 = CARTESIAN_POINT ( 'NONE',  ( 1.071565949253933138E-15, 390.1587708172406224, -8.749999999999973355 ) ) ;
#122 = DIRECTION ( 'NONE',  ( 0.000000000000000000, 0.000000000000000000, -1.000000000000000000 ) ) ;
#123 = DIRECTION ( 'NONE',  ( 0.000000000000000000, 0.000000000000000000, 1.000000000000000000 ) ) ;
#124 = ORIENTED_EDGE ( 'NONE', *, *, #232, .T. ) ;
#125 = ORIENTED_EDGE ( 'NONE', *, *, #203, .T. ) ;
#126 = CARTESIAN_POINT ( 'NONE',  ( 0.000000000000000000, 394.9999999999999432, 0.000000000000000000 ) ) ;
#127 = APPROVAL_ROLE ( '' ) ;
#128 = AXIS2_PLACEMENT_3D ( 'NONE', #596, #462, #144 ) ;
#129 = CARTESIAN_POINT ( 'NONE',  ( -6.614378277661532302, 390.1587708172406224, 5.728219618694670778 ) ) ;
#130 = AXIS2_PLACEMENT_3D ( 'NONE', #301, #549, #1 ) ;
#131 = PERSON_AND_ORGANIZATION ( #51, #673 ) ;
#132 = ADVANCED_FACE ( 'NONE', ( #764 ), #205, .T. ) ;
#133 = ORIENTED_EDGE ( 'NONE', *, *, #789, .F. ) ;
#134 = EDGE_CURVE ( 'NONE', #243, #323, #684, .T. ) ;
#135 = CARTESIAN_POINT ( 'NONE',  ( -45.00000000000000000, 395.0000000000000000, -7.500000000000001776 ) ) ;
#136 = CARTESIAN_POINT ( 'NONE',  ( 0.000000000000000000, 395.0000000000000000, 0.000000000000000000 ) ) ;
#137 = DIRECTION ( 'NONE',  ( -1.000000000000000000, 0.000000000000000000, 0.000000000000000000 ) ) ;
#138 = VERTEX_POINT ( 'NONE', #755 ) ;
#139 = EDGE_CURVE ( 'NONE', #214, #327, #47, .T. ) ;
#140 = AXIS2_PLACEMENT_3D ( 'NONE', #262, #416, #27 ) ;
#141 = CARTESIAN_POINT ( 'NONE',  ( 0.000000000000000000, -385.3175416344814153, 0.000000000000000000 ) ) ;
#142 = DIRECTION ( 'NONE',  ( 1.000000000000000000, -0.000000000000000000, -0.000000000000000000 ) ) ;
#143 = CALENDAR_DATE ( 2021, 22, 7 ) ;
#144 = DIRECTION ( 'NONE',  ( 0.000000000000000000, 0.000000000000000000, 1.000000000000000000 ) ) ;
#145 = EDGE_CURVE ( 'NONE', #569, #434, #253, .T. ) ;
#146 = ORIENTED_EDGE ( 'NONE', *, *, #753, .T. ) ;
#147 = DIRECTION ( 'NONE',  ( -0.000000000000000000, -1.000000000000000000, -0.000000000000000000 ) ) ;
#148 = DIRECTION ( 'NONE',  ( 0.000000000000000000, 1.000000000000000000, 0.000000000000000000 ) ) ;
#149 = CIRCLE ( 'NONE', #266, 10.00000000000000178 ) ;
#150 = DIRECTION ( 'NONE',  ( 0.000000000000000000, 0.000000000000000000, -1.000000000000000000 ) ) ;
#151 = AXIS2_PLACEMENT_3D ( 'NONE', #758, #198, #700 ) ;
#152 = ORIENTED_EDGE ( 'NONE', *, *, #55, .T. ) ;
#153 = FACE_OUTER_BOUND ( 'NONE', #563, .T. ) ;
#154 = SPHERICAL_SURFACE ( 'NONE', #477, 7.500000000000000000 ) ;
#155 = ORIENTED_EDGE ( 'NONE', *, *, #649, .T. ) ;
#156 = FACE_OUTER_BOUND ( 'NONE', #763, .T. ) ;
#157 = EDGE_LOOP ( 'NONE', ( #41, #773 ) ) ;
#158 = PRODUCT_DEFINITION_FORMATION_WITH_SPECIFIED_SOURCE ( 'ANY', '', #539, .NOT_KNOWN. ) ;
#159 = FACE_OUTER_BOUND ( 'NONE', #798, .T. ) ;
#160 = ORIENTED_EDGE ( 'NONE', *, *, #139, .F. ) ;
#161 = DIRECTION ( 'NONE',  ( -0.000000000000000000, -1.000000000000000000, -0.000000000000000000 ) ) ;
#162 = ORIENTED_EDGE ( 'NONE', *, *, #145, .F. ) ;
#163 = CIRCLE ( 'NONE', #745, 7.500000000000001776 ) ;
#164 = DIRECTION ( 'NONE',  ( -0.000000000000000000, 1.000000000000000000, -0.000000000000000000 ) ) ;
#165 = ADVANCED_FACE ( 'NONE', ( #8 ), #691, .F. ) ;
#166 = CARTESIAN_POINT ( 'NONE',  ( -7.126887969222936547, 388.4282791958045777, -3.653314355351841236 ) ) ;
#167 = CIRCLE ( 'NONE', #383, 10.00000000000000000 ) ;
#168 = ORIENTED_EDGE ( 'NONE', *, *, #293, .F. ) ;
#169 = CARTESIAN_POINT ( 'NONE',  ( -7.684919687682990386, -387.5758973692565519, -1.099299377404077127 ) ) ;
#170 = CARTESIAN_POINT ( 'NONE',  ( -7.332049073129065064, 388.0902623688738800, -2.928580013560716733 ) ) ;
#171 = ORIENTED_EDGE ( 'NONE', *, *, #698, .F. ) ;
#172 = CARTESIAN_POINT ( 'NONE',  ( -6.974840508848151543, -388.7022001902687975, -4.108687811761676301 ) ) ;
#173 = CARTESIAN_POINT ( 'NONE',  ( 0.000000000000000000, -395.0000000000000000, 0.000000000000000000 ) ) ;
#174 = VERTEX_POINT ( 'NONE', #121 ) ;
#175 = VECTOR ( 'NONE', #679, 1000.000000000000000 ) ;
#176 = VERTEX_POINT ( 'NONE', #65 ) ;
#177 = CARTESIAN_POINT ( 'NONE',  ( -7.331231552190796918, -388.0915588733348613, 2.931600915437278410 ) ) ;
#178 = DIRECTION ( 'NONE',  ( 0.000000000000000000, 0.000000000000000000, -1.000000000000000000 ) ) ;
#179 = CYLINDRICAL_SURFACE ( 'NONE', #37, 4.999999999999999112 ) ;
#180 = APPLICATION_CONTEXT ( 'configuration controlled 3d designs of mechanical parts and assemblies' ) ;
#181 = DIRECTION ( 'NONE',  ( 0.000000000000000000, 0.000000000000000000, -1.000000000000000000 ) ) ;
#182 = EDGE_CURVE ( 'NONE', #633, #243, #85, .T. ) ;
#183 = ORIENTED_EDGE ( 'NONE', *, *, #247, .F. ) ;
#184 = AXIS2_PLACEMENT_3D ( 'NONE', #451, #123, #269 ) ;
#185 = CIRCLE ( 'NONE', #642, 7.500000000000001776 ) ;
#186 = VERTEX_POINT ( 'NONE', #189 ) ;
#187 = CIRCLE ( 'NONE', #615, 8.749999999999996447 ) ;
#188 = ORIENTED_EDGE ( 'NONE', *, *, #203, .F. ) ;
#189 = CARTESIAN_POINT ( 'NONE',  ( 0.000000000000000000, 395.0000000000000000, 7.500000000000001776 ) ) ;
#190 =( NAMED_UNIT ( * ) PLANE_ANGLE_UNIT ( ) SI_UNIT ( $, .RADIAN. ) );
#191 = EDGE_LOOP ( 'NONE', ( #515, #556, #588 ) ) ;
#192 = MECHANICAL_CONTEXT ( 'NONE', #180, 'mechanical' ) ;
#193 = AXIS2_PLACEMENT_3D ( 'NONE', #342, #415, #82 ) ;
#194 = PRODUCT_DEFINITION ( 'UNKNOWN', '', #158, #2 ) ;
#195 = DIRECTION ( 'NONE',  ( -0.000000000000000000, -1.000000000000000000, -0.000000000000000000 ) ) ;
#196 = PERSON_AND_ORGANIZATION ( #51, #673 ) ;
#197 = VERTEX_POINT ( 'NONE', #450 ) ;
#198 = DIRECTION ( 'NONE',  ( -0.000000000000000000, -1.000000000000000000, -0.000000000000000000 ) ) ;
#199 = CIRCLE ( 'NONE', #666, 8.749999999999996447 ) ;
#200 = CYLINDRICAL_SURFACE ( 'NONE', #140, 4.999999999999999112 ) ;
#201 = PERSON_AND_ORGANIZATION ( #51, #673 ) ;
#202 = EDGE_CURVE ( 'NONE', #564, #461, #297, .T. ) ;
#203 = EDGE_CURVE ( 'NONE', #611, #724, #358, .T. ) ;
#204 = ORIENTED_EDGE ( 'NONE', *, *, #560, .T. ) ;
#205 = CYLINDRICAL_SURFACE ( 'NONE', #60, 7.500000000000000000 ) ;
#206 = DIRECTION ( 'NONE',  ( 0.000000000000000000, 0.000000000000000000, 1.000000000000000000 ) ) ;
#207 = EDGE_CURVE ( 'NONE', #186, #323, #715, .T. ) ;
#208 = CARTESIAN_POINT ( 'NONE',  ( 2.143131898507873376E-15, -385.3175416344814153, 17.50000000000000000 ) ) ;
#209 = ORIENTED_EDGE ( 'NONE', *, *, #560, .F. ) ;
#210 =( GEOMETRIC_REPRESENTATION_CONTEXT ( 3 ) GLOBAL_UNCERTAINTY_ASSIGNED_CONTEXT ( ( #313 ) ) GLOBAL_UNIT_ASSIGNED_CONTEXT ( ( #394, #190, #635 ) ) REPRESENTATION_CONTEXT ( 'NONE', 'WORKASPACE' ) );
#211 = DIRECTION ( 'NONE',  ( 0.000000000000000000, -1.000000000000000000, -1.224646799147353207E-16 ) ) ;
#212 = CARTESIAN_POINT ( 'NONE',  ( -6.614378277661487893, 395.0000000000000000, 0.000000000000000000 ) ) ;
#213 = DIRECTION ( 'NONE',  ( 1.000000000000000000, 0.000000000000000000, -1.224646799147356165E-16 ) ) ;
#214 = VERTEX_POINT ( 'NONE', #5 ) ;
#215 = DIRECTION ( 'NONE',  ( 0.000000000000000000, 0.000000000000000000, 1.000000000000000000 ) ) ;
#216 = CARTESIAN_POINT ( 'NONE',  ( -6.614378277661588257, -390.1587708172406224, 5.728219618694664561 ) ) ;
#217 = DIRECTION ( 'NONE',  ( 0.000000000000000000, -0.000000000000000000, 1.000000000000000000 ) ) ;
#218 = CLOSED_SHELL ( 'NONE', ( #288, #474, #603, #302, #312, #118, #18, #490, #96, #319, #52, #249, #524, #132, #420, #335, #653, #289, #575, #24, #61, #457, #165, #324 ) ) ;
#219 = ORIENTED_EDGE ( 'NONE', *, *, #669, .T. ) ;
#220 = FACE_OUTER_BOUND ( 'NONE', #73, .T. ) ;
#221 = PLANE ( 'NONE',  #503 ) ;
#222 = ORIENTED_EDGE ( 'NONE', *, *, #395, .F. ) ;
#223 = EDGE_CURVE ( 'NONE', #781, #446, #76, .T. ) ;
#224 = CIRCLE ( 'NONE', #403, 4.999999999999999112 ) ;
#225 = CARTESIAN_POINT ( 'NONE',  ( -7.514866517266868939, -387.8143483518731500, -2.165684304882297351 ) ) ;
#226 = AXIS2_PLACEMENT_3D ( 'NONE', #587, #99, #455 ) ;
#227 = EDGE_CURVE ( 'NONE', #611, #564, #389, .T. ) ;
#228 = DIRECTION ( 'NONE',  ( 1.000000000000000000, -0.000000000000000000, -0.000000000000000000 ) ) ;
#229 = DIRECTION ( 'NONE',  ( 0.000000000000000000, -1.000000000000000000, 0.000000000000000000 ) ) ;
#230 = CARTESIAN_POINT ( 'NONE',  ( 0.000000000000000000, -395.0000000000000000, 0.000000000000000000 ) ) ;
#231 = AXIS2_PLACEMENT_3D ( 'NONE', #471, #16, #594 ) ;
#232 = EDGE_CURVE ( 'NONE', #64, #115, #310, .T. ) ;
#233 = EDGE_CURVE ( 'NONE', #13, #114, #751, .T. ) ;
#234 = CARTESIAN_POINT ( 'NONE',  ( -7.513086412620316068, -387.8169476651356717, 2.174025322970077667 ) ) ;
#235 = CARTESIAN_POINT ( 'NONE',  ( -7.729607361680392863, 387.5152902799644608, -0.5521588537539123820 ) ) ;
#236 = DIRECTION ( 'NONE',  ( 0.000000000000000000, 0.000000000000000000, -1.000000000000000000 ) ) ;
#237 = CC_DESIGN_PERSON_AND_ORGANIZATION_ASSIGNMENT ( #501, #519, ( #158 ) ) ;
#238 = CARTESIAN_POINT ( 'NONE',  ( -7.332049073129059735, -388.0902623688738231, -2.928580013560742934 ) ) ;
#239 = SECURITY_CLASSIFICATION ( '', '', #21 ) ;
#240 = CARTESIAN_POINT ( 'NONE',  ( -6.614378277661588257, 390.1587708172406224, -5.728219618694664561 ) ) ;
#241 = CARTESIAN_POINT ( 'NONE',  ( 0.000000000000000000, -350.0000000000000000, 0.000000000000000000 ) ) ;
#242 = EDGE_CURVE ( 'NONE', #633, #64, #167, .T. ) ;
#243 = VERTEX_POINT ( 'NONE', #321 ) ;
#244 = DIRECTION ( 'NONE',  ( 0.000000000000000000, 1.000000000000000000, 0.000000000000000000 ) ) ;
#245 = ORIENTED_EDGE ( 'NONE', *, *, #497, .T. ) ;
#246 = DIRECTION ( 'NONE',  ( 0.000000000000000000, 0.000000000000000000, -1.000000000000000000 ) ) ;
#247 = EDGE_CURVE ( 'NONE', #461, #564, #23, .T. ) ;
#248 = DIRECTION ( 'NONE',  ( 0.000000000000000000, 0.000000000000000000, -1.000000000000000000 ) ) ;
#249 = ADVANCED_FACE ( 'NONE', ( #153 ), #658, .T. ) ;
#250 = DIRECTION ( 'NONE',  ( 1.000000000000000000, -0.000000000000000000, -0.000000000000000000 ) ) ;
#251 = APPROVAL_STATUS ( 'not_yet_approved' ) ;
#252 = VECTOR ( 'NONE', #228, 1000.000000000000000 ) ;
#253 = CIRCLE ( 'NONE', #558, 10.00000000000000000 ) ;
#254 = DIRECTION ( 'NONE',  ( 1.000000000000000000, -0.000000000000000000, -0.000000000000000000 ) ) ;
#255 = PERSON_AND_ORGANIZATION ( #51, #673 ) ;
#256 = ORIENTED_EDGE ( 'NONE', *, *, #134, .T. ) ;
#257 = DIRECTION ( 'NONE',  ( 0.000000000000000000, 0.000000000000000000, 1.000000000000000000 ) ) ;
#258 = EDGE_CURVE ( 'NONE', #86, #243, #277, .T. ) ;
#259 = ORIENTED_EDGE ( 'NONE', *, *, #643, .F. ) ;
#260 = EDGE_CURVE ( 'NONE', #724, #611, #392, .T. ) ;
#261 = DIRECTION ( 'NONE',  ( 0.000000000000000000, 0.000000000000000000, 1.000000000000000000 ) ) ;
#262 = CARTESIAN_POINT ( 'NONE',  ( 0.000000000000000000, 350.0000000000000000, 0.000000000000000000 ) ) ;
#263 = APPLICATION_PROTOCOL_DEFINITION ( 'international standard', 'config_control_design', 1994, #555 ) ;
#264 = ORIENTED_EDGE ( 'NONE', *, *, #384, .F. ) ;
#265 = EDGE_CURVE ( 'NONE', #750, #414, #93, .T. ) ;
#266 = AXIS2_PLACEMENT_3D ( 'NONE', #476, #718, #100 ) ;
#267 = CARTESIAN_POINT ( 'NONE',  ( 0.000000000000000000, 394.9999999999999432, -7.500000000000000000 ) ) ;
#268 = CARTESIAN_POINT ( 'NONE',  ( -45.00000000000000000, 395.0000000000000000, 0.000000000000000000 ) ) ;
#269 = DIRECTION ( 'NONE',  ( 1.000000000000000000, 0.000000000000000000, 0.000000000000000000 ) ) ;
#270 = EDGE_LOOP ( 'NONE', ( #69, #768, #452 ) ) ;
#271 = CARTESIAN_POINT ( 'NONE',  ( -7.194610783897020134, 388.3167522338992512, 3.413948157910819958 ) ) ;
#272 = ORIENTED_EDGE ( 'NONE', *, *, #743, .F. ) ;
#273 = DIRECTION ( 'NONE',  ( 0.000000000000000000, 0.000000000000000000, -1.000000000000000000 ) ) ;
#274 = CARTESIAN_POINT ( 'NONE',  ( 0.000000000000000000, -350.0000000000000000, 0.000000000000000000 ) ) ;
#275 = DIRECTION ( 'NONE',  ( 0.000000000000000000, 0.000000000000000000, 1.000000000000000000 ) ) ;
#276 = ORIENTED_EDGE ( 'NONE', *, *, #590, .T. ) ;
#277 = CIRCLE ( 'NONE', #509, 7.500000000000001776 ) ;
#278 = DIRECTION ( 'NONE',  ( -0.000000000000000000, 1.000000000000000000, -0.000000000000000000 ) ) ;
#279 = CARTESIAN_POINT ( 'NONE',  ( 6.123233995736765296E-16, -350.0000000000000000, 4.999999999999999112 ) ) ;
#280 = SPHERICAL_SURFACE ( 'NONE', #58, 7.500000000000000000 ) ;
#281 = VERTEX_POINT ( 'NONE', #710 ) ;
#282 = AXIS2_PLACEMENT_3D ( 'NONE', #579, #479, #31 ) ;
#283 = DIRECTION ( 'NONE',  ( -0.000000000000000000, 1.000000000000000000, -0.000000000000000000 ) ) ;
#284 = CARTESIAN_POINT ( 'NONE',  ( -6.724609224833187682, 389.3704090823119941, 4.963017459983321444 ) ) ;
#285 = FACE_OUTER_BOUND ( 'NONE', #630, .T. ) ;
#286 = CARTESIAN_POINT ( 'NONE',  ( -7.565520132708770440, -387.7420633866118465, 1.909907743338590702 ) ) ;
#287 = CARTESIAN_POINT ( 'NONE',  ( 10.00000000000000000, 394.9999999999999432, -6.123233995736766282E-16 ) ) ;
#288 = ADVANCED_FACE ( 'NONE', ( #349 ), #464, .F. ) ;
#289 = ADVANCED_FACE ( 'NONE', ( #704 ), #405, .T. ) ;
#290 = CARTESIAN_POINT ( 'NONE',  ( -7.694084413019671942, -387.5617231516313268, 1.106166088400110104 ) ) ;
#291 = CIRCLE ( 'NONE', #785, 10.00000000000000000 ) ;
#292 = LINE ( 'NONE', #103, #175 ) ;
#293 = EDGE_CURVE ( 'NONE', #111, #13, #32, .T. ) ;
#294 = DIRECTION ( 'NONE',  ( 0.000000000000000000, 0.000000000000000000, -1.000000000000000000 ) ) ;
#295 = DIRECTION ( 'NONE',  ( -1.000000000000000000, -0.000000000000000000, -0.000000000000000000 ) ) ;
#296 = CIRCLE ( 'NONE', #101, 10.00000000000000000 ) ;
#297 = CIRCLE ( 'NONE', #516, 7.500000000000000000 ) ;
#298 = ORIENTED_EDGE ( 'NONE', *, *, #265, .F. ) ;
#299 = CARTESIAN_POINT ( 'NONE',  ( -6.641244531331839340, -389.7443220275354179, 5.357395380067124790 ) ) ;
#300 = CARTESIAN_POINT ( 'NONE',  ( 0.000000000000000000, 395.0000000000000000, 0.000000000000000000 ) ) ;
#301 = CARTESIAN_POINT ( 'NONE',  ( 0.000000000000000000, -394.9999999999999432, 0.000000000000000000 ) ) ;
#302 = ADVANCED_FACE ( 'NONE', ( #774 ), #470, .F. ) ;
#303 = APPROVAL_PERSON_ORGANIZATION ( #449, #4, #632 ) ;
#304 = CARTESIAN_POINT ( 'NONE',  ( -6.614378277661487893, -395.0000000000000000, 0.000000000000000000 ) ) ;
#305 = FACE_OUTER_BOUND ( 'NONE', #580, .T. ) ;
#306 = CIRCLE ( 'NONE', #754, 7.500000000000000000 ) ;
#307 = ORIENTED_EDGE ( 'NONE', *, *, #233, .T. ) ;
#308 = DIRECTION ( 'NONE',  ( -0.000000000000000000, 1.000000000000000000, -0.000000000000000000 ) ) ;
#309 = CIRCLE ( 'NONE', #599, 10.00000000000000178 ) ;
#310 = CIRCLE ( 'NONE', #762, 7.500000000000001776 ) ;
#311 = CARTESIAN_POINT ( 'NONE',  ( 0.000000000000000000, 390.1587708172406224, 0.000000000000000000 ) ) ;
#312 = ADVANCED_FACE ( 'NONE', ( #339 ), #499, .F. ) ;
#313 = UNCERTAINTY_MEASURE_WITH_UNIT (LENGTH_MEASURE( 1.000000000000000082E-05 ), #394, 'distance_accuracy_value', 'NONE');
#314 = CARTESIAN_POINT ( 'NONE',  ( 0.000000000000000000, -350.0000000000000000, 7.500000000000000000 ) ) ;
#315 = LOCAL_TIME ( 23, 19, 4.000000000000000000, #766 ) ;
#316 = EDGE_LOOP ( 'NONE', ( #125, #204, #363, #636 ) ) ;
#317 = CARTESIAN_POINT ( 'NONE',  ( -6.614378277661487893, 395.0000000000000000, 0.000000000000000000 ) ) ;
#318 = DATE_AND_TIME ( #456, #74 ) ;
#319 = ADVANCED_FACE ( 'NONE', ( #583 ), #723, .F. ) ;
#320 = AXIS2_PLACEMENT_3D ( 'NONE', #62, #308, #498 ) ;
#321 = CARTESIAN_POINT ( 'NONE',  ( -6.614378277661487893, 394.9999999999999432, -7.499999999999996447 ) ) ;
#322 = COORDINATED_UNIVERSAL_TIME_OFFSET ( 5, 30, .AHEAD. ) ;
#323 = VERTEX_POINT ( 'NONE', #720 ) ;
#324 = ADVANCED_FACE ( 'NONE', ( #577 ), #154, .F. ) ;
#325 = CARTESIAN_POINT ( 'NONE',  ( 0.000000000000000000, -394.9999999999999432, 0.000000000000000000 ) ) ;
#326 = COORDINATED_UNIVERSAL_TIME_OFFSET ( 5, 30, .AHEAD. ) ;
#327 = VERTEX_POINT ( 'NONE', #216 ) ;
#328 = AXIS2_PLACEMENT_3D ( 'NONE', #425, #53, #429 ) ;
#329 = CIRCLE ( 'NONE', #540, 7.500000000000000000 ) ;
#330 = DIRECTION ( 'NONE',  ( 0.000000000000000000, 0.000000000000000000, -1.000000000000000000 ) ) ;
#331 = DIRECTION ( 'NONE',  ( -1.000000000000000000, -0.000000000000000000, -0.000000000000000000 ) ) ;
#332 = PERSON_AND_ORGANIZATION ( #51, #673 ) ;
#333 = FACE_OUTER_BOUND ( 'NONE', #597, .T. ) ;
#334 = EDGE_LOOP ( 'NONE', ( #209, #622, #574, #586 ) ) ;
#335 = ADVANCED_FACE ( 'NONE', ( #159 ), #200, .T. ) ;
#336 = AXIS2_PLACEMENT_3D ( 'NONE', #614, #601, #730 ) ;
#337 = AXIS2_PLACEMENT_3D ( 'NONE', #438, #625, #681 ) ;
#338 = DIRECTION ( 'NONE',  ( 0.000000000000000000, 0.000000000000000000, 1.000000000000000000 ) ) ;
#339 = FACE_OUTER_BOUND ( 'NONE', #90, .T. ) ;
#340 = FACE_OUTER_BOUND ( 'NONE', #782, .T. ) ;
#341 = ORIENTED_EDGE ( 'NONE', *, *, #387, .T. ) ;
#342 = CARTESIAN_POINT ( 'NONE',  ( 0.000000000000000000, -394.9999999999999432, 0.000000000000000000 ) ) ;
#343 = CARTESIAN_POINT ( 'NONE',  ( 0.000000000000000000, -395.0000000000000000, -7.500000000000001776 ) ) ;
#344 = CARTESIAN_POINT ( 'NONE',  ( 9.184850993605145972E-16, 394.9999999999999432, 7.500000000000000000 ) ) ;
#345 = ORIENTED_EDGE ( 'NONE', *, *, #293, .T. ) ;
#346 = LOCAL_TIME ( 23, 19, 4.000000000000000000, #696 ) ;
#347 = AXIS2_PLACEMENT_3D ( 'NONE', #421, #706, #412 ) ;
#348 = AXIS2_PLACEMENT_3D ( 'NONE', #268, #475, #20 ) ;
#349 = FACE_OUTER_BOUND ( 'NONE', #683, .T. ) ;
#350 = CARTESIAN_POINT ( 'NONE',  ( 0.000000000000000000, -395.0000000000000000, 7.500000000000001776 ) ) ;
#351 = EDGE_CURVE ( 'NONE', #323, #186, #692, .T. ) ;
#352 = DIRECTION ( 'NONE',  ( 0.000000000000000000, -5.921189464667500707E-14, -1.000000000000000000 ) ) ;
#353 = EDGE_LOOP ( 'NONE', ( #409, #356, #245, #276, #672, #133 ) ) ;
#354 = ORIENTED_EDGE ( 'NONE', *, *, #207, .T. ) ;
#355 = LINE ( 'NONE', #667, #788 ) ;
#356 = ORIENTED_EDGE ( 'NONE', *, *, #698, .T. ) ;
#357 = CARTESIAN_POINT ( 'NONE',  ( -6.614378277661540295, 389.9439068666206936, 5.546626436640420543 ) ) ;
#358 = CIRCLE ( 'NONE', #151, 7.500000000000000000 ) ;
#359 = PRODUCT_DEFINITION_SHAPE ( 'NONE', 'NONE',  #194 ) ;
#360 = EDGE_CURVE ( 'NONE', #115, #138, #573, .T. ) ;
#361 = FACE_OUTER_BOUND ( 'NONE', #316, .T. ) ;
#362 = DIRECTION ( 'NONE',  ( 0.000000000000000000, 0.000000000000000000, -1.000000000000000000 ) ) ;
#363 = ORIENTED_EDGE ( 'NONE', *, *, #247, .T. ) ;
#364 = EDGE_CURVE ( 'NONE', #138, #174, #550, .T. ) ;
#365 = CARTESIAN_POINT ( 'NONE',  ( -7.651860964941240795, -387.6209742506387670, -1.369084852771164096 ) ) ;
#366 = CARTESIAN_POINT ( 'NONE',  ( -6.717548661170688717, 389.3581937134263740, -4.971279493525410764 ) ) ;
#367 = B_SPLINE_CURVE_WITH_KNOTS ( 'NONE', 3,
 ( #547, #48, #299, #38, #794, #478, #102, #544, #605, #177, #40, #234, #286, #290, #790, #786, #483, #169, #365, #783, #225, #609, #238, #733, #172, #537, #431, #736 ),
 .UNSPECIFIED., .F., .F.,
 ( 4, 2, 2, 2, 2, 2, 2, 2, 2, 2, 2, 2, 2, 4 ),
 ( 2.557454500047342881E-07, 0.0008245312902756629734, 0.001648806835101321051, 0.002473082379926979345, 0.003297357924752637639, 0.004121633469578294198, 0.004945909014403951191, 0.006594460104055264310, 0.007418735648880920436, 0.008243011193706578296, 0.009067286738532234422, 0.009891562283357890548, 0.01154011337300913688, 0.01318866446266038321 ),
 .UNSPECIFIED. ) ;
#368 = ORIENTED_EDGE ( 'NONE', *, *, #207, .F. ) ;
#369 = CARTESIAN_POINT ( 'NONE',  ( 9.184850993605145972E-16, -394.9999999999999432, -7.500000000000000000 ) ) ;
#370 = EDGE_CURVE ( 'NONE', #197, #323, #306, .T. ) ;
#371 = CARTESIAN_POINT ( 'NONE',  ( -6.614378277661558059, 389.7302793214679468, -5.366078207927371224 ) ) ;
#372 = ORIENTED_EDGE ( 'NONE', *, *, #233, .F. ) ;
#373 = DIRECTION ( 'NONE',  ( -1.000000000000000000, -0.000000000000000000, -0.000000000000000000 ) ) ;
#374 = DIRECTION ( 'NONE',  ( 0.000000000000000000, 0.000000000000000000, 1.000000000000000000 ) ) ;
#375 = VERTEX_POINT ( 'NONE', #279 ) ;
#376 = ORIENTED_EDGE ( 'NONE', *, *, #351, .T. ) ;
#377 = APPROVAL_PERSON_ORGANIZATION ( #201, #732, #127 ) ;
#378 = ORIENTED_EDGE ( 'NONE', *, *, #59, .F. ) ;
#379 = CC_DESIGN_PERSON_AND_ORGANIZATION_ASSIGNMENT ( #752, #513, ( #194 ) ) ;
#380 = CIRCLE ( 'NONE', #94, 7.500000000000001776 ) ;
#381 = SPHERICAL_SURFACE ( 'NONE', #600, 7.500000000000000000 ) ;
#382 = AXIS2_PLACEMENT_3D ( 'NONE', #640, #535, #150 ) ;
#383 = AXIS2_PLACEMENT_3D ( 'NONE', #126, #393, #70 ) ;
#384 = EDGE_CURVE ( 'NONE', #114, #176, #329, .T. ) ;
#385 = EDGE_CURVE ( 'NONE', #243, #64, #185, .T. ) ;
#386 = DIRECTION ( 'NONE',  ( 0.000000000000000000, 0.000000000000000000, -1.000000000000000000 ) ) ;
#387 = EDGE_CURVE ( 'NONE', #281, #111, #291, .T. ) ;
#388 = ORIENTED_EDGE ( 'NONE', *, *, #223, .F. ) ;
#389 = LINE ( 'NONE', #267, #802 ) ;
#390 = APPROVAL_ROLE ( '' ) ;
#391 = LOCAL_TIME ( 23, 19, 4.000000000000000000, #326 ) ;
#392 = CIRCLE ( 'NONE', #487, 7.500000000000000000 ) ;
#393 = DIRECTION ( 'NONE',  ( 0.000000000000000000, -1.000000000000000000, -1.224646799147353207E-16 ) ) ;
#394 =( LENGTH_UNIT ( ) NAMED_UNIT ( * ) SI_UNIT ( .MILLI., .METRE. ) );
#395 = EDGE_CURVE ( 'NONE', #750, #446, #552, .T. ) ;
#396 = CIRCLE ( 'NONE', #514, 10.00000000000000000 ) ;
#397 = CARTESIAN_POINT ( 'NONE',  ( 0.000000000000000000, -394.9999999999999432, 0.000000000000000000 ) ) ;
#398 = PERSON_AND_ORGANIZATION_ROLE ( 'classification_officer' ) ;
#399 = ORIENTED_EDGE ( 'NONE', *, *, #497, .F. ) ;
#400 = CARTESIAN_POINT ( 'NONE',  ( 0.000000000000000000, 395.0000000000000000, 0.000000000000000000 ) ) ;
#401 = APPROVAL_DATE_TIME ( #318, #4 ) ;
#402 = CARTESIAN_POINT ( 'NONE',  ( -7.122799305510651102, 388.4418822042244415, 3.648649630536713317 ) ) ;
#403 = AXIS2_PLACEMENT_3D ( 'NONE', #787, #543, #606 ) ;
#404 = EDGE_LOOP ( 'NONE', ( #466, #510, #264, #372 ) ) ;
#405 = SPHERICAL_SURFACE ( 'NONE', #621, 10.00000000000000000 ) ;
#406 = CARTESIAN_POINT ( 'NONE',  ( 0.000000000000000000, 385.3175416344814153, 0.000000000000000000 ) ) ;
#407 = DATE_AND_TIME ( #143, #315 ) ;
#408 = CARTESIAN_POINT ( 'NONE',  ( 0.000000000000000000, 395.0000000000000000, 0.000000000000000000 ) ) ;
#409 = ORIENTED_EDGE ( 'NONE', *, *, #491, .F. ) ;
#410 = AXIS2_PLACEMENT_3D ( 'NONE', #418, #137, #352 ) ;
#411 = CIRCLE ( 'NONE', #678, 4.999999999999999112 ) ;
#412 = DIRECTION ( 'NONE',  ( 0.000000000000000000, 0.000000000000000000, -1.000000000000000000 ) ) ;
#413 = CARTESIAN_POINT ( 'NONE',  ( 0.000000000000000000, 350.0000000000000000, -7.500000000000000000 ) ) ;
#414 = VERTEX_POINT ( 'NONE', #350 ) ;
#415 = DIRECTION ( 'NONE',  ( -0.000000000000000000, -1.000000000000000000, -0.000000000000000000 ) ) ;
#416 = DIRECTION ( 'NONE',  ( -0.000000000000000000, -1.000000000000000000, -0.000000000000000000 ) ) ;
#417 = EDGE_CURVE ( 'NONE', #174, #611, #309, .T. ) ;
#418 = CARTESIAN_POINT ( 'NONE',  ( -6.614378277661487893, -395.0000000000000000, 0.000000000000000000 ) ) ;
#419 = EDGE_LOOP ( 'NONE', ( #657, #651 ) ) ;
#420 = ADVANCED_FACE ( 'NONE', ( #523 ), #711, .T. ) ;
#421 = CARTESIAN_POINT ( 'NONE',  ( 0.000000000000000000, 395.0000000000000000, 0.000000000000000000 ) ) ;
#422 = FACE_OUTER_BOUND ( 'NONE', #617, .T. ) ;
#423 = VECTOR ( 'NONE', #520, 1000.000000000000000 ) ;
#424 = CYLINDRICAL_SURFACE ( 'NONE', #336, 7.500000000000000000 ) ;
#425 = CARTESIAN_POINT ( 'NONE',  ( 0.000000000000000000, 350.0000000000000000, 0.000000000000000000 ) ) ;
#426 = VECTOR ( 'NONE', #448, 1000.000000000000000 ) ;
#427 = ORIENTED_EDGE ( 'NONE', *, *, #705, .F. ) ;
#428 = CARTESIAN_POINT ( 'NONE',  ( 0.000000000000000000, -350.0000000000000000, 0.000000000000000000 ) ) ;
#429 = DIRECTION ( 'NONE',  ( 0.000000000000000000, 0.000000000000000000, 1.000000000000000000 ) ) ;
#430 = ORIENTED_EDGE ( 'NONE', *, *, #542, .T. ) ;
#431 = CARTESIAN_POINT ( 'NONE',  ( -6.614378277661550065, -389.7302793214678331, -5.366078207927411192 ) ) ;
#432 = AXIS2_PLACEMENT_3D ( 'NONE', #300, #488, #178 ) ;
#433 = DIRECTION ( 'NONE',  ( 0.000000000000000000, 0.000000000000000000, -1.000000000000000000 ) ) ;
#434 = VERTEX_POINT ( 'NONE', #88 ) ;
#435 = CARTESIAN_POINT ( 'NONE',  ( 7.500000000000000000, -395.0000000000000000, -4.592425496802573972E-16 ) ) ;
#436 = DIRECTION ( 'NONE',  ( 0.000000000000000000, 0.000000000000000000, -1.000000000000000000 ) ) ;
#437 = AXIS2_PLACEMENT_3D ( 'NONE', #311, #559, #744 ) ;
#438 = CARTESIAN_POINT ( 'NONE',  ( 0.000000000000000000, 350.0000000000000000, 0.000000000000000000 ) ) ;
#439 = ORIENTED_EDGE ( 'NONE', *, *, #79, .F. ) ;
#440 = DIRECTION ( 'NONE',  ( -0.000000000000000000, -1.000000000000000000, -0.000000000000000000 ) ) ;
#441 = AXIS2_PLACEMENT_3D ( 'NONE', #582, #211, #522 ) ;
#442 = B_SPLINE_CURVE_WITH_KNOTS ( 'NONE', 3,
 ( #660, #357, #35, #284, #602, #538, #784, #402, #271, #767, #728, #49, #110, #791, #668, #734, #235, #618, #737, #484, #44, #671, #170, #166, #610, #366, #371, #240 ),
 .UNSPECIFIED., .F., .F.,
 ( 4, 2, 2, 2, 2, 2, 2, 2, 2, 2, 2, 2, 2, 4 ),
 ( 2.557454499972818275E-07, 0.0008245312902756532156, 0.001648806835101309124, 0.002473082379926964600, 0.003297357924752620725, 0.004121633469578276851, 0.004945909014403932109, 0.006594460104055242626, 0.007418735648880896150, 0.008243011193706552275, 0.009067286738532206666, 0.009891562283357861057, 0.01154011337300910045, 0.01318866446266033984 ),
 .UNSPECIFIED. ) ;
#443 = FACE_OUTER_BOUND ( 'NONE', #534, .T. ) ;
#444 = APPROVAL ( #578, 'UNSPECIFIED' ) ;
#445 = VECTOR ( 'NONE', #164, 1000.000000000000000 ) ;
#446 = VERTEX_POINT ( 'NONE', #343 ) ;
#447 = CARTESIAN_POINT ( 'NONE',  ( 0.000000000000000000, -394.9999999999999432, 7.500000000000000000 ) ) ;
#448 = DIRECTION ( 'NONE',  ( -0.000000000000000000, 1.000000000000000000, -0.000000000000000000 ) ) ;
#449 = PERSON_AND_ORGANIZATION ( #51, #673 ) ;
#450 = CARTESIAN_POINT ( 'NONE',  ( 7.500000000000000000, 395.0000000000000000, -4.592425496802573972E-16 ) ) ;
#451 = CARTESIAN_POINT ( 'NONE',  ( 0.000000000000000000, 0.000000000000000000, 0.000000000000000000 ) ) ;
#452 = ORIENTED_EDGE ( 'NONE', *, *, #741, .F. ) ;
#453 = CC_DESIGN_PERSON_AND_ORGANIZATION_ASSIGNMENT ( #196, #398, ( #239 ) ) ;
#454 = DIRECTION ( 'NONE',  ( 1.000000000000000000, -0.000000000000000000, -0.000000000000000000 ) ) ;
#455 = DIRECTION ( 'NONE',  ( 0.000000000000000000, 0.000000000000000000, -1.000000000000000000 ) ) ;
#456 = CALENDAR_DATE ( 2021, 22, 7 ) ;
#457 = ADVANCED_FACE ( 'NONE', ( #779, #220 ), #109, .F. ) ;
#458 = ORIENTED_EDGE ( 'NONE', *, *, #689, .T. ) ;
#459 = CARTESIAN_POINT ( 'NONE',  ( -6.614378277661487893, 395.0000000000000000, 0.000000000000000000 ) ) ;
#460 = DATE_TIME_ROLE ( 'creation_date' ) ;
#461 = VERTEX_POINT ( 'NONE', #42 ) ;
#462 = DIRECTION ( 'NONE',  ( -0.000000000000000000, 1.000000000000000000, -0.000000000000000000 ) ) ;
#463 = ORIENTED_EDGE ( 'NONE', *, *, #491, .T. ) ;
#464 = SPHERICAL_SURFACE ( 'NONE', #608, 7.500000000000000000 ) ;
#465 = CARTESIAN_POINT ( 'NONE',  ( 0.000000000000000000, -385.3175416344814153, -17.50000000000000000 ) ) ;
#466 = ORIENTED_EDGE ( 'NONE', *, *, #682, .T. ) ;
#467 = LINE ( 'NONE', #712, #252 ) ;
#468 = EDGE_CURVE ( 'NONE', #111, #176, #481, .T. ) ;
#469 = ORIENTED_EDGE ( 'NONE', *, *, #360, .F. ) ;
#470 = CYLINDRICAL_SURFACE ( 'NONE', #348, 7.500000000000001776 ) ;
#471 = CARTESIAN_POINT ( 'NONE',  ( 0.000000000000000000, 394.9999999999999432, 0.000000000000000000 ) ) ;
#472 = CARTESIAN_POINT ( 'NONE',  ( 0.000000000000000000, -394.9999999999999432, 0.000000000000000000 ) ) ;
#473 = ORIENTED_EDGE ( 'NONE', *, *, #387, .F. ) ;
#474 = ADVANCED_FACE ( 'NONE', ( #727 ), #541, .F. ) ;
#475 = DIRECTION ( 'NONE',  ( 1.000000000000000000, -0.000000000000000000, -0.000000000000000000 ) ) ;
#476 = CARTESIAN_POINT ( 'NONE',  ( 0.000000000000000000, 385.3175416344814153, 17.50000000000000000 ) ) ;
#477 = AXIS2_PLACEMENT_3D ( 'NONE', #770, #518, #92 ) ;
#478 = CARTESIAN_POINT ( 'NONE',  ( -6.908688268856235659, -388.8704829983935838, 4.330270380950020481 ) ) ;
#479 = DIRECTION ( 'NONE',  ( -0.000000000000000000, 1.000000000000000000, -0.000000000000000000 ) ) ;
#480 = ORIENTED_EDGE ( 'NONE', *, *, #139, .T. ) ;
#481 = LINE ( 'NONE', #369, #445 ) ;
#482 = VECTOR ( 'NONE', #254, 1000.000000000000000 ) ;
#483 = CARTESIAN_POINT ( 'NONE',  ( -7.729607361680390198, -387.5152902799644039, -0.5521588537539376951 ) ) ;
#484 = CARTESIAN_POINT ( 'NONE',  ( -7.567022505849231528, 387.7399333048110179, -1.901537779070113565 ) ) ;
#485 = ORIENTED_EDGE ( 'NONE', *, *, #417, .T. ) ;
#486 = DIRECTION ( 'NONE',  ( 1.000000000000000000, -0.000000000000000000, -0.000000000000000000 ) ) ;
#487 = AXIS2_PLACEMENT_3D ( 'NONE', #769, #30, #215 ) ;
#488 = DIRECTION ( 'NONE',  ( 0.000000000000000000, -1.000000000000000000, -1.224646799147353207E-16 ) ) ;
#489 = ORIENTED_EDGE ( 'NONE', *, *, #743, .T. ) ;
#490 = ADVANCED_FACE ( 'NONE', ( #361 ), #424, .T. ) ;
#491 = EDGE_CURVE ( 'NONE', #434, #414, #355, .T. ) ;
#492 = ORIENTED_EDGE ( 'NONE', *, *, #669, .F. ) ;
#493 = TOROIDAL_SURFACE ( 'NONE', #382, 17.50000000000000000, 10.00000000000000000 ) ;
#494 = DIRECTION ( 'NONE',  ( -0.000000000000000000, -1.000000000000000000, -0.000000000000000000 ) ) ;
#495 = ORIENTED_EDGE ( 'NONE', *, *, #590, .F. ) ;
#496 = SPHERICAL_SURFACE ( 'NONE', #130, 10.00000000000000000 ) ;
#497 = EDGE_CURVE ( 'NONE', #327, #742, #367, .T. ) ;
#498 = DIRECTION ( 'NONE',  ( 0.000000000000000000, 0.000000000000000000, 1.000000000000000000 ) ) ;
#499 = TOROIDAL_SURFACE ( 'NONE', #75, 17.50000000000000000, 10.00000000000000000 ) ;
#500 = DIRECTION ( 'NONE',  ( 0.000000000000000000, 0.000000000000000000, 1.000000000000000000 ) ) ;
#501 = PERSON_AND_ORGANIZATION ( #51, #673 ) ;
#502 = VERTEX_POINT ( 'NONE', #89 ) ;
#503 = AXIS2_PLACEMENT_3D ( 'NONE', #22, #648, #217 ) ;
#504 = DIRECTION ( 'NONE',  ( -0.000000000000000000, 1.000000000000000000, -0.000000000000000000 ) ) ;
#505 = DATE_AND_TIME ( #572, #346 ) ;
#506 = ORIENTED_EDGE ( 'NONE', *, *, #395, .T. ) ;
#507 = CARTESIAN_POINT ( 'NONE',  ( 0.000000000000000000, 394.9999999999999432, 0.000000000000000000 ) ) ;
#508 = APPROVAL_STATUS ( 'not_yet_approved' ) ;
#509 = AXIS2_PLACEMENT_3D ( 'NONE', #459, #716, #645 ) ;
#510 = ORIENTED_EDGE ( 'NONE', *, *, #468, .T. ) ;
#511 = DIRECTION ( 'NONE',  ( 0.000000000000000000, 0.000000000000000000, -1.000000000000000000 ) ) ;
#512 = DIRECTION ( 'NONE',  ( 0.000000000000000000, 0.000000000000000000, 1.000000000000000000 ) ) ;
#513 = PERSON_AND_ORGANIZATION_ROLE ( 'creator' ) ;
#514 = AXIS2_PLACEMENT_3D ( 'NONE', #208, #213, #28 ) ;
#515 = ORIENTED_EDGE ( 'NONE', *, *, #242, .F. ) ;
#516 = AXIS2_PLACEMENT_3D ( 'NONE', #562, #15, #500 ) ;
#517 = DIRECTION ( 'NONE',  ( -0.000000000000000000, -1.000000000000000000, -0.000000000000000000 ) ) ;
#518 = DIRECTION ( 'NONE',  ( -0.000000000000000000, -1.000000000000000000, -0.000000000000000000 ) ) ;
#519 = PERSON_AND_ORGANIZATION_ROLE ( 'creator' ) ;
#520 = DIRECTION ( 'NONE',  ( -0.000000000000000000, -1.000000000000000000, -0.000000000000000000 ) ) ;
#521 = ORIENTED_EDGE ( 'NONE', *, *, #417, .F. ) ;
#522 = DIRECTION ( 'NONE',  ( 0.000000000000000000, 0.000000000000000000, -1.000000000000000000 ) ) ;
#523 = FACE_OUTER_BOUND ( 'NONE', #334, .T. ) ;
#524 = ADVANCED_FACE ( 'NONE', ( #422 ), #493, .F. ) ;
#525 = CARTESIAN_POINT ( 'NONE',  ( 10.00000000000000000, -394.9999999999999432, -6.123233995736766282E-16 ) ) ;
#526 = ORIENTED_EDGE ( 'NONE', *, *, #385, .F. ) ;
#527 = DIRECTION ( 'NONE',  ( 0.000000000000000000, 0.000000000000000000, -1.000000000000000000 ) ) ;
#528 = EDGE_CURVE ( 'NONE', #569, #781, #296, .T. ) ;
#529 = DIRECTION ( 'NONE',  ( 0.000000000000000000, 0.000000000000000000, 1.000000000000000000 ) ) ;
#530 = DIRECTION ( 'NONE',  ( 0.000000000000000000, 1.000000000000000000, 0.000000000000000000 ) ) ;
#531 = ORIENTED_EDGE ( 'NONE', *, *, #542, .F. ) ;
#532 = AXIS2_PLACEMENT_3D ( 'NONE', #796, #677, #436 ) ;
#533 = DIRECTION ( 'NONE',  ( 0.000000000000000000, 1.000000000000000000, 0.000000000000000000 ) ) ;
#534 = EDGE_LOOP ( 'NONE', ( #272, #17, #368 ) ) ;
#535 = DIRECTION ( 'NONE',  ( 0.000000000000000000, -1.000000000000000000, 0.000000000000000000 ) ) ;
#536 = CARTESIAN_POINT ( 'NONE',  ( 0.000000000000000000, 350.0000000000000000, -4.999999999999999112 ) ) ;
#537 = CARTESIAN_POINT ( 'NONE',  ( -6.717548661170676283, -389.3581937134262603, -4.971279493525452509 ) ) ;
#538 = CARTESIAN_POINT ( 'NONE',  ( -6.908688268856237436, 388.8704829983935838, 4.330270380950026698 ) ) ;
#539 = PRODUCT ( 'deltal2_Default_sldprt', 'deltal2_Default_sldprt', '', ( #192 ) ) ;
#540 = AXIS2_PLACEMENT_3D ( 'NONE', #274, #283, #206 ) ;
#541 = CYLINDRICAL_SURFACE ( 'NONE', #650, 7.500000000000001776 ) ;
#542 = EDGE_CURVE ( 'NONE', #176, #114, #746, .T. ) ;
#543 = DIRECTION ( 'NONE',  ( 0.000000000000000000, 1.000000000000000000, 0.000000000000000000 ) ) ;
#544 = CARTESIAN_POINT ( 'NONE',  ( -7.122799305510651990, -388.4418822042244415, 3.648649630536703103 ) ) ;
#545 = AXIS2_PLACEMENT_3D ( 'NONE', #507, #68, #257 ) ;
#546 = DIRECTION ( 'NONE',  ( -1.000000000000000000, 0.000000000000000000, 0.000000000000000000 ) ) ;
#547 = CARTESIAN_POINT ( 'NONE',  ( -6.614378277661588257, -390.1587708172406224, 5.728219618694664561 ) ) ;
#548 = CARTESIAN_POINT ( 'NONE',  ( -6.614378277661487893, -395.0000000000000000, 0.000000000000000000 ) ) ;
#549 = DIRECTION ( 'NONE',  ( -0.000000000000000000, -1.000000000000000000, -0.000000000000000000 ) ) ;
#550 = CIRCLE ( 'NONE', #661, 8.749999999999996447 ) ;
#551 = ORIENTED_EDGE ( 'NONE', *, *, #705, .T. ) ;
#552 = CIRCLE ( 'NONE', #726, 7.500000000000000000 ) ;
#553 = DIRECTION ( 'NONE',  ( 0.000000000000000000, 0.000000000000000000, -1.000000000000000000 ) ) ;
#554 = CARTESIAN_POINT ( 'NONE',  ( 9.950255243072258398E-16, -385.3175416344814153, 7.500000000000000000 ) ) ;
#555 = APPLICATION_CONTEXT ( 'configuration controlled 3d designs of mechanical parts and assemblies' ) ;
#556 = ORIENTED_EDGE ( 'NONE', *, *, #182, .T. ) ;
#557 = ORIENTED_EDGE ( 'NONE', *, *, #689, .F. ) ;
#558 = AXIS2_PLACEMENT_3D ( 'NONE', #325, #629, #330 ) ;
#559 = DIRECTION ( 'NONE',  ( 0.000000000000000000, 1.000000000000000000, 0.000000000000000000 ) ) ;
#560 = EDGE_CURVE ( 'NONE', #724, #461, #664, .T. ) ;
#561 = ORIENTED_EDGE ( 'NONE', *, *, #364, .T. ) ;
#562 = CARTESIAN_POINT ( 'NONE',  ( 0.000000000000000000, 350.0000000000000000, 0.000000000000000000 ) ) ;
#563 = EDGE_LOOP ( 'NONE', ( #162, #709, #495, #662, #116, #480, #171 ) ) ;
#564 = VERTEX_POINT ( 'NONE', #413 ) ;
#565 = DIRECTION ( 'NONE',  ( 1.000000000000000000, -0.000000000000000000, -0.000000000000000000 ) ) ;
#566 = EDGE_LOOP ( 'NONE', ( #595, #463, #427, #388 ) ) ;
#567 = CARTESIAN_POINT ( 'NONE',  ( 0.000000000000000000, 350.0000000000000000, 0.000000000000000000 ) ) ;
#568 = PRODUCT_RELATED_PRODUCT_CATEGORY ( 'detail', '', ( #539 ) ) ;
#569 = VERTEX_POINT ( 'NONE', #525 ) ;
#570 = DIRECTION ( 'NONE',  ( 0.000000000000000000, -1.000000000000000000, 0.000000000000000000 ) ) ;
#571 = DIRECTION ( 'NONE',  ( 0.000000000000000000, 0.000000000000000000, 1.000000000000000000 ) ) ;
#572 = CALENDAR_DATE ( 2021, 22, 7 ) ;
#573 = CIRCLE ( 'NONE', #797, 8.749999999999996447 ) ;
#574 = ORIENTED_EDGE ( 'NONE', *, *, #227, .T. ) ;
#575 = ADVANCED_FACE ( 'NONE', ( #156 ), #613, .F. ) ;
#576 = DIRECTION ( 'NONE',  ( 0.000000000000000000, 0.000000000000000000, -1.000000000000000000 ) ) ;
#577 = FACE_OUTER_BOUND ( 'NONE', #793, .T. ) ;
#578 = APPROVAL_STATUS ( 'not_yet_approved' ) ;
#579 = CARTESIAN_POINT ( 'NONE',  ( 0.000000000000000000, -385.3175416344814153, 0.000000000000000000 ) ) ;
#580 = EDGE_LOOP ( 'NONE', ( #492, #526, #256, #376 ) ) ;
#581 = CC_DESIGN_PERSON_AND_ORGANIZATION_ASSIGNMENT ( #255, #72, ( #539 ) ) ;
#582 = CARTESIAN_POINT ( 'NONE',  ( 0.000000000000000000, -395.0000000000000000, 0.000000000000000000 ) ) ;
#583 = FACE_OUTER_BOUND ( 'NONE', #708, .T. ) ;
#584 = EDGE_LOOP ( 'NONE', ( #624, #803, #124, #120, #561, #108, #95 ) ) ;
#585 = LINE ( 'NONE', #84, #46 ) ;
#586 = ORIENTED_EDGE ( 'NONE', *, *, #202, .T. ) ;
#587 = CARTESIAN_POINT ( 'NONE',  ( 0.000000000000000000, -385.3175416344814153, 0.000000000000000000 ) ) ;
#588 = ORIENTED_EDGE ( 'NONE', *, *, #385, .T. ) ;
#589 = CC_DESIGN_APPROVAL ( #732, ( #194 ) ) ;
#590 = EDGE_CURVE ( 'NONE', #742, #781, #800, .T. ) ;
#591 = EDGE_LOOP ( 'NONE', ( #655, #345, #307, #531 ) ) ;
#592 = AXIS2_PLACEMENT_3D ( 'NONE', #141, #278, #527 ) ;
#593 = CARTESIAN_POINT ( 'NONE',  ( 0.000000000000000000, -395.0000000000000000, 0.000000000000000000 ) ) ;
#594 = DIRECTION ( 'NONE',  ( 0.000000000000000000, 0.000000000000000000, -1.000000000000000000 ) ) ;
#595 = ORIENTED_EDGE ( 'NONE', *, *, #741, .T. ) ;
#596 = CARTESIAN_POINT ( 'NONE',  ( 0.000000000000000000, -350.0000000000000000, 0.000000000000000000 ) ) ;
#597 = EDGE_LOOP ( 'NONE', ( #67, #183 ) ) ;
#598 = CARTESIAN_POINT ( 'NONE',  ( 0.000000000000000000, 350.0000000000000000, 0.000000000000000000 ) ) ;
#599 = AXIS2_PLACEMENT_3D ( 'NONE', #77, #83, #775 ) ;
#600 = AXIS2_PLACEMENT_3D ( 'NONE', #54, #494, #248 ) ;
#601 = DIRECTION ( 'NONE',  ( -0.000000000000000000, -1.000000000000000000, -0.000000000000000000 ) ) ;
#602 = CARTESIAN_POINT ( 'NONE',  ( -6.781265736888274276, 389.1961269342043579, 4.757864823767802065 ) ) ;
#603 = ADVANCED_FACE ( 'NONE', ( #340 ), #280, .F. ) ;
#604 = ORIENTED_EDGE ( 'NONE', *, *, #665, .F. ) ;
#605 = CARTESIAN_POINT ( 'NONE',  ( -7.194610783897023687, -388.3167522338992512, 3.413948157910788428 ) ) ;
#606 = DIRECTION ( 'NONE',  ( 0.000000000000000000, 0.000000000000000000, 1.000000000000000000 ) ) ;
#607 = CC_DESIGN_APPROVAL ( #4, ( #158 ) ) ;
#608 = AXIS2_PLACEMENT_3D ( 'NONE', #593, #147, #273 ) ;
#609 = CARTESIAN_POINT ( 'NONE',  ( -7.397176669541794425, -387.9898333242954891, -2.679802473220844750 ) ) ;
#610 = CARTESIAN_POINT ( 'NONE',  ( -6.974840508848168419, 388.7022001902689681, -4.108687811761631892 ) ) ;
#611 = VERTEX_POINT ( 'NONE', #780 ) ;
#612 = CC_DESIGN_PERSON_AND_ORGANIZATION_ASSIGNMENT ( #131, #756, ( #158 ) ) ;
#613 = TOROIDAL_SURFACE ( 'NONE', #7, 17.50000000000000000, 10.00000000000000000 ) ;
#614 = CARTESIAN_POINT ( 'NONE',  ( 0.000000000000000000, 394.9999999999999432, 0.000000000000000000 ) ) ;
#615 = AXIS2_PLACEMENT_3D ( 'NONE', #50, #623, #246 ) ;
#616 = CARTESIAN_POINT ( 'NONE',  ( -6.614378277661532302, -390.1587708172406224, -5.728219618694670778 ) ) ;
#617 = EDGE_LOOP ( 'NONE', ( #81, #378, #341, #703 ) ) ;
#618 = CARTESIAN_POINT ( 'NONE',  ( -7.684919687682993938, 387.5758973692565519, -1.099299377404050260 ) ) ;
#619 = DIRECTION ( 'NONE',  ( 0.000000000000000000, -1.000000000000000000, 0.000000000000000000 ) ) ;
#620 = CC_DESIGN_APPROVAL ( #444, ( #239 ) ) ;
#621 = AXIS2_PLACEMENT_3D ( 'NONE', #652, #87, #26 ) ;
#622 = ORIENTED_EDGE ( 'NONE', *, *, #260, .T. ) ;
#623 = DIRECTION ( 'NONE',  ( 0.000000000000000000, -1.000000000000000000, 0.000000000000000000 ) ) ;
#624 = ORIENTED_EDGE ( 'NONE', *, *, #182, .F. ) ;
#625 = DIRECTION ( 'NONE',  ( 0.000000000000000000, 1.000000000000000000, 0.000000000000000000 ) ) ;
#626 = CIRCLE ( 'NONE', #337, 4.999999999999999112 ) ;
#627 = CARTESIAN_POINT ( 'NONE',  ( 0.000000000000000000, -385.3175416344814153, -7.500000000000000000 ) ) ;
#628 = ORIENTED_EDGE ( 'NONE', *, *, #43, .F. ) ;
#629 = DIRECTION ( 'NONE',  ( 0.000000000000000000, -1.000000000000000000, -1.224646799147353207E-16 ) ) ;
#630 = EDGE_LOOP ( 'NONE', ( #439, #146, #152, #259 ) ) ;
#631 = FACE_OUTER_BOUND ( 'NONE', #584, .T. ) ;
#632 = APPROVAL_ROLE ( '' ) ;
#633 = VERTEX_POINT ( 'NONE', #287 ) ;
#634 = CARTESIAN_POINT ( 'NONE',  ( 0.000000000000000000, 394.9999999999999432, 0.000000000000000000 ) ) ;
#635 =( NAMED_UNIT ( * ) SI_UNIT ( $, .STERADIAN. ) SOLID_ANGLE_UNIT ( ) );
#636 = ORIENTED_EDGE ( 'NONE', *, *, #227, .F. ) ;
#637 = DIRECTION ( 'NONE',  ( 1.000000000000000000, 0.000000000000000000, 0.000000000000000000 ) ) ;
#638 = CARTESIAN_POINT ( 'NONE',  ( 0.000000000000000000, -395.0000000000000000, 0.000000000000000000 ) ) ;
#639 = CALENDAR_DATE ( 2021, 22, 7 ) ;
#640 = CARTESIAN_POINT ( 'NONE',  ( 0.000000000000000000, -385.3175416344814153, 0.000000000000000000 ) ) ;
#641 = AXIS2_PLACEMENT_3D ( 'NONE', #173, #295, #433 ) ;
#642 = AXIS2_PLACEMENT_3D ( 'NONE', #212, #142, #759 ) ;
#643 = EDGE_CURVE ( 'NONE', #105, #747, #585, .T. ) ;
#644 = ORIENTED_EDGE ( 'NONE', *, *, #134, .F. ) ;
#645 = DIRECTION ( 'NONE',  ( 0.000000000000000000, 0.000000000000000000, -1.000000000000000000 ) ) ;
#646 = DIRECTION ( 'NONE',  ( 0.000000000000000000, 1.000000000000000000, 0.000000000000000000 ) ) ;
#647 = APPROVAL_DATE_TIME ( #407, #444 ) ;
#648 = DIRECTION ( 'NONE',  ( 0.000000000000000000, 1.000000000000000000, 0.000000000000000000 ) ) ;
#649 = EDGE_CURVE ( 'NONE', #214, #13, #396, .T. ) ;
#650 = AXIS2_PLACEMENT_3D ( 'NONE', #670, #675, #294 ) ;
#651 = ORIENTED_EDGE ( 'NONE', *, *, #55, .F. ) ;
#652 = CARTESIAN_POINT ( 'NONE',  ( 0.000000000000000000, 394.9999999999999432, 0.000000000000000000 ) ) ;
#653 = ADVANCED_FACE ( 'NONE', ( #776, #333 ), #221, .F. ) ;
#654 = DIRECTION ( 'NONE',  ( 0.000000000000000000, 0.000000000000000000, 1.000000000000000000 ) ) ;
#655 = ORIENTED_EDGE ( 'NONE', *, *, #468, .F. ) ;
#656 = DIRECTION ( 'NONE',  ( 0.000000000000000000, 0.000000000000000000, 1.000000000000000000 ) ) ;
#657 = ORIENTED_EDGE ( 'NONE', *, *, #801, .F. ) ;
#658 = SPHERICAL_SURFACE ( 'NONE', #193, 10.00000000000000000 ) ;
#659 = DIRECTION ( 'NONE',  ( 0.000000000000000000, 1.000000000000000000, -0.000000000000000000 ) ) ;
#660 = CARTESIAN_POINT ( 'NONE',  ( -6.614378277661532302, 390.1587708172406224, 5.728219618694670778 ) ) ;
#661 = AXIS2_PLACEMENT_3D ( 'NONE', #765, #717, #512 ) ;
#662 = ORIENTED_EDGE ( 'NONE', *, *, #43, .T. ) ;
#663 = CARTESIAN_POINT ( 'NONE',  ( 0.000000000000000000, 390.1587708172406224, 0.000000000000000000 ) ) ;
#664 = LINE ( 'NONE', #344, #423 ) ;
#665 = EDGE_CURVE ( 'NONE', #138, #724, #149, .T. ) ;
#666 = AXIS2_PLACEMENT_3D ( 'NONE', #792, #619, #181 ) ;
#667 = CARTESIAN_POINT ( 'NONE',  ( -45.00000000000000000, -395.0000000000000000, 7.500000000000001776 ) ) ;
#668 = CARTESIAN_POINT ( 'NONE',  ( -7.740775035561027195, 387.5003847564238413, 0.5608277519806362799 ) ) ;
#669 = EDGE_CURVE ( 'NONE', #64, #186, #467, .T. ) ;
#670 = CARTESIAN_POINT ( 'NONE',  ( -45.00000000000000000, -395.0000000000000000, 0.000000000000000000 ) ) ;
#671 = CARTESIAN_POINT ( 'NONE',  ( -7.397176669541794425, 387.9898333242953754, -2.679802473220820325 ) ) ;
#672 = ORIENTED_EDGE ( 'NONE', *, *, #223, .T. ) ;
#673 = ORGANIZATION ( 'UNSPECIFIED', 'UNSPECIFIED', '' ) ;
#674 = AXIS2_PLACEMENT_3D ( 'NONE', #548, #546, #553 ) ;
#675 = DIRECTION ( 'NONE',  ( 1.000000000000000000, -0.000000000000000000, -0.000000000000000000 ) ) ;
#676 = CARTESIAN_POINT ( 'NONE',  ( 9.184850993605145972E-16, 385.3175416344814153, 7.500000000000000000 ) ) ;
#677 = DIRECTION ( 'NONE',  ( 1.000000000000000000, -0.000000000000000000, -0.000000000000000000 ) ) ;
#678 = AXIS2_PLACEMENT_3D ( 'NONE', #241, #244, #374 ) ;
#679 = DIRECTION ( 'NONE',  ( -0.000000000000000000, -1.000000000000000000, -0.000000000000000000 ) ) ;
#680 = ORIENTED_EDGE ( 'NONE', *, *, #351, .F. ) ;
#681 = DIRECTION ( 'NONE',  ( 0.000000000000000000, 0.000000000000000000, 1.000000000000000000 ) ) ;
#682 = EDGE_CURVE ( 'NONE', #13, #111, #713, .T. ) ;
#683 = EDGE_LOOP ( 'NONE', ( #222, #685, #777 ) ) ;
#684 = LINE ( 'NONE', #135, #739 ) ;
#685 = ORIENTED_EDGE ( 'NONE', *, *, #265, .T. ) ;
#686 = CARTESIAN_POINT ( 'NONE',  ( -45.00000000000000000, -395.0000000000000000, 0.000000000000000000 ) ) ;
#687 = APPROVAL_DATE_TIME ( #505, #732 ) ;
#688 = ORIENTED_EDGE ( 'NONE', *, *, #801, .T. ) ;
#689 = EDGE_CURVE ( 'NONE', #115, #86, #442, .T. ) ;
#690 = ORIENTED_EDGE ( 'NONE', *, *, #643, .T. ) ;
#691 = CYLINDRICAL_SURFACE ( 'NONE', #9, 7.500000000000001776 ) ;
#692 = CIRCLE ( 'NONE', #347, 7.500000000000001776 ) ;
#693 = COORDINATED_UNIVERSAL_TIME_OFFSET ( 5, 30, .AHEAD. ) ;
#694 = EDGE_CURVE ( 'NONE', #105, #502, #725, .T. ) ;
#695 = SPHERICAL_SURFACE ( 'NONE', #729, 10.00000000000000000 ) ;
#696 = COORDINATED_UNIVERSAL_TIME_OFFSET ( 5, 30, .AHEAD. ) ;
#697 = AXIS2_PLACEMENT_3D ( 'NONE', #71, #570, #511 ) ;
#698 = EDGE_CURVE ( 'NONE', #434, #327, #380, .T. ) ;
#699 = EDGE_LOOP ( 'NONE', ( #45, #219, #354, #644, #757, #557 ) ) ;
#700 = DIRECTION ( 'NONE',  ( 0.000000000000000000, 0.000000000000000000, 1.000000000000000000 ) ) ;
#701 = DIRECTION ( 'NONE',  ( 0.000000000000000000, 0.000000000000000000, 1.000000000000000000 ) ) ;
#702 = DATE_AND_TIME ( #707, #391 ) ;
#703 = ORIENTED_EDGE ( 'NONE', *, *, #682, .F. ) ;
#704 = FACE_OUTER_BOUND ( 'NONE', #191, .T. ) ;
#705 = EDGE_CURVE ( 'NONE', #446, #414, #14, .T. ) ;
#706 = DIRECTION ( 'NONE',  ( 1.000000000000000000, 0.000000000000000000, 0.000000000000000000 ) ) ;
#707 = CALENDAR_DATE ( 2021, 22, 7 ) ;
#708 = EDGE_LOOP ( 'NONE', ( #160, #155, #168, #473, #628, #399 ) ) ;
#709 = ORIENTED_EDGE ( 'NONE', *, *, #528, .T. ) ;
#710 = CARTESIAN_POINT ( 'NONE',  ( 0.000000000000000000, -390.1587708172406224, -8.749999999999973355 ) ) ;
#711 = CYLINDRICAL_SURFACE ( 'NONE', #231, 7.500000000000000000 ) ;
#712 = CARTESIAN_POINT ( 'NONE',  ( -45.00000000000000000, 395.0000000000000000, 7.500000000000001776 ) ) ;
#713 = CIRCLE ( 'NONE', #282, 7.500000000000000000 ) ;
#714 = ORIENTED_EDGE ( 'NONE', *, *, #364, .F. ) ;
#715 = CIRCLE ( 'NONE', #778, 7.500000000000001776 ) ;
#716 = DIRECTION ( 'NONE',  ( 1.000000000000000000, -0.000000000000000000, -0.000000000000000000 ) ) ;
#717 = DIRECTION ( 'NONE',  ( 0.000000000000000000, 1.000000000000000000, 0.000000000000000000 ) ) ;
#718 = DIRECTION ( 'NONE',  ( -1.000000000000000000, 0.000000000000000000, 0.000000000000000000 ) ) ;
#719 = ORIENTED_EDGE ( 'NONE', *, *, #665, .T. ) ;
#720 = CARTESIAN_POINT ( 'NONE',  ( 0.000000000000000000, 395.0000000000000000, -7.500000000000001776 ) ) ;
#721 = DIRECTION ( 'NONE',  ( -0.000000000000000000, -1.000000000000000000, -0.000000000000000000 ) ) ;
#722 = CC_DESIGN_SECURITY_CLASSIFICATION ( #239, ( #158 ) ) ;
#723 = TOROIDAL_SURFACE ( 'NONE', #226, 17.50000000000000000, 10.00000000000000000 ) ;
#724 = VERTEX_POINT ( 'NONE', #676 ) ;
#725 = CIRCLE ( 'NONE', #328, 4.999999999999999112 ) ;
#726 = AXIS2_PLACEMENT_3D ( 'NONE', #638, #646, #654 ) ;
#727 = FACE_OUTER_BOUND ( 'NONE', #566, .T. ) ;
#728 = CARTESIAN_POINT ( 'NONE',  ( -7.396091703499053871, 387.9915074225914964, 2.683963252864286275 ) ) ;
#729 = AXIS2_PLACEMENT_3D ( 'NONE', #634, #195, #576 ) ;
#730 = DIRECTION ( 'NONE',  ( 0.000000000000000000, 0.000000000000000000, -1.000000000000000000 ) ) ;
#731 = CARTESIAN_POINT ( 'NONE',  ( 0.000000000000000000, -350.0000000000000000, -4.999999999999999112 ) ) ;
#732 = APPROVAL ( #508, 'UNSPECIFIED' ) ;
#733 = CARTESIAN_POINT ( 'NONE',  ( -7.126887969222926777, -388.4282791958045209, -3.653314355351866549 ) ) ;
#734 = CARTESIAN_POINT ( 'NONE',  ( -7.741203137802579626, 387.4998102938549778, -0.2726600706107656369 ) ) ;
#735 = CARTESIAN_POINT ( 'NONE',  ( -6.614378277661588257, 390.1587708172406224, -5.728219618694664561 ) ) ;
#736 = CARTESIAN_POINT ( 'NONE',  ( -6.614378277661532302, -390.1587708172406224, -5.728219618694670778 ) ) ;
#737 = CARTESIAN_POINT ( 'NONE',  ( -7.651860964941246124, 387.6209742506387670, -1.369084852771128125 ) ) ;
#738 = ORIENTED_EDGE ( 'NONE', *, *, #384, .T. ) ;
#739 = VECTOR ( 'NONE', #565, 1000.000000000000000 ) ;
#740 = CARTESIAN_POINT ( 'NONE',  ( -6.614378277661487893, 394.9999999999999432, 7.499999999999996447 ) ) ;
#741 = EDGE_CURVE ( 'NONE', #781, #434, #3, .T. ) ;
#742 = VERTEX_POINT ( 'NONE', #616 ) ;
#743 = EDGE_CURVE ( 'NONE', #197, #186, #772, .T. ) ;
#744 = DIRECTION ( 'NONE',  ( 0.000000000000000000, 0.000000000000000000, 1.000000000000000000 ) ) ;
#745 = AXIS2_PLACEMENT_3D ( 'NONE', #230, #373, #362 ) ;
#746 = CIRCLE ( 'NONE', #128, 7.500000000000000000 ) ;
#747 = VERTEX_POINT ( 'NONE', #731 ) ;
#748 = DIRECTION ( 'NONE',  ( 0.000000000000000000, 0.000000000000000000, -1.000000000000000000 ) ) ;
#749 = CIRCLE ( 'NONE', #437, 8.749999999999996447 ) ;
#750 = VERTEX_POINT ( 'NONE', #435 ) ;
#751 = LINE ( 'NONE', #447, #426 ) ;
#752 = PERSON_AND_ORGANIZATION ( #51, #673 ) ;
#753 = EDGE_CURVE ( 'NONE', #502, #375, #292, .T. ) ;
#754 = AXIS2_PLACEMENT_3D ( 'NONE', #136, #659, #571 ) ;
#755 = CARTESIAN_POINT ( 'NONE',  ( 0.000000000000000000, 390.1587708172406224, 8.749999999999973355 ) ) ;
#756 = PERSON_AND_ORGANIZATION_ROLE ( 'design_supplier' ) ;
#757 = ORIENTED_EDGE ( 'NONE', *, *, #258, .F. ) ;
#758 = CARTESIAN_POINT ( 'NONE',  ( 0.000000000000000000, 385.3175416344814153, 0.000000000000000000 ) ) ;
#759 = DIRECTION ( 'NONE',  ( 0.000000000000000000, 0.000000000000000000, -1.000000000000000000 ) ) ;
#760 = AXIS2_PLACEMENT_3D ( 'NONE', #428, #229, #106 ) ;
#761 = DATE_AND_TIME ( #639, #117 ) ;
#762 = AXIS2_PLACEMENT_3D ( 'NONE', #317, #250, #748 ) ;
#763 = EDGE_LOOP ( 'NONE', ( #521, #714, #719, #188 ) ) ;
#764 = FACE_OUTER_BOUND ( 'NONE', #591, .T. ) ;
#765 = CARTESIAN_POINT ( 'NONE',  ( 0.000000000000000000, 390.1587708172406224, 0.000000000000000000 ) ) ;
#766 = COORDINATED_UNIVERSAL_TIME_OFFSET ( 5, 30, .AHEAD. ) ;
#767 = CARTESIAN_POINT ( 'NONE',  ( -7.331231552190790701, 388.0915588733348045, 2.931600915437311716 ) ) ;
#768 = ORIENTED_EDGE ( 'NONE', *, *, #145, .T. ) ;
#769 = CARTESIAN_POINT ( 'NONE',  ( 0.000000000000000000, 385.3175416344814153, 0.000000000000000000 ) ) ;
#770 = CARTESIAN_POINT ( 'NONE',  ( 0.000000000000000000, -395.0000000000000000, 0.000000000000000000 ) ) ;
#771 = CARTESIAN_POINT ( 'NONE',  ( 0.000000000000000000, 385.3175416344814153, 0.000000000000000000 ) ) ;
#772 = CIRCLE ( 'NONE', #432, 7.500000000000000000 ) ;
#773 = ORIENTED_EDGE ( 'NONE', *, *, #79, .T. ) ;
#774 = FACE_OUTER_BOUND ( 'NONE', #699, .T. ) ;
#775 = DIRECTION ( 'NONE',  ( 1.224646799147355919E-16, 0.000000000000000000, -1.000000000000000000 ) ) ;
#776 = FACE_BOUND ( 'NONE', #157, .T. ) ;
#777 = ORIENTED_EDGE ( 'NONE', *, *, #789, .T. ) ;
#778 = AXIS2_PLACEMENT_3D ( 'NONE', #400, #637, #122 ) ;
#779 = FACE_BOUND ( 'NONE', #419, .T. ) ;
#780 = CARTESIAN_POINT ( 'NONE',  ( 0.000000000000000000, 385.3175416344814153, -7.500000000000000000 ) ) ;
#781 = VERTEX_POINT ( 'NONE', #113 ) ;
#782 = EDGE_LOOP ( 'NONE', ( #29, #489, #680 ) ) ;
#783 = CARTESIAN_POINT ( 'NONE',  ( -7.567022505849223535, -387.7399333048110748, -1.901537779070151313 ) ) ;
#784 = CARTESIAN_POINT ( 'NONE',  ( -6.979925487853716248, 388.7184796447889994, 4.106586803752779957 ) ) ;
#785 = AXIS2_PLACEMENT_3D ( 'NONE', #465, #331, #529 ) ;
#786 = CARTESIAN_POINT ( 'NONE',  ( -7.741203137802578738, -387.4998102938550915, -0.2726600706107930594 ) ) ;
#787 = CARTESIAN_POINT ( 'NONE',  ( 0.000000000000000000, -350.0000000000000000, 0.000000000000000000 ) ) ;
#788 = VECTOR ( 'NONE', #486, 1000.000000000000000 ) ;
#789 = EDGE_CURVE ( 'NONE', #414, #446, #163, .T. ) ;
#790 = CARTESIAN_POINT ( 'NONE',  ( -7.740775035561026307, -387.5003847564237844, 0.5608277519806112998 ) ) ;
#791 = CARTESIAN_POINT ( 'NONE',  ( -7.694084413019668389, 387.5617231516312131, 1.106166088400130310 ) ) ;
#792 = CARTESIAN_POINT ( 'NONE',  ( 0.000000000000000000, -390.1587708172406224, 0.000000000000000000 ) ) ;
#793 = EDGE_LOOP ( 'NONE', ( #298, #506, #551 ) ) ;
#794 = CARTESIAN_POINT ( 'NONE',  ( -6.781265736888275164, -389.1961269342043579, 4.757864823767796736 ) ) ;
#795 = DIRECTION ( 'NONE',  ( 0.000000000000000000, 0.000000000000000000, -1.000000000000000000 ) ) ;
#796 = CARTESIAN_POINT ( 'NONE',  ( -45.00000000000000000, 395.0000000000000000, 0.000000000000000000 ) ) ;
#797 = AXIS2_PLACEMENT_3D ( 'NONE', #663, #533, #701 ) ;
#798 = EDGE_LOOP ( 'NONE', ( #11, #25, #690, #688 ) ) ;
#799 = CYLINDRICAL_SURFACE ( 'NONE', #532, 7.500000000000001776 ) ;
#800 = CIRCLE ( 'NONE', #410, 7.500000000000001776 ) ;
#801 = EDGE_CURVE ( 'NONE', #747, #375, #224, .T. ) ;
#802 = VECTOR ( 'NONE', #517, 1000.000000000000000 ) ;
#803 = ORIENTED_EDGE ( 'NONE', *, *, #242, .T. ) ;
ENDSEC;
END-ISO-10303-21;
