ISO-10303-21;
HEADER;
FILE_DESCRIPTION (( 'STEP AP203' ),
    '1' );
FILE_NAME ('delta l1_Default_sldprt.STEP',
    '2021-07-22T17:48:46',
    ( '' ),
    ( '' ),
    'SwSTEP 2.0',
    'SolidWorks 2020',
    '' );
FILE_SCHEMA (( 'CONFIG_CONTROL_DESIGN' ));
ENDSEC;

DATA;
#1 = CARTESIAN_POINT ( 'NONE',  ( 0.000000000000000000, 0.000000000000000000, 40.00000000000000000 ) ) ;
#2 = ORIENTED_EDGE ( 'NONE', *, *, #97, .T. ) ;
#3 = DIRECTION ( 'NONE',  ( 0.000000000000000000, 0.000000000000000000, 1.000000000000000000 ) ) ;
#4 = DIRECTION ( 'NONE',  ( -0.000000000000000000, -0.000000000000000000, -1.000000000000000000 ) ) ;
#5 = EDGE_CURVE ( 'NONE', #654, #252, #994, .T. ) ;
#6 = ORIENTED_EDGE ( 'NONE', *, *, #941, .T. ) ;
#7 = EDGE_CURVE ( 'NONE', #73, #467, #697, .T. ) ;
#8 = DIRECTION ( 'NONE',  ( 0.000000000000000000, 1.000000000000000000, 0.000000000000000000 ) ) ;
#9 = FACE_OUTER_BOUND ( 'NONE', #37, .T. ) ;
#10 = AXIS2_PLACEMENT_3D ( 'NONE', #993, #822, #908 ) ;
#11 = AXIS2_PLACEMENT_3D ( 'NONE', #484, #827, #919 ) ;
#12 = MANIFOLD_SOLID_BREP ( 'Mirror1', #259 ) ;
#13 = CARTESIAN_POINT ( 'NONE',  ( 60.00000000000000711, -20.00000000000003197, 11.71572875253809976 ) ) ;
#14 = DIRECTION ( 'NONE',  ( 1.000000000000000000, 0.000000000000000000, 0.000000000000000000 ) ) ;
#15 = ADVANCED_FACE ( 'NONE', ( #879 ), #357, .T. ) ;
#16 = VECTOR ( 'NONE', #732, 1000.000000000000000 ) ;
#17 = CARTESIAN_POINT ( 'NONE',  ( 290.0000000000000568, -40.00000000000000000, 39.99999999999999289 ) ) ;
#18 = EDGE_CURVE ( 'NONE', #38, #426, #530, .T. ) ;
#19 =( LENGTH_UNIT ( ) NAMED_UNIT ( * ) SI_UNIT ( .MILLI., .METRE. ) );
#20 = CARTESIAN_POINT ( 'NONE',  ( 270.9618938072608216, -23.37074199799432961, -0.000000000000000000 ) ) ;
#21 = CARTESIAN_POINT ( 'NONE',  ( -4.336808689942017736E-16, 25.00000000000000000, 38.24611169927455734 ) ) ;
#22 = EDGE_CURVE ( 'NONE', #996, #378, #958, .T. ) ;
#23 = AXIS2_PLACEMENT_3D ( 'NONE', #437, #672, #684 ) ;
#24 = AXIS2_PLACEMENT_3D ( 'NONE', #346, #178, #340 ) ;
#25 = ADVANCED_FACE ( 'NONE', ( #103 ), #524, .F. ) ;
#26 = CALENDAR_DATE ( 2021, 22, 7 ) ;
#27 = FACE_OUTER_BOUND ( 'NONE', #669, .T. ) ;
#28 = PERSON_AND_ORGANIZATION ( #627, #893 ) ;
#29 = ORIENTED_EDGE ( 'NONE', *, *, #964, .F. ) ;
#30 = LINE ( 'NONE', #1071, #36 ) ;
#31 = DIRECTION ( 'NONE',  ( 1.000000000000000000, 0.000000000000000000, 0.000000000000000000 ) ) ;
#32 = DIRECTION ( 'NONE',  ( 0.000000000000000000, 0.000000000000000000, 1.000000000000000000 ) ) ;
#33 = ORIENTED_EDGE ( 'NONE', *, *, #577, .T. ) ;
#34 = CARTESIAN_POINT ( 'NONE',  ( 290.0000000000000568, -6.938893903907228378E-15, 40.00000000000000000 ) ) ;
#35 = PLANE ( 'NONE',  #703 ) ;
#36 = VECTOR ( 'NONE', #477, 1000.000000000000000 ) ;
#37 = EDGE_LOOP ( 'NONE', ( #415, #819, #768 ) ) ;
#38 = VERTEX_POINT ( 'NONE', #971 ) ;
#39 = FACE_BOUND ( 'NONE', #146, .T. ) ;
#40 = EDGE_CURVE ( 'NONE', #409, #1040, #723, .T. ) ;
#41 = CARTESIAN_POINT ( 'NONE',  ( 0.000000000000000000, 0.000000000000000000, -30.00000000000000000 ) ) ;
#42 = CARTESIAN_POINT ( 'NONE',  ( 282.5000000000000568, -30.00000000000000000, -19.99999999999999645 ) ) ;
#43 = VECTOR ( 'NONE', #90, 1000.000000000000000 ) ;
#44 = VERTEX_POINT ( 'NONE', #17 ) ;
#45 = ORIENTED_EDGE ( 'NONE', *, *, #182, .T. ) ;
#46 = ADVANCED_FACE ( 'NONE', ( #359 ), #968, .T. ) ;
#47 = DIRECTION ( 'NONE',  ( -0.000000000000000000, -0.000000000000000000, -1.000000000000000000 ) ) ;
#48 = LINE ( 'NONE', #578, #783 ) ;
#49 = DIRECTION ( 'NONE',  ( 1.000000000000000000, 0.000000000000000000, 0.000000000000000000 ) ) ;
#50 = ORIENTED_EDGE ( 'NONE', *, *, #275, .F. ) ;
#51 = ORIENTED_EDGE ( 'NONE', *, *, #603, .F. ) ;
#52 = DIRECTION ( 'NONE',  ( 0.000000000000000000, 0.000000000000000000, 1.000000000000000000 ) ) ;
#53 = CARTESIAN_POINT ( 'NONE',  ( 0.000000000000000000, 0.000000000000000000, 40.00000000000000000 ) ) ;
#54 = ORIENTED_EDGE ( 'NONE', *, *, #941, .F. ) ;
#55 = EDGE_LOOP ( 'NONE', ( #474, #214, #209, #390, #141 ) ) ;
#56 = ADVANCED_FACE ( 'NONE', ( #180 ), #529, .T. ) ;
#57 = CONICAL_SURFACE ( 'NONE', #828, 40.00000000000000000, 1.160668986253405199 ) ;
#58 = ORIENTED_EDGE ( 'NONE', *, *, #507, .F. ) ;
#59 = PLANE ( 'NONE',  #240 ) ;
#60 = LINE ( 'NONE', #929, #1058 ) ;
#61 = PERSON_AND_ORGANIZATION ( #627, #893 ) ;
#62 = CARTESIAN_POINT ( 'NONE',  ( 290.0000000000000568, 0.000000000000000000, 20.00000000000000000 ) ) ;
#63 = EDGE_LOOP ( 'NONE', ( #54, #67, #640 ) ) ;
#64 = VERTEX_POINT ( 'NONE', #522 ) ;
#65 = LOCAL_TIME ( 23, 18, 46.00000000000000000, #989 ) ;
#66 = AXIS2_PLACEMENT_3D ( 'NONE', #443, #608, #693 ) ;
#67 = ORIENTED_EDGE ( 'NONE', *, *, #795, .F. ) ;
#68 = CARTESIAN_POINT ( 'NONE',  ( 275.0000000000000000, -40.00000000000000000, 0.000000000000000000 ) ) ;
#69 = DIRECTION ( 'NONE',  ( 0.000000000000000000, 0.000000000000000000, 1.000000000000000000 ) ) ;
#70 = ORIENTED_EDGE ( 'NONE', *, *, #1061, .T. ) ;
#71 = ORIENTED_EDGE ( 'NONE', *, *, #170, .T. ) ;
#72 = DIRECTION ( 'NONE',  ( 0.000000000000000000, -0.000000000000000000, 1.000000000000000000 ) ) ;
#73 = VERTEX_POINT ( 'NONE', #92 ) ;
#74 = DIRECTION ( 'NONE',  ( 1.000000000000000000, 0.000000000000000000, 0.000000000000000000 ) ) ;
#75 = CARTESIAN_POINT ( 'NONE',  ( 60.00000000000000711, 0.000000000000000000, 0.000000000000000000 ) ) ;
#76 = ORIENTED_EDGE ( 'NONE', *, *, #983, .F. ) ;
#77 = DIRECTION ( 'NONE',  ( -0.000000000000000000, 1.000000000000000000, 0.000000000000000000 ) ) ;
#78 = EDGE_LOOP ( 'NONE', ( #512, #1086 ) ) ;
#79 = CIRCLE ( 'NONE', #513, 5.000000000000004441 ) ;
#80 = CARTESIAN_POINT ( 'NONE',  ( 290.0000000000000568, -40.00000000000000000, 39.99999999999999289 ) ) ;
#81 = FACE_OUTER_BOUND ( 'NONE', #341, .T. ) ;
#82 = EDGE_CURVE ( 'NONE', #434, #386, #873, .T. ) ;
#83 = ORIENTED_EDGE ( 'NONE', *, *, #82, .F. ) ;
#84 = CARTESIAN_POINT ( 'NONE',  ( -3.356077199922002485, -24.83076514720591277, 0.7477685877779810530 ) ) ;
#85 = AXIS2_PLACEMENT_3D ( 'NONE', #448, #1059, #1062 ) ;
#86 = CARTESIAN_POINT ( 'NONE',  ( -5.004333721923076794, -24.49401241119192107, 40.00000000000000000 ) ) ;
#87 = ADVANCED_FACE ( 'NONE', ( #574 ), #1100, .T. ) ;
#88 = DIRECTION ( 'NONE',  ( -1.000000000000000000, 0.000000000000000000, 0.000000000000000000 ) ) ;
#89 = ORIENTED_EDGE ( 'NONE', *, *, #626, .T. ) ;
#90 = DIRECTION ( 'NONE',  ( 0.000000000000000000, 1.000000000000000000, 0.000000000000000000 ) ) ;
#91 = DIRECTION ( 'NONE',  ( 0.000000000000000000, 0.000000000000000000, 1.000000000000000000 ) ) ;
#92 = CARTESIAN_POINT ( 'NONE',  ( 60.00000000000000711, -20.00000000000003197, 11.71572875253809976 ) ) ;
#93 = EDGE_CURVE ( 'NONE', #408, #44, #934, .T. ) ;
#94 = DIRECTION ( 'NONE',  ( 0.000000000000000000, 1.000000000000000000, 0.000000000000000000 ) ) ;
#95 = CIRCLE ( 'NONE', #375, 5.000000000000004441 ) ;
#96 = AXIS2_PLACEMENT_3D ( 'NONE', #1012, #569, #176 ) ;
#97 = EDGE_CURVE ( 'NONE', #1098, #676, #924, .T. ) ;
#98 = CARTESIAN_POINT ( 'NONE',  ( 282.5000000000000568, -30.00000000000000000, 39.99999999999999289 ) ) ;
#99 = FACE_OUTER_BOUND ( 'NONE', #231, .T. ) ;
#100 = CC_DESIGN_APPROVAL ( #1070, ( #541 ) ) ;
#101 = AXIS2_PLACEMENT_3D ( 'NONE', #152, #495, #838 ) ;
#102 = AXIS2_PLACEMENT_3D ( 'NONE', #1060, #523, #867 ) ;
#103 = FACE_OUTER_BOUND ( 'NONE', #236, .T. ) ;
#104 = EDGE_CURVE ( 'NONE', #118, #654, #348, .T. ) ;
#105 = CARTESIAN_POINT ( 'NONE',  ( 260.0000000000000000, 0.000000000000000000, 20.00000000000000000 ) ) ;
#106 = SPHERICAL_SURFACE ( 'NONE', #238, 7.500000000000007105 ) ;
#107 = CARTESIAN_POINT ( 'NONE',  ( 270.0348323566796012, -20.52932681120759639, 0.000000000000000000 ) ) ;
#108 = DIRECTION ( 'NONE',  ( -1.000000000000000000, -0.000000000000000000, -0.000000000000000000 ) ) ;
#109 = AXIS2_PLACEMENT_3D ( 'NONE', #1, #767, #88 ) ;
#110 = CARTESIAN_POINT ( 'NONE',  ( 277.5000000000000000, -30.00000000000000000, 54.40983005625050595 ) ) ;
#111 = PERSON_AND_ORGANIZATION_ROLE ( 'design_supplier' ) ;
#112 = EDGE_LOOP ( 'NONE', ( #1091, #468, #825, #798 ) ) ;
#113 = DIRECTION ( 'NONE',  ( 0.000000000000000000, 0.000000000000000000, -1.000000000000000000 ) ) ;
#114 = ADVANCED_FACE ( 'NONE', ( #417 ), #161, .T. ) ;
#115 = AXIS2_PLACEMENT_3D ( 'NONE', #687, #664, #395 ) ;
#116 = CARTESIAN_POINT ( 'NONE',  ( 267.6563531374921467, -11.88894340811124906, 39.99999999999999289 ) ) ;
#117 = PERSON_AND_ORGANIZATION ( #627, #893 ) ;
#118 = VERTEX_POINT ( 'NONE', #582 ) ;
#119 = CARTESIAN_POINT ( 'NONE',  ( 290.0000000000000568, -40.00000000000000000, 0.000000000000000000 ) ) ;
#120 = ADVANCED_BREP_SHAPE_REPRESENTATION ( 'delta l1_Default_sldprt', ( #379, #12, #875 ), #585 ) ;
#121 = CARTESIAN_POINT ( 'NONE',  ( 270.0348323576500320, -20.52932681420988814, 40.00000000000000000 ) ) ;
#122 = EDGE_CURVE ( 'NONE', #724, #160, #956, .T. ) ;
#123 = ORIENTED_EDGE ( 'NONE', *, *, #801, .F. ) ;
#124 = DIRECTION ( 'NONE',  ( 0.000000000000000000, 0.000000000000000000, -1.000000000000000000 ) ) ;
#125 = FACE_OUTER_BOUND ( 'NONE', #173, .T. ) ;
#126 = DIRECTION ( 'NONE',  ( -0.000000000000000000, 0.000000000000000000, 1.000000000000000000 ) ) ;
#127 = ORIENTED_EDGE ( 'NONE', *, *, #334, .T. ) ;
#128 = ADVANCED_FACE ( 'NONE', ( #331 ), #682, .T. ) ;
#129 = VERTEX_POINT ( 'NONE', #774 ) ;
#130 = FACE_OUTER_BOUND ( 'NONE', #204, .T. ) ;
#131 = DIRECTION ( 'NONE',  ( 0.000000000000000000, 0.000000000000000000, -1.000000000000000000 ) ) ;
#132 = SPHERICAL_SURFACE ( 'NONE', #537, 7.500000000000007105 ) ;
#133 = VERTEX_POINT ( 'NONE', #675 ) ;
#134 = ORIENTED_EDGE ( 'NONE', *, *, #470, .T. ) ;
#135 = VERTEX_POINT ( 'NONE', #1041 ) ;
#136 = PLANE ( 'NONE',  #967 ) ;
#137 = LINE ( 'NONE', #815, #743 ) ;
#138 = CARTESIAN_POINT ( 'NONE',  ( 162.6749749256377413, 6.938893903907228378E-15, 37.00000000000000711 ) ) ;
#139 = EDGE_CURVE ( 'NONE', #263, #378, #520, .T. ) ;
#140 = VERTEX_POINT ( 'NONE', #1018 ) ;
#141 = ORIENTED_EDGE ( 'NONE', *, *, #418, .T. ) ;
#142 = CARTESIAN_POINT ( 'NONE',  ( 277.5000000000000000, -30.00000000000000000, 0.000000000000000000 ) ) ;
#143 = DIRECTION ( 'NONE',  ( 0.000000000000000000, -0.7071067811865472397, -0.7071067811865479058 ) ) ;
#144 = DIRECTION ( 'NONE',  ( -0.000000000000000000, -1.734723475976807094E-16, 1.000000000000000000 ) ) ;
#145 = ORIENTED_EDGE ( 'NONE', *, *, #1102, .F. ) ;
#146 = EDGE_LOOP ( 'NONE', ( #765, #932 ) ) ;
#147 = VECTOR ( 'NONE', #422, 1000.000000000000000 ) ;
#148 = CARTESIAN_POINT ( 'NONE',  ( -25.00000000000000000, 0.000000000000000000, 40.00000000000000000 ) ) ;
#149 = AXIS2_PLACEMENT_3D ( 'NONE', #576, #74, #420 ) ;
#150 = VERTEX_POINT ( 'NONE', #230 ) ;
#151 = CARTESIAN_POINT ( 'NONE',  ( 290.0000000000000568, 0.000000000000000000, 0.000000000000000000 ) ) ;
#152 = CARTESIAN_POINT ( 'NONE',  ( 60.00000000000000711, 19.99999999999998579, 28.28427124746190557 ) ) ;
#153 = EDGE_CURVE ( 'NONE', #392, #996, #1026, .T. ) ;
#154 = CARTESIAN_POINT ( 'NONE',  ( 290.0000000000000568, 0.000000000000000000, 0.000000000000000000 ) ) ;
#155 = ORIENTED_EDGE ( 'NONE', *, *, #1102, .T. ) ;
#156 = DIRECTION ( 'NONE',  ( -0.000000000000000000, -0.000000000000000000, -1.000000000000000000 ) ) ;
#157 = EDGE_LOOP ( 'NONE', ( #83, #721 ) ) ;
#158 = CARTESIAN_POINT ( 'NONE',  ( 60.00000000000000711, 0.000000000000000000, 20.00000000000000000 ) ) ;
#159 = CARTESIAN_POINT ( 'NONE',  ( 15.00000000000000178, 0.000000000000000000, -30.00000000000000000 ) ) ;
#160 = VERTEX_POINT ( 'NONE', #756 ) ;
#161 = CYLINDRICAL_SURFACE ( 'NONE', #188, 5.000000000000004441 ) ;
#162 = ORIENTED_EDGE ( 'NONE', *, *, #933, .T. ) ;
#163 = ADVANCED_FACE ( 'NONE', ( #849 ), #253, .T. ) ;
#164 = DIRECTION ( 'NONE',  ( 0.000000000000000000, 0.000000000000000000, -1.000000000000000000 ) ) ;
#165 = LINE ( 'NONE', #75, #147 ) ;
#166 = ORIENTED_EDGE ( 'NONE', *, *, #203, .T. ) ;
#167 = FACE_OUTER_BOUND ( 'NONE', #860, .T. ) ;
#168 = AXIS2_PLACEMENT_3D ( 'NONE', #62, #1022, #235 ) ;
#169 = CIRCLE ( 'NONE', #287, 5.000000000000004441 ) ;
#170 = EDGE_CURVE ( 'NONE', #244, #1101, #622, .T. ) ;
#171 = FACE_OUTER_BOUND ( 'NONE', #328, .T. ) ;
#172 = PLANE ( 'NONE',  #673 ) ;
#173 = EDGE_LOOP ( 'NONE', ( #583, #637 ) ) ;
#174 = CARTESIAN_POINT ( 'NONE',  ( 282.5000000000000568, -30.00000000000000000, 60.00000000000000000 ) ) ;
#175 = VECTOR ( 'NONE', #1034, 1000.000000000000000 ) ;
#176 = DIRECTION ( 'NONE',  ( 0.000000000000000000, 0.000000000000000000, -1.000000000000000000 ) ) ;
#177 = CC_DESIGN_APPROVAL ( #663, ( #609 ) ) ;
#178 = DIRECTION ( 'NONE',  ( 1.000000000000000000, -0.000000000000000000, 0.000000000000000000 ) ) ;
#179 = ADVANCED_FACE ( 'NONE', ( #167 ), #750, .F. ) ;
#180 = FACE_OUTER_BOUND ( 'NONE', #423, .T. ) ;
#181 = LINE ( 'NONE', #694, #589 ) ;
#182 = EDGE_CURVE ( 'NONE', #1094, #216, #769, .T. ) ;
#183 = CARTESIAN_POINT ( 'NONE',  ( 266.3043478260869961, 6.938893903907228378E-15, 0.000000000000000000 ) ) ;
#184 = DIRECTION ( 'NONE',  ( 0.000000000000000000, 0.000000000000000000, 1.000000000000000000 ) ) ;
#185 = CIRCLE ( 'NONE', #398, 5.000000000000004441 ) ;
#186 = DIRECTION ( 'NONE',  ( 0.9965457582448795648, 0.08304547985373998686, 0.000000000000000000 ) ) ;
#187 = CARTESIAN_POINT ( 'NONE',  ( 282.5000000000000568, -30.00000000000000000, -19.99999999999999645 ) ) ;
#188 = AXIS2_PLACEMENT_3D ( 'NONE', #1047, #425, #337 ) ;
#189 = CARTESIAN_POINT ( 'NONE',  ( 290.0000000000000568, 0.000000000000000000, 0.000000000000000000 ) ) ;
#190 = DIRECTION ( 'NONE',  ( 0.000000000000000000, 0.000000000000000000, 1.000000000000000000 ) ) ;
#191 = LINE ( 'NONE', #613, #266 ) ;
#192 = EDGE_CURVE ( 'NONE', #64, #519, #311, .T. ) ;
#193 = CARTESIAN_POINT ( 'NONE',  ( 266.3043478260870529, -1.480222977377632310, 40.00000000000000711 ) ) ;
#194 = MECHANICAL_CONTEXT ( 'NONE', #1053, 'mechanical' ) ;
#195 = DIRECTION ( 'NONE',  ( -0.1736481776669309418, 0.6963642403200187569, 0.6963642403200189790 ) ) ;
#196 = AXIS2_PLACEMENT_3D ( 'NONE', #978, #974, #901 ) ;
#197 = FACE_OUTER_BOUND ( 'NONE', #304, .T. ) ;
#198 = PERSON_AND_ORGANIZATION ( #627, #893 ) ;
#199 = VERTEX_POINT ( 'NONE', #342 ) ;
#200 = DIRECTION ( 'NONE',  ( 0.000000000000000000, 1.000000000000000000, 1.734723475976807094E-16 ) ) ;
#201 = VECTOR ( 'NONE', #558, 1000.000000000000000 ) ;
#202 = CYLINDRICAL_SURFACE ( 'NONE', #599, 15.00000000000000178 ) ;
#203 = EDGE_CURVE ( 'NONE', #736, #199, #454, .T. ) ;
#204 = EDGE_LOOP ( 'NONE', ( #674, #50, #666, #45, #729, #1120 ) ) ;
#205 = FACE_OUTER_BOUND ( 'NONE', #755, .T. ) ;
#206 = CARTESIAN_POINT ( 'NONE',  ( 275.0000000000000000, -34.64101615137754919, 39.99999999999999289 ) ) ;
#207 = EDGE_CURVE ( 'NONE', #1010, #1122, #137, .T. ) ;
#208 = DIRECTION ( 'NONE',  ( 1.000000000000000000, 0.000000000000000000, 0.000000000000000000 ) ) ;
#209 = ORIENTED_EDGE ( 'NONE', *, *, #277, .T. ) ;
#210 = ORIENTED_EDGE ( 'NONE', *, *, #153, .T. ) ;
#211 = DIRECTION ( 'NONE',  ( -0.000000000000000000, 1.224646799147353207E-16, -1.000000000000000000 ) ) ;
#212 = LINE ( 'NONE', #318, #201 ) ;
#213 = CARTESIAN_POINT ( 'NONE',  ( 282.5000000000000568, -30.00000000000000000, 60.00000000000000000 ) ) ;
#214 = ORIENTED_EDGE ( 'NONE', *, *, #491, .T. ) ;
#215 = AXIS2_PLACEMENT_3D ( 'NONE', #565, #1104, #31 ) ;
#216 = VERTEX_POINT ( 'NONE', #1021 ) ;
#217 = EDGE_LOOP ( 'NONE', ( #1087, #1082, #483, #76 ) ) ;
#218 = ADVANCED_FACE ( 'NONE', ( #740 ), #485, .F. ) ;
#219 = CARTESIAN_POINT ( 'NONE',  ( 162.6749749256377413, 9.020793462457730629E-15, 2.999999999999992450 ) ) ;
#220 = CARTESIAN_POINT ( 'NONE',  ( 5.457389924549904237, -21.88523507703384041, 40.00000000000000000 ) ) ;
#221 = PLANE ( 'NONE',  #1049 ) ;
#222 = VECTOR ( 'NONE', #431, 1000.000000000000000 ) ;
#223 = ORIENTED_EDGE ( 'NONE', *, *, #611, .F. ) ;
#224 = ORIENTED_EDGE ( 'NONE', *, *, #977, .T. ) ;
#225 = DIRECTION ( 'NONE',  ( -0.9831788361446832658, 0.08193156967872360086, -0.1632378450212034204 ) ) ;
#226 = CC_DESIGN_DATE_AND_TIME_ASSIGNMENT ( #345, #421, ( #609 ) ) ;
#227 = DIRECTION ( 'NONE',  ( 1.000000000000000000, 0.000000000000000000, 0.000000000000000000 ) ) ;
#228 = DIRECTION ( 'NONE',  ( 1.000000000000000000, 0.000000000000000000, 0.000000000000000000 ) ) ;
#229 = ORIENTED_EDGE ( 'NONE', *, *, #476, .T. ) ;
#230 = CARTESIAN_POINT ( 'NONE',  ( 60.00000000000000711, 8.284271247461870047, 40.00000000000000711 ) ) ;
#231 = EDGE_LOOP ( 'NONE', ( #909, #835, #336, #544 ) ) ;
#232 = EDGE_CURVE ( 'NONE', #747, #581, #890, .T. ) ;
#233 = CARTESIAN_POINT ( 'NONE',  ( -3.356077199922030019, -24.83076514720590922, 39.25223141222200951 ) ) ;
#234 = DIRECTION ( 'NONE',  ( 0.000000000000000000, 0.000000000000000000, 1.000000000000000000 ) ) ;
#235 = DIRECTION ( 'NONE',  ( 0.000000000000000000, 0.000000000000000000, 1.000000000000000000 ) ) ;
#236 = EDGE_LOOP ( 'NONE', ( #748, #773, #248, #475 ) ) ;
#237 = ORIENTED_EDGE ( 'NONE', *, *, #182, .F. ) ;
#238 = AXIS2_PLACEMENT_3D ( 'NONE', #794, #633, #705 ) ;
#239 = DIRECTION ( 'NONE',  ( 0.000000000000000000, -1.000000000000000000, -1.734723475976807094E-16 ) ) ;
#240 = AXIS2_PLACEMENT_3D ( 'NONE', #1029, #503, #403 ) ;
#241 = ORIENTED_EDGE ( 'NONE', *, *, #40, .F. ) ;
#242 = DIRECTION ( 'NONE',  ( -0.1736481776669309696, -0.6963642403200189790, 0.6963642403200188680 ) ) ;
#243 = LINE ( 'NONE', #584, #303 ) ;
#244 = VERTEX_POINT ( 'NONE', #471 ) ;
#245 = EDGE_LOOP ( 'NONE', ( #482, #555, #607, #51 ) ) ;
#246 = AXIS2_PLACEMENT_3D ( 'NONE', #1064, #190, #965 ) ;
#247 = CARTESIAN_POINT ( 'NONE',  ( -4.336808689942017736E-16, -25.00000000000000000, 1.753888300725391147 ) ) ;
#248 = ORIENTED_EDGE ( 'NONE', *, *, #889, .T. ) ;
#249 = CARTESIAN_POINT ( 'NONE',  ( 8.152029380831063321, 24.32066421826407776, 3.107375234897569172 ) ) ;
#250 = CARTESIAN_POINT ( 'NONE',  ( 1.732349601522539695, 24.85563753320645830, 37.95848852698907905 ) ) ;
#251 = EDGE_CURVE ( 'NONE', #843, #38, #48, .T. ) ;
#252 = VERTEX_POINT ( 'NONE', #1096 ) ;
#253 = CYLINDRICAL_SURFACE ( 'NONE', #606, 17.00000000000000355 ) ;
#254 = DIRECTION ( 'NONE',  ( 0.000000000000000000, 0.000000000000000000, -1.000000000000000000 ) ) ;
#255 = DIRECTION ( 'NONE',  ( 1.000000000000000000, 0.000000000000000000, 0.000000000000000000 ) ) ;
#256 = EDGE_LOOP ( 'NONE', ( #70, #751 ) ) ;
#257 = CARTESIAN_POINT ( 'NONE',  ( 275.0000000000000000, 0.000000000000000000, 0.000000000000000000 ) ) ;
#258 = VECTOR ( 'NONE', #820, 1000.000000000000000 ) ;
#259 = CLOSED_SHELL ( 'NONE', ( #478, #354, #163, #87, #343, #655, #128, #15, #114, #56, #844, #358, #778, #46, #685, #412, #525, #681, #868, #218, #25, #1030, #775, #896, #1075, #830, #972, #179, #735, #546, #918, #391, #313 ) ) ;
#260 = VECTOR ( 'NONE', #1048, 1000.000000000000000 ) ;
#261 =( NAMED_UNIT ( * ) SI_UNIT ( $, .STERADIAN. ) SOLID_ANGLE_UNIT ( ) );
#262 = EDGE_CURVE ( 'NONE', #1122, #653, #60, .T. ) ;
#263 = VERTEX_POINT ( 'NONE', #1084 ) ;
#264 = DIRECTION ( 'NONE',  ( -0.000000000000000000, -1.734723475976807094E-16, 1.000000000000000000 ) ) ;
#265 = AXIS2_PLACEMENT_3D ( 'NONE', #98, #264, #787 ) ;
#266 = VECTOR ( 'NONE', #184, 1000.000000000000000 ) ;
#267 = CARTESIAN_POINT ( 'NONE',  ( 267.6563531359449826, -11.88894340169184183, -0.000000000000000000 ) ) ;
#268 = DESIGN_CONTEXT ( 'detailed design', #1099, 'design' ) ;
#269 = CARTESIAN_POINT ( 'NONE',  ( -25.00000000000000000, 0.000000000000000000, 40.00000000000000000 ) ) ;
#270 = CARTESIAN_POINT ( 'NONE',  ( 266.5884388816552928, -5.205163495521395234, 0.000000000000000000 ) ) ;
#271 = PLANE ( 'NONE',  #102 ) ;
#272 = CIRCLE ( 'NONE', #1001, 4.999999999999990230 ) ;
#273 = DIRECTION ( 'NONE',  ( -0.000000000000000000, 0.000000000000000000, 1.000000000000000000 ) ) ;
#274 = DIRECTION ( 'NONE',  ( -1.000000000000000000, 0.000000000000000000, 0.000000000000000000 ) ) ;
#275 = EDGE_CURVE ( 'NONE', #481, #1098, #836, .T. ) ;
#276 = CYLINDRICAL_SURFACE ( 'NONE', #648, 15.00000000000000355 ) ;
#277 = EDGE_CURVE ( 'NONE', #135, #1010, #907, .T. ) ;
#278 = EDGE_CURVE ( 'NONE', #593, #129, #212, .T. ) ;
#279 = APPROVAL_ROLE ( '' ) ;
#280 = FACE_OUTER_BOUND ( 'NONE', #288, .T. ) ;
#281 = DATE_AND_TIME ( #26, #65 ) ;
#282 = ORIENTED_EDGE ( 'NONE', *, *, #950, .F. ) ;
#283 = DIRECTION ( 'NONE',  ( -1.000000000000000000, -0.000000000000000000, -0.000000000000000000 ) ) ;
#284 = EDGE_CURVE ( 'NONE', #252, #850, #988, .T. ) ;
#285 = AXIS2_PLACEMENT_3D ( 'NONE', #213, #310, #208 ) ;
#286 = DIRECTION ( 'NONE',  ( -0.9702875252478136980, 0.2419547857523657308, -0.000000000000000000 ) ) ;
#287 = AXIS2_PLACEMENT_3D ( 'NONE', #957, #973, #14 ) ;
#288 = EDGE_LOOP ( 'NONE', ( #294, #947, #166, #600 ) ) ;
#289 = EDGE_CURVE ( 'NONE', #1069, #118, #388, .T. ) ;
#290 = CARTESIAN_POINT ( 'NONE',  ( 275.0000000000000000, 6.938893903907228378E-15, 20.00000000000000000 ) ) ;
#291 = CIRCLE ( 'NONE', #987, 15.00000000000000000 ) ;
#292 = SPHERICAL_SURFACE ( 'NONE', #951, 7.500000000000007105 ) ;
#293 = ORIENTED_EDGE ( 'NONE', *, *, #964, .T. ) ;
#294 = ORIENTED_EDGE ( 'NONE', *, *, #760, .F. ) ;
#295 = DIRECTION ( 'NONE',  ( 0.000000000000000000, 0.000000000000000000, 1.000000000000000000 ) ) ;
#296 = CARTESIAN_POINT ( 'NONE',  ( 0.000000000000000000, 0.000000000000000000, 40.00000000000000000 ) ) ;
#297 = CARTESIAN_POINT ( 'NONE',  ( -5.004333721923161171, 24.49401241119190331, 0.000000000000000000 ) ) ;
#298 = ORIENTED_EDGE ( 'NONE', *, *, #1023, .T. ) ;
#299 = ORIENTED_EDGE ( 'NONE', *, *, #795, .T. ) ;
#300 = LINE ( 'NONE', #369, #258 ) ;
#301 = FACE_OUTER_BOUND ( 'NONE', #823, .T. ) ;
#302 = CARTESIAN_POINT ( 'NONE',  ( 290.0000000000000568, -30.00000000000000000, 60.00000000000000000 ) ) ;
#303 = VECTOR ( 'NONE', #678, 1000.000000000000000 ) ;
#304 = EDGE_LOOP ( 'NONE', ( #645, #1054 ) ) ;
#305 = CIRCLE ( 'NONE', #980, 39.99999999999999289 ) ;
#306 = ORIENTED_EDGE ( 'NONE', *, *, #793, .T. ) ;
#307 = ORIENTED_EDGE ( 'NONE', *, *, #789, .F. ) ;
#308 = FACE_OUTER_BOUND ( 'NONE', #911, .T. ) ;
#309 = DIRECTION ( 'NONE',  ( 0.9702875252478136980, 0.2419547857523656198, -0.000000000000000000 ) ) ;
#310 = DIRECTION ( 'NONE',  ( -0.000000000000000000, 0.000000000000000000, 1.000000000000000000 ) ) ;
#311 = CIRCLE ( 'NONE', #796, 17.00000000000000355 ) ;
#312 = ORIENTED_EDGE ( 'NONE', *, *, #859, .T. ) ;
#313 = ADVANCED_FACE ( 'NONE', ( #1089, #821 ), #649, .T. ) ;
#314 = APPROVAL_PERSON_ORGANIZATION ( #405, #663, #846 ) ;
#315 = ORIENTED_EDGE ( 'NONE', *, *, #719, .T. ) ;
#316 = ADVANCED_FACE ( 'NONE', ( #301 ), #745, .T. ) ;
#317 = LINE ( 'NONE', #68, #631 ) ;
#318 = CARTESIAN_POINT ( 'NONE',  ( 275.0000000000000000, -6.938893903907228378E-15, 40.00000000000000000 ) ) ;
#319 = DIRECTION ( 'NONE',  ( 0.000000000000000000, 1.000000000000000000, 0.000000000000000000 ) ) ;
#320 = EDGE_LOOP ( 'NONE', ( #813, #306, #630, #473 ) ) ;
#321 = ORIENTED_EDGE ( 'NONE', *, *, #801, .T. ) ;
#322 = DIRECTION ( 'NONE',  ( 0.000000000000000000, 0.7071067811865474617, 0.7071067811865475727 ) ) ;
#323 = ORIENTED_EDGE ( 'NONE', *, *, #262, .T. ) ;
#324 = UNCERTAINTY_MEASURE_WITH_UNIT (LENGTH_MEASURE( 1.000000000000000082E-05 ), #19, 'distance_accuracy_value', 'NONE');
#325 = FACE_BOUND ( 'NONE', #256, .T. ) ;
#326 = DIRECTION ( 'NONE',  ( 0.000000000000000000, 1.000000000000000000, 0.000000000000000000 ) ) ;
#327 = EDGE_CURVE ( 'NONE', #850, #593, #899, .T. ) ;
#328 = EDGE_LOOP ( 'NONE', ( #754, #502 ) ) ;
#329 = ORIENTED_EDGE ( 'NONE', *, *, #18, .T. ) ;
#330 = AXIS2_PLACEMENT_3D ( 'NONE', #814, #52, #394 ) ;
#331 = FACE_OUTER_BOUND ( 'NONE', #112, .T. ) ;
#332 = VERTEX_POINT ( 'NONE', #189 ) ;
#333 = FACE_OUTER_BOUND ( 'NONE', #587, .T. ) ;
#334 = EDGE_CURVE ( 'NONE', #724, #140, #878, .T. ) ;
#335 = CARTESIAN_POINT ( 'NONE',  ( 265.0000000000000000, 6.938893903907228378E-15, 20.00000000000000000 ) ) ;
#336 = ORIENTED_EDGE ( 'NONE', *, *, #554, .T. ) ;
#337 = DIRECTION ( 'NONE',  ( -1.000000000000000000, 0.000000000000000000, 0.000000000000000000 ) ) ;
#338 = ORIENTED_EDGE ( 'NONE', *, *, #5, .T. ) ;
#339 = FACE_OUTER_BOUND ( 'NONE', #63, .T. ) ;
#340 = DIRECTION ( 'NONE',  ( 0.000000000000000000, 0.000000000000000000, -1.000000000000000000 ) ) ;
#341 = EDGE_LOOP ( 'NONE', ( #411, #2, #229, #1081, #651, #385 ) ) ;
#342 = CARTESIAN_POINT ( 'NONE',  ( 60.00000000000000711, 0.000000000000000000, 35.00000000000000000 ) ) ;
#343 = ADVANCED_FACE ( 'NONE', ( #280 ), #276, .T. ) ;
#344 = CARTESIAN_POINT ( 'NONE',  ( 275.0000000000000000, 6.938893903907228378E-15, -20.00000000000000000 ) ) ;
#345 = DATE_AND_TIME ( #930, #548 ) ;
#346 = CARTESIAN_POINT ( 'NONE',  ( 290.0000000000000568, 0.000000000000000000, 20.00000000000000000 ) ) ;
#347 = EDGE_LOOP ( 'NONE', ( #1024, #321 ) ) ;
#348 = LINE ( 'NONE', #257, #43 ) ;
#349 = VECTOR ( 'NONE', #839, 1000.000000000000114 ) ;
#350 = CLOSED_SHELL ( 'NONE', ( #396, #316, #366, #499 ) ) ;
#351 = VECTOR ( 'NONE', #638, 1000.000000000000000 ) ;
#352 = APPLICATION_PROTOCOL_DEFINITION ( 'international standard', 'config_control_design', 1994, #1053 ) ;
#353 = CARTESIAN_POINT ( 'NONE',  ( 282.5000000000000568, -30.00000000000000000, 60.00000000000000000 ) ) ;
#354 = ADVANCED_FACE ( 'NONE', ( #720, #125 ), #106, .T. ) ;
#355 = LOCAL_TIME ( 23, 18, 46.00000000000000000, #1111 ) ;
#356 = CARTESIAN_POINT ( 'NONE',  ( 60.00000000000000711, 20.00000000000000000, 40.00000000000000000 ) ) ;
#357 = CYLINDRICAL_SURFACE ( 'NONE', #85, 5.000000000000004441 ) ;
#358 = ADVANCED_FACE ( 'NONE', ( #461 ), #810, .T. ) ;
#359 = FACE_OUTER_BOUND ( 'NONE', #892, .T. ) ;
#360 = CIRCLE ( 'NONE', #285, 7.500000000000007105 ) ;
#361 = CARTESIAN_POINT ( 'NONE',  ( 266.3766493843756962, -2.966651482148876529, 40.00000000000000000 ) ) ;
#362 = EDGE_CURVE ( 'NONE', #925, #593, #526, .T. ) ;
#363 = APPROVAL_STATUS ( 'not_yet_approved' ) ;
#364 = CARTESIAN_POINT ( 'NONE',  ( 290.0000000000000568, 0.000000000000000000, 40.00000000000000000 ) ) ;
#365 = CC_DESIGN_APPROVAL ( #817, ( #877 ) ) ;
#366 = ADVANCED_FACE ( 'NONE', ( #197 ), #35, .F. ) ;
#367 = APPROVAL_DATE_TIME ( #635, #817 ) ;
#368 = ORIENTED_EDGE ( 'NONE', *, *, #719, .F. ) ;
#369 = CARTESIAN_POINT ( 'NONE',  ( 60.00000000000000711, 0.000000000000000000, 40.00000000000000000 ) ) ;
#370 = CARTESIAN_POINT ( 'NONE',  ( 266.3043478260869961, 1.786041673937891701E-20, 40.00000000000000000 ) ) ;
#371 = EDGE_CURVE ( 'NONE', #140, #676, #761, .T. ) ;
#372 = PERSON_AND_ORGANIZATION ( #627, #893 ) ;
#373 = EDGE_LOOP ( 'NONE', ( #1035, #223, #942, #641, #299, #1017, #686 ) ) ;
#374 = LINE ( 'NONE', #718, #1074 ) ;
#375 = AXIS2_PLACEMENT_3D ( 'NONE', #1045, #516, #255 ) ;
#376 = CARTESIAN_POINT ( 'NONE',  ( 273.9444639577409362, -31.83771166794434393, 39.99999999999999289 ) ) ;
#377 = AXIS2_PLACEMENT_3D ( 'NONE', #151, #510, #413 ) ;
#378 = VERTEX_POINT ( 'NONE', #788 ) ;
#379 = MANIFOLD_SOLID_BREP ( 'Boss-Extrude1', #350 ) ;
#380 = VERTEX_POINT ( 'NONE', #540 ) ;
#381 = CARTESIAN_POINT ( 'NONE',  ( 275.0000000000000000, 6.938893903907228378E-15, 20.00000000000000000 ) ) ;
#382 = AXIS2_PLACEMENT_3D ( 'NONE', #614, #784, #274 ) ;
#383 = CARTESIAN_POINT ( 'NONE',  ( 268.3827246492410836, -14.78823642037168895, 40.00000000000001421 ) ) ;
#384 = CARTESIAN_POINT ( 'NONE',  ( 0.000000000000000000, 0.000000000000000000, 0.000000000000000000 ) ) ;
#385 = ORIENTED_EDGE ( 'NONE', *, *, #889, .F. ) ;
#386 = VERTEX_POINT ( 'NONE', #617 ) ;
#387 = DIRECTION ( 'NONE',  ( 1.000000000000000000, 0.000000000000000000, 0.000000000000000000 ) ) ;
#388 = LINE ( 'NONE', #570, #16 ) ;
#389 = CARTESIAN_POINT ( 'NONE',  ( 265.0000000000000000, 6.938893903907228378E-15, 2.999999999999992450 ) ) ;
#390 = ORIENTED_EDGE ( 'NONE', *, *, #710, .F. ) ;
#391 = ADVANCED_FACE ( 'NONE', ( #447 ), #292, .T. ) ;
#392 = VERTEX_POINT ( 'NONE', #110 ) ;
#393 = ORIENTED_EDGE ( 'NONE', *, *, #327, .T. ) ;
#394 = DIRECTION ( 'NONE',  ( 1.000000000000000000, 0.000000000000000000, 0.000000000000000000 ) ) ;
#395 = DIRECTION ( 'NONE',  ( 0.000000000000000000, 0.000000000000000000, -1.000000000000000000 ) ) ;
#396 = ADVANCED_FACE ( 'NONE', ( #27 ), #202, .T. ) ;
#397 = CARTESIAN_POINT ( 'NONE',  ( 287.5000000000000568, -30.00000000000000000, -14.40983005625049884 ) ) ;
#398 = AXIS2_PLACEMENT_3D ( 'NONE', #912, #725, #387 ) ;
#399 = EDGE_LOOP ( 'NONE', ( #691, #646, #1006, #854 ) ) ;
#400 = CIRCLE ( 'NONE', #1052, 7.500000000000007105 ) ;
#401 = ORIENTED_EDGE ( 'NONE', *, *, #289, .F. ) ;
#402 = ORIENTED_EDGE ( 'NONE', *, *, #371, .F. ) ;
#403 = DIRECTION ( 'NONE',  ( 0.000000000000000000, 0.000000000000000000, -1.000000000000000000 ) ) ;
#404 = DIRECTION ( 'NONE',  ( 0.000000000000000000, 1.000000000000000000, 0.000000000000000000 ) ) ;
#405 = PERSON_AND_ORGANIZATION ( #627, #893 ) ;
#406 = DIRECTION ( 'NONE',  ( 1.000000000000000000, 0.000000000000000000, 0.000000000000000000 ) ) ;
#407 = AXIS2_PLACEMENT_3D ( 'NONE', #658, #234, #914 ) ;
#408 = VERTEX_POINT ( 'NONE', #364 ) ;
#409 = VERTEX_POINT ( 'NONE', #805 ) ;
#410 = CARTESIAN_POINT ( 'NONE',  ( -5.004333721923055478, -24.49401241119192107, 0.000000000000000000 ) ) ;
#411 = ORIENTED_EDGE ( 'NONE', *, *, #491, .F. ) ;
#412 = ADVANCED_FACE ( 'NONE', ( #923 ), #221, .T. ) ;
#413 = DIRECTION ( 'NONE',  ( 1.000000000000000000, 0.000000000000000000, -0.000000000000000000 ) ) ;
#414 = LINE ( 'NONE', #138, #424 ) ;
#415 = ORIENTED_EDGE ( 'NONE', *, *, #362, .F. ) ;
#416 = ORIENTED_EDGE ( 'NONE', *, *, #710, .T. ) ;
#417 = FACE_OUTER_BOUND ( 'NONE', #1114, .T. ) ;
#418 = EDGE_CURVE ( 'NONE', #150, #481, #466, .T. ) ;
#419 = ORIENTED_EDGE ( 'NONE', *, *, #595, .T. ) ;
#420 = DIRECTION ( 'NONE',  ( 0.000000000000000000, 0.000000000000000000, -1.000000000000000000 ) ) ;
#421 = DATE_TIME_ROLE ( 'classification_date' ) ;
#422 = DIRECTION ( 'NONE',  ( 0.000000000000000000, -1.000000000000000000, 0.000000000000000000 ) ) ;
#423 = EDGE_LOOP ( 'NONE', ( #455, #430, #210, #509 ) ) ;
#424 = VECTOR ( 'NONE', #650, 1000.000000000000000 ) ;
#425 = DIRECTION ( 'NONE',  ( -0.000000000000000000, -0.000000000000000000, -1.000000000000000000 ) ) ;
#426 = VERTEX_POINT ( 'NONE', #397 ) ;
#427 = DIRECTION ( 'NONE',  ( -1.000000000000000000, -0.000000000000000000, -0.000000000000000000 ) ) ;
#428 = CYLINDRICAL_SURFACE ( 'NONE', #109, 25.00000000000000000 ) ;
#429 = EDGE_CURVE ( 'NONE', #332, #252, #999, .T. ) ;
#430 = ORIENTED_EDGE ( 'NONE', *, *, #707, .F. ) ;
#431 = DIRECTION ( 'NONE',  ( -0.000000000000000000, -0.000000000000000000, -1.000000000000000000 ) ) ;
#432 = DIRECTION ( 'NONE',  ( 1.000000000000000000, 0.000000000000000000, 0.000000000000000000 ) ) ;
#433 = CARTESIAN_POINT ( 'NONE',  ( 265.0000000000000000, 1.042913728147718641E-14, 37.00000000000000711 ) ) ;
#434 = VERTEX_POINT ( 'NONE', #302 ) ;
#435 = DIRECTION ( 'NONE',  ( 0.000000000000000000, 1.224646799147353207E-16, -1.000000000000000000 ) ) ;
#436 = LINE ( 'NONE', #356, #260 ) ;
#437 = CARTESIAN_POINT ( 'NONE',  ( 282.5000000000000568, -30.00000000000000000, -14.40983005625049884 ) ) ;
#438 = EDGE_CURVE ( 'NONE', #581, #1040, #746, .T. ) ;
#439 = CARTESIAN_POINT ( 'NONE',  ( 266.6762682032255611, -5.954045493044028525, -0.000000000000000000 ) ) ;
#440 = AXIS2_PLACEMENT_3D ( 'NONE', #335, #864, #91 ) ;
#441 = VECTOR ( 'NONE', #254, 1000.000000000000000 ) ;
#442 = DIRECTION ( 'NONE',  ( 0.000000000000000000, 0.000000000000000000, -1.000000000000000000 ) ) ;
#443 = CARTESIAN_POINT ( 'NONE',  ( 60.00000000000000711, -8.284271247461932219, 40.00000000000000711 ) ) ;
#444 = CARTESIAN_POINT ( 'NONE',  ( 60.00000000000000711, 19.99999999999998579, 28.28427124746190557 ) ) ;
#445 = DIRECTION ( 'NONE',  ( 0.000000000000000000, 0.7071067811865476838, -0.7071067811865474617 ) ) ;
#446 = EDGE_CURVE ( 'NONE', #434, #386, #360, .T. ) ;
#447 = FACE_OUTER_BOUND ( 'NONE', #157, .T. ) ;
#448 = CARTESIAN_POINT ( 'NONE',  ( 282.5000000000000568, -30.00000000000000000, 60.00000000000000000 ) ) ;
#449 =( NAMED_UNIT ( * ) PLANE_ANGLE_UNIT ( ) SI_UNIT ( $, .RADIAN. ) );
#450 = VECTOR ( 'NONE', #752, 1000.000000000000000 ) ;
#451 = DIRECTION ( 'NONE',  ( 0.000000000000000000, 1.000000000000000000, 0.000000000000000000 ) ) ;
#452 = EDGE_CURVE ( 'NONE', #573, #64, #414, .T. ) ;
#453 = CALENDAR_DATE ( 2021, 22, 7 ) ;
#454 = CIRCLE ( 'NONE', #115, 15.00000000000000000 ) ;
#455 = ORIENTED_EDGE ( 'NONE', *, *, #139, .F. ) ;
#456 = CARTESIAN_POINT ( 'NONE',  ( 0.000000000000000000, 0.000000000000000000, 40.00000000000000000 ) ) ;
#457 = CARTESIAN_POINT ( 'NONE',  ( 266.6762682045396105, -5.954045503554140417, 39.99999999999999289 ) ) ;
#458 = APPROVAL_DATE_TIME ( #623, #1070 ) ;
#459 = ORIENTED_EDGE ( 'NONE', *, *, #699, .T. ) ;
#460 = DIRECTION ( 'NONE',  ( 1.000000000000000000, 0.000000000000000000, 0.000000000000000000 ) ) ;
#461 = FACE_OUTER_BOUND ( 'NONE', #730, .T. ) ;
#462 = ORIENTED_EDGE ( 'NONE', *, *, #7, .T. ) ;
#463 = DIRECTION ( 'NONE',  ( 0.9831788361446832658, 0.08193156967872362861, 0.1632378450212033649 ) ) ;
#464 = CIRCLE ( 'NONE', #1117, 17.00000000000000355 ) ;
#465 = DIRECTION ( 'NONE',  ( -1.000000000000000000, -0.000000000000000000, -0.000000000000000000 ) ) ;
#466 = LINE ( 'NONE', #902, #349 ) ;
#467 = VERTEX_POINT ( 'NONE', #753 ) ;
#468 = ORIENTED_EDGE ( 'NONE', *, *, #139, .T. ) ;
#469 = CARTESIAN_POINT ( 'NONE',  ( 60.00000000000000711, 8.284271247461887810, 0.000000000000000000 ) ) ;
#470 = EDGE_CURVE ( 'NONE', #140, #216, #1014, .T. ) ;
#471 = CARTESIAN_POINT ( 'NONE',  ( -4.336808689942017736E-16, -25.00000000000000000, 1.753888300725391147 ) ) ;
#472 = CARTESIAN_POINT ( 'NONE',  ( -5.004333721923176270, 24.49401241119189976, 40.00000000000000000 ) ) ;
#473 = ORIENTED_EDGE ( 'NONE', *, *, #452, .F. ) ;
#474 = ORIENTED_EDGE ( 'NONE', *, *, #275, .T. ) ;
#475 = ORIENTED_EDGE ( 'NONE', *, *, #262, .F. ) ;
#476 = EDGE_CURVE ( 'NONE', #676, #1101, #487, .T. ) ;
#477 = DIRECTION ( 'NONE',  ( -0.000000000000000000, -0.000000000000000000, -1.000000000000000000 ) ) ;
#478 = ADVANCED_FACE ( 'NONE', ( #915 ), #132, .T. ) ;
#479 = DIRECTION ( 'NONE',  ( -0.000000000000000000, -0.000000000000000000, -1.000000000000000000 ) ) ;
#480 = CARTESIAN_POINT ( 'NONE',  ( 0.000000000000000000, 0.000000000000000000, 0.000000000000000000 ) ) ;
#481 = VERTEX_POINT ( 'NONE', #472 ) ;
#482 = ORIENTED_EDGE ( 'NONE', *, *, #429, .T. ) ;
#483 = ORIENTED_EDGE ( 'NONE', *, *, #284, .F. ) ;
#484 = CARTESIAN_POINT ( 'NONE',  ( 162.6749749256377413, 6.938893903907228378E-15, 20.00000000000000000 ) ) ;
#485 = PLANE ( 'NONE',  #101 ) ;
#486 = CYLINDRICAL_SURFACE ( 'NONE', #168, 20.00000000000000000 ) ;
#487 = CIRCLE ( 'NONE', #926, 25.00000000000000000 ) ;
#488 = ORIENTED_EDGE ( 'NONE', *, *, #40, .T. ) ;
#489 = AXIS2_PLACEMENT_3D ( 'NONE', #1103, #242, #677 ) ;
#490 = CARTESIAN_POINT ( 'NONE',  ( 275.0000000000000000, -34.64101615137754209, 0.000000000000000000 ) ) ;
#491 = EDGE_CURVE ( 'NONE', #1098, #135, #557, .T. ) ;
#492 = CARTESIAN_POINT ( 'NONE',  ( 277.5000000000000000, -30.00000000000000000, 60.00000000000000000 ) ) ;
#493 = ORIENTED_EDGE ( 'NONE', *, *, #611, .T. ) ;
#494 = DIRECTION ( 'NONE',  ( -0.000000000000000000, -0.000000000000000000, -1.000000000000000000 ) ) ;
#495 = DIRECTION ( 'NONE',  ( -0.1736481776669309418, -0.6963642403200185349, -0.6963642403200193121 ) ) ;
#496 = CALENDAR_DATE ( 2021, 22, 7 ) ;
#497 = AXIS2_PLACEMENT_3D ( 'NONE', #1013, #227, #131 ) ;
#498 = VERTEX_POINT ( 'NONE', #389 ) ;
#499 = ADVANCED_FACE ( 'NONE', ( #552 ), #1015, .T. ) ;
#500 = ORIENTED_EDGE ( 'NONE', *, *, #122, .T. ) ;
#501 = DIRECTION ( 'NONE',  ( -0.000000000000000000, -0.000000000000000000, -1.000000000000000000 ) ) ;
#502 = ORIENTED_EDGE ( 'NONE', *, *, #1008, .T. ) ;
#503 = DIRECTION ( 'NONE',  ( 1.000000000000000000, -0.000000000000000000, 0.000000000000000000 ) ) ;
#504 = APPROVAL_DATE_TIME ( #959, #663 ) ;
#505 = DIRECTION ( 'NONE',  ( -1.000000000000000000, -0.000000000000000000, -0.000000000000000000 ) ) ;
#506 = VERTEX_POINT ( 'NONE', #831 ) ;
#507 = EDGE_CURVE ( 'NONE', #1040, #409, #790, .T. ) ;
#508 = CARTESIAN_POINT ( 'NONE',  ( 290.0000000000000568, -6.938893903907228378E-15, 40.00000000000000000 ) ) ;
#509 = ORIENTED_EDGE ( 'NONE', *, *, #22, .T. ) ;
#510 = DIRECTION ( 'NONE',  ( 0.000000000000000000, 0.000000000000000000, 1.000000000000000000 ) ) ;
#511 = DIRECTION ( 'NONE',  ( 0.9702875252478136980, 0.2419547857523657863, -0.000000000000000000 ) ) ;
#512 = ORIENTED_EDGE ( 'NONE', *, *, #22, .F. ) ;
#513 = AXIS2_PLACEMENT_3D ( 'NONE', #771, #4, #521 ) ;
#514 = CARTESIAN_POINT ( 'NONE',  ( 290.0000000000000568, -40.00000000000000000, 0.000000000000000000 ) ) ;
#515 = CARTESIAN_POINT ( 'NONE',  ( 275.0000000000000000, 1.183748110049664061E-14, 60.00000000000000000 ) ) ;
#516 = DIRECTION ( 'NONE',  ( -0.000000000000000000, -0.000000000000000000, -1.000000000000000000 ) ) ;
#517 = CC_DESIGN_PERSON_AND_ORGANIZATION_ASSIGNMENT ( #117, #111, ( #541 ) ) ;
#518 = AXIS2_PLACEMENT_3D ( 'NONE', #701, #1055, #186 ) ;
#519 = VERTEX_POINT ( 'NONE', #931 ) ;
#520 = LINE ( 'NONE', #943, #222 ) ;
#521 = DIRECTION ( 'NONE',  ( 1.000000000000000000, 0.000000000000000000, 0.000000000000000000 ) ) ;
#522 = CARTESIAN_POINT ( 'NONE',  ( 260.0000000000000000, 6.938893903907228378E-15, 37.00000000000000711 ) ) ;
#523 = DIRECTION ( 'NONE',  ( 1.000000000000000000, 0.000000000000000000, 0.000000000000000000 ) ) ;
#524 = PLANE ( 'NONE',  #66 ) ;
#525 = ADVANCED_FACE ( 'NONE', ( #559 ), #816, .F. ) ;
#526 = CIRCLE ( 'NONE', #826, 39.99999999999999289 ) ;
#527 = VECTOR ( 'NONE', #427, 1000.000000000000000 ) ;
#528 = DIRECTION ( 'NONE',  ( 0.000000000000000000, 0.000000000000000000, 1.000000000000000000 ) ) ;
#529 = CYLINDRICAL_SURFACE ( 'NONE', #857, 5.000000000000004441 ) ;
#530 = CIRCLE ( 'NONE', #382, 5.000000000000004441 ) ;
#531 = CARTESIAN_POINT ( 'NONE',  ( 290.0000000000000568, -40.00000000000000000, 0.000000000000000000 ) ) ;
#532 = DIRECTION ( 'NONE',  ( 0.000000000000000000, 0.000000000000000000, 1.000000000000000000 ) ) ;
#533 = DIRECTION ( 'NONE',  ( -1.000000000000000000, 0.000000000000000000, 0.000000000000000000 ) ) ;
#534 = EDGE_CURVE ( 'NONE', #378, #996, #272, .T. ) ;
#535 = DIRECTION ( 'NONE',  ( 1.000000000000000000, 0.000000000000000000, 0.000000000000000000 ) ) ;
#536 = PERSON_AND_ORGANIZATION_ROLE ( 'design_owner' ) ;
#537 = AXIS2_PLACEMENT_3D ( 'NONE', #42, #1105, #326 ) ;
#538 = CIRCLE ( 'NONE', #1031, 15.00000000000000000 ) ;
#539 = PLANE ( 'NONE',  #1028 ) ;
#540 = CARTESIAN_POINT ( 'NONE',  ( 60.00000000000000711, 19.99999999999998579, 28.28427124746190557 ) ) ;
#541 = PRODUCT_DEFINITION_FORMATION_WITH_SPECIFIED_SOURCE ( 'ANY', '', #762, .NOT_KNOWN. ) ;
#542 = COORDINATED_UNIVERSAL_TIME_OFFSET ( 5, 30, .AHEAD. ) ;
#543 = AXIS2_PLACEMENT_3D ( 'NONE', #296, #643, #998 ) ;
#544 = ORIENTED_EDGE ( 'NONE', *, *, #880, .T. ) ;
#545 = FACE_BOUND ( 'NONE', #78, .T. ) ;
#546 = ADVANCED_FACE ( 'NONE', ( #1090 ), #486, .T. ) ;
#547 = DIRECTION ( 'NONE',  ( 0.000000000000000000, 0.000000000000000000, 1.000000000000000000 ) ) ;
#548 = LOCAL_TIME ( 23, 18, 46.00000000000000000, #1044 ) ;
#549 = EDGE_LOOP ( 'NONE', ( #33, #841, #590, #848 ) ) ;
#550 = CARTESIAN_POINT ( 'NONE',  ( 265.0000000000000000, 6.938893903907228378E-15, 20.00000000000000000 ) ) ;
#551 = DIRECTION ( 'NONE',  ( 0.000000000000000000, 0.000000000000000000, 1.000000000000000000 ) ) ;
#552 = FACE_OUTER_BOUND ( 'NONE', #757, .T. ) ;
#553 = ORIENTED_EDGE ( 'NONE', *, *, #707, .T. ) ;
#554 = EDGE_CURVE ( 'NONE', #734, #199, #938, .T. ) ;
#555 = ORIENTED_EDGE ( 'NONE', *, *, #284, .T. ) ;
#556 = LINE ( 'NONE', #515, #450 ) ;
#557 = CIRCLE ( 'NONE', #10, 25.00000000000000000 ) ;
#558 = DIRECTION ( 'NONE',  ( 0.000000000000000000, -1.000000000000000000, -1.734723475976807094E-16 ) ) ;
#559 = FACE_OUTER_BOUND ( 'NONE', #561, .T. ) ;
#560 = ORIENTED_EDGE ( 'NONE', *, *, #793, .F. ) ;
#561 = EDGE_LOOP ( 'NONE', ( #903, #419, #824, #955, #402 ) ) ;
#562 = EDGE_CURVE ( 'NONE', #1101, #467, #847, .T. ) ;
#563 = ORIENTED_EDGE ( 'NONE', *, *, #562, .T. ) ;
#564 = DIRECTION ( 'NONE',  ( -0.000000000000000000, 0.000000000000000000, -1.000000000000000000 ) ) ;
#565 = CARTESIAN_POINT ( 'NONE',  ( 0.000000000000000000, 0.000000000000000000, -30.00000000000000000 ) ) ;
#566 = DIRECTION ( 'NONE',  ( -1.000000000000000000, -0.000000000000000000, -0.000000000000000000 ) ) ;
#567 = ORIENTED_EDGE ( 'NONE', *, *, #438, .F. ) ;
#568 = ORIENTED_EDGE ( 'NONE', *, *, #1011, .F. ) ;
#569 = DIRECTION ( 'NONE',  ( 1.000000000000000000, -0.000000000000000000, 0.000000000000000000 ) ) ;
#570 = CARTESIAN_POINT ( 'NONE',  ( 290.0000000000000568, -40.00000000000000000, 0.000000000000000000 ) ) ;
#571 = DIRECTION ( 'NONE',  ( -0.000000000000000000, 0.000000000000000000, 1.000000000000000000 ) ) ;
#572 = EDGE_CURVE ( 'NONE', #1094, #481, #618, .T. ) ;
#573 = VERTEX_POINT ( 'NONE', #433 ) ;
#574 = FACE_OUTER_BOUND ( 'NONE', #217, .T. ) ;
#575 = ORIENTED_EDGE ( 'NONE', *, *, #104, .T. ) ;
#576 = CARTESIAN_POINT ( 'NONE',  ( 275.0000000000000000, -39.99999999999999289, 20.00000000000000000 ) ) ;
#577 = EDGE_CURVE ( 'NONE', #843, #133, #79, .T. ) ;
#578 = CARTESIAN_POINT ( 'NONE',  ( 277.5000000000000000, -30.00000000000000000, 60.00000000000000000 ) ) ;
#579 = DIRECTION ( 'NONE',  ( 0.000000000000000000, 0.000000000000000000, 1.000000000000000000 ) ) ;
#580 = CIRCLE ( 'NONE', #23, 5.000000000000004441 ) ;
#581 = VERTEX_POINT ( 'NONE', #159 ) ;
#582 = CARTESIAN_POINT ( 'NONE',  ( 275.0000000000000000, -40.00000000000000000, 0.000000000000000000 ) ) ;
#583 = ORIENTED_EDGE ( 'NONE', *, *, #446, .F. ) ;
#584 = CARTESIAN_POINT ( 'NONE',  ( 260.0000000000000000, 1.836970198721029589E-15, 5.000000000000000888 ) ) ;
#585 =( GEOMETRIC_REPRESENTATION_CONTEXT ( 3 ) GLOBAL_UNCERTAINTY_ASSIGNED_CONTEXT ( ( #324 ) ) GLOBAL_UNIT_ASSIGNED_CONTEXT ( ( #19, #449, #261 ) ) REPRESENTATION_CONTEXT ( 'NONE', 'WORKASPACE' ) );
#586 = AXIS2_PLACEMENT_3D ( 'NONE', #514, #77, #72 ) ;
#587 = EDGE_LOOP ( 'NONE', ( #560, #493, #995, #716 ) ) ;
#588 = DIRECTION ( 'NONE',  ( -1.000000000000000000, -0.000000000000000000, -0.000000000000000000 ) ) ;
#589 = VECTOR ( 'NONE', #94, 1000.000000000000000 ) ;
#590 = ORIENTED_EDGE ( 'NONE', *, *, #18, .F. ) ;
#591 = PLANE ( 'NONE',  #489 ) ;
#592 = DIRECTION ( 'NONE',  ( 0.9831788361446832658, -0.08193156967872360086, -0.1632378450212033372 ) ) ;
#593 = VERTEX_POINT ( 'NONE', #1119 ) ;
#594 = CARTESIAN_POINT ( 'NONE',  ( 162.6749749256377413, 6.938893903907228378E-15, 20.00000000000000000 ) ) ;
#595 = EDGE_CURVE ( 'NONE', #724, #467, #165, .T. ) ;
#596 = CARTESIAN_POINT ( 'NONE',  ( 290.0000000000000568, -30.00000000000000000, -19.99999999999999645 ) ) ;
#597 = APPROVAL_STATUS ( 'not_yet_approved' ) ;
#598 = CARTESIAN_POINT ( 'NONE',  ( -25.00000000000000000, 0.000000000000000000, 0.000000000000000000 ) ) ;
#599 = AXIS2_PLACEMENT_3D ( 'NONE', #1079, #547, #709 ) ;
#600 = ORIENTED_EDGE ( 'NONE', *, *, #554, .F. ) ;
#601 = CIRCLE ( 'NONE', #692, 7.500000000000007105 ) ;
#602 = DIRECTION ( 'NONE',  ( -1.000000000000000000, 0.000000000000000000, 0.000000000000000000 ) ) ;
#603 = EDGE_CURVE ( 'NONE', #332, #408, #715, .T. ) ;
#604 = CARTESIAN_POINT ( 'NONE',  ( 277.5000000000000000, -30.00000000000000000, 39.99999999999999289 ) ) ;
#605 = CARTESIAN_POINT ( 'NONE',  ( -4.336808689942017736E-16, 25.00000000000000000, 38.24611169927455734 ) ) ;
#606 = AXIS2_PLACEMENT_3D ( 'NONE', #594, #948, #842 ) ;
#607 = ORIENTED_EDGE ( 'NONE', *, *, #699, .F. ) ;
#608 = DIRECTION ( 'NONE',  ( -0.1736481776669309696, 0.6963642403200192010, -0.6963642403200185349 ) ) ;
#609 = SECURITY_CLASSIFICATION ( '', '', #797 ) ;
#610 = CARTESIAN_POINT ( 'NONE',  ( 60.00000000000000711, -8.284271247461932219, 40.00000000000000000 ) ) ;
#611 = EDGE_CURVE ( 'NONE', #498, #573, #777, .T. ) ;
#612 = CARTESIAN_POINT ( 'NONE',  ( 266.8827585045818864, -7.448882069862431621, 0.000000000000000000 ) ) ;
#613 = CARTESIAN_POINT ( 'NONE',  ( -15.00000000000000178, 1.836970198721029983E-15, -30.00000000000000000 ) ) ;
#614 = CARTESIAN_POINT ( 'NONE',  ( 282.5000000000000568, -30.00000000000000000, -14.40983005625049884 ) ) ;
#615 = AXIS2_PLACEMENT_3D ( 'NONE', #727, #273, #535 ) ;
#616 = CYLINDRICAL_SURFACE ( 'NONE', #722, 15.00000000000000355 ) ;
#617 = CARTESIAN_POINT ( 'NONE',  ( 275.0000000000000000, -30.00000000000000000, 60.00000000000000000 ) ) ;
#618 =( BOUNDED_CURVE ( )  B_SPLINE_CURVE ( 3, ( #605, #759, #1051, #960 ),
 .UNSPECIFIED., .F., .F. ) 
 B_SPLINE_CURVE_WITH_KNOTS ( ( 4, 4 ),
 ( 0.2443799924620961850, 0.4459148399048519229 ),
 .UNSPECIFIED. ) 
 CURVE ( )  GEOMETRIC_REPRESENTATION_ITEM ( )  RATIONAL_B_SPLINE_CURVE ( ( 1.000000000000000000, 0.9966181718366510234, 0.9966181718366510234, 1.000000000000000000 ) ) 
 REPRESENTATION_ITEM ( '' )  );
#619 = DIRECTION ( 'NONE',  ( -0.000000000000000000, -0.000000000000000000, -1.000000000000000000 ) ) ;
#620 = CC_DESIGN_PERSON_AND_ORGANIZATION_ASSIGNMENT ( #714, #536, ( #762 ) ) ;
#621 = CARTESIAN_POINT ( 'NONE',  ( 272.9158536623237410, -29.02477996795909831, 40.00000000000000711 ) ) ;
#622 =( BOUNDED_CURVE ( )  B_SPLINE_CURVE ( 3, ( #247, #668, #84, #410 ),
 .UNSPECIFIED., .F., .F. ) 
 B_SPLINE_CURVE_WITH_KNOTS ( ( 4, 4 ),
 ( 3.385972646051889079, 3.587507493494639377 ),
 .UNSPECIFIED. ) 
 CURVE ( )  GEOMETRIC_REPRESENTATION_ITEM ( )  RATIONAL_B_SPLINE_CURVE ( ( 1.000000000000000000, 0.9966181718366513564, 0.9966181718366513564, 1.000000000000000000 ) ) 
 REPRESENTATION_ITEM ( '' )  );
#623 = DATE_AND_TIME ( #1067, #940 ) ;
#624 = LINE ( 'NONE', #1088, #737 ) ;
#625 = DIRECTION ( 'NONE',  ( -1.000000000000000000, -0.000000000000000000, -0.000000000000000000 ) ) ;
#626 = EDGE_CURVE ( 'NONE', #426, #38, #580, .T. ) ;
#627 = PERSON ( 'UNSPECIFIED', 'UNSPECIFIED', 'UNSPECIFIED', ('UNSPECIFIED'), ('UNSPECIFIED'), ('UNSPECIFIED') ) ;
#628 = APPROVAL_STATUS ( 'not_yet_approved' ) ;
#629 = AXIS2_PLACEMENT_3D ( 'NONE', #1097, #579, #811 ) ;
#630 = ORIENTED_EDGE ( 'NONE', *, *, #192, .F. ) ;
#631 = VECTOR ( 'NONE', #758, 1000.000000000000000 ) ;
#632 = DIRECTION ( 'NONE',  ( 1.000000000000000000, 0.000000000000000000, 0.000000000000000000 ) ) ;
#633 = DIRECTION ( 'NONE',  ( -0.000000000000000000, 0.000000000000000000, -1.000000000000000000 ) ) ;
#634 = EDGE_CURVE ( 'NONE', #506, #736, #243, .T. ) ;
#635 = DATE_AND_TIME ( #453, #1039 ) ;
#636 = AXIS2_PLACEMENT_3D ( 'NONE', #920, #1004, #404 ) ;
#637 = ORIENTED_EDGE ( 'NONE', *, *, #82, .T. ) ;
#638 = DIRECTION ( 'NONE',  ( -1.000000000000000000, -0.000000000000000000, -0.000000000000000000 ) ) ;
#639 = CARTESIAN_POINT ( 'NONE',  ( 282.5000000000000568, -30.00000000000000000, 60.00000000000000000 ) ) ;
#640 = ORIENTED_EDGE ( 'NONE', *, *, #104, .F. ) ;
#641 = ORIENTED_EDGE ( 'NONE', *, *, #5, .F. ) ;
#642 = DIRECTION ( 'NONE',  ( -1.000000000000000000, -0.000000000000000000, -0.000000000000000000 ) ) ;
#643 = DIRECTION ( 'NONE',  ( -0.000000000000000000, 0.000000000000000000, 1.000000000000000000 ) ) ;
#644 = CARTESIAN_POINT ( 'NONE',  ( -4.336808689942017736E-16, 25.00000000000000000, 1.753888300725425786 ) ) ;
#645 = ORIENTED_EDGE ( 'NONE', *, *, #726, .F. ) ;
#646 = ORIENTED_EDGE ( 'NONE', *, *, #418, .F. ) ;
#647 = DIRECTION ( 'NONE',  ( 0.000000000000000000, 1.000000000000000000, 0.000000000000000000 ) ) ;
#648 = AXIS2_PLACEMENT_3D ( 'NONE', #800, #625, #551 ) ;
#649 = SPHERICAL_SURFACE ( 'NONE', #636, 7.500000000000007105 ) ;
#650 = DIRECTION ( 'NONE',  ( -1.000000000000000000, -0.000000000000000000, -0.000000000000000000 ) ) ;
#651 = ORIENTED_EDGE ( 'NONE', *, *, #859, .F. ) ;
#652 = EDGE_CURVE ( 'NONE', #1094, #380, #1038, .T. ) ;
#653 = VERTEX_POINT ( 'NONE', #946 ) ;
#654 = VERTEX_POINT ( 'NONE', #852 ) ;
#655 = ADVANCED_FACE ( 'NONE', ( #81 ), #428, .T. ) ;
#656 = VECTOR ( 'NONE', #834, 1000.000000000000000 ) ;
#657 = PLANE ( 'NONE',  #96 ) ;
#658 = CARTESIAN_POINT ( 'NONE',  ( 0.000000000000000000, 0.000000000000000000, -30.00000000000000000 ) ) ;
#659 = CARTESIAN_POINT ( 'NONE',  ( -1.682305551180282688, 25.00000000000000000, 1.334381846592795018 ) ) ;
#660 = ORIENTED_EDGE ( 'NONE', *, *, #670, .F. ) ;
#661 = ORIENTED_EDGE ( 'NONE', *, *, #93, .F. ) ;
#662 = CARTESIAN_POINT ( 'NONE',  ( -4.336808689942017736E-16, -25.00000000000000000, 38.24611169927459287 ) ) ;
#663 = APPROVAL ( #597, 'UNSPECIFIED' ) ;
#664 = DIRECTION ( 'NONE',  ( 1.000000000000000000, 0.000000000000000000, 0.000000000000000000 ) ) ;
#665 = DIRECTION ( 'NONE',  ( 1.000000000000000000, 0.000000000000000000, 0.000000000000000000 ) ) ;
#666 = ORIENTED_EDGE ( 'NONE', *, *, #572, .F. ) ;
#667 = EDGE_LOOP ( 'NONE', ( #71, #563, #1106, #307 ) ) ;
#668 = CARTESIAN_POINT ( 'NONE',  ( -1.682305551180252934, -25.00000000000000000, 1.334381846592761489 ) ) ;
#669 = EDGE_LOOP ( 'NONE', ( #680, #155, #58, #567 ) ) ;
#670 = EDGE_CURVE ( 'NONE', #133, #843, #95, .T. ) ;
#671 = CYLINDRICAL_SURFACE ( 'NONE', #11, 17.00000000000000355 ) ;
#672 = DIRECTION ( 'NONE',  ( -0.000000000000000000, -0.000000000000000000, -1.000000000000000000 ) ) ;
#673 = AXIS2_PLACEMENT_3D ( 'NONE', #858, #195, #713 ) ;
#674 = ORIENTED_EDGE ( 'NONE', *, *, #97, .F. ) ;
#675 = CARTESIAN_POINT ( 'NONE',  ( 287.5000000000000568, -30.00000000000000000, 0.000000000000000000 ) ) ;
#676 = VERTEX_POINT ( 'NONE', #598 ) ;
#677 = DIRECTION ( 'NONE',  ( 0.000000000000000000, -0.7071067811865474617, -0.7071067811865475727 ) ) ;
#678 = DIRECTION ( 'NONE',  ( -1.000000000000000000, -0.000000000000000000, -0.000000000000000000 ) ) ;
#679 = VECTOR ( 'NONE', #322, 1000.000000000000000 ) ;
#680 = ORIENTED_EDGE ( 'NONE', *, *, #726, .T. ) ;
#681 = ADVANCED_FACE ( 'NONE', ( #953 ), #172, .F. ) ;
#682 = CYLINDRICAL_SURFACE ( 'NONE', #1080, 5.000000000000004441 ) ;
#683 = PLANE ( 'NONE',  #377 ) ;
#684 = DIRECTION ( 'NONE',  ( -1.000000000000000000, 0.000000000000000000, 0.000000000000000000 ) ) ;
#685 = ADVANCED_FACE ( 'NONE', ( #39, #991 ), #539, .T. ) ;
#686 = ORIENTED_EDGE ( 'NONE', *, *, #327, .F. ) ;
#687 = CARTESIAN_POINT ( 'NONE',  ( 60.00000000000000711, 0.000000000000000000, 20.00000000000000000 ) ) ;
#688 = SHAPE_DEFINITION_REPRESENTATION ( #1016, #120 ) ;
#689 = CARTESIAN_POINT ( 'NONE',  ( 260.0000000000000000, 0.000000000000000000, 35.00000000000000000 ) ) ;
#690 = VECTOR ( 'NONE', #286, 1000.000000000000114 ) ;
#691 = ORIENTED_EDGE ( 'NONE', *, *, #572, .T. ) ;
#692 = AXIS2_PLACEMENT_3D ( 'NONE', #997, #211, #647 ) ;
#693 = DIRECTION ( 'NONE',  ( 0.000000000000000000, 0.7071067811865472397, 0.7071067811865479058 ) ) ;
#694 = CARTESIAN_POINT ( 'NONE',  ( 290.0000000000000568, 0.000000000000000000, 0.000000000000000000 ) ) ;
#695 = EDGE_CURVE ( 'NONE', #133, #426, #30, .T. ) ;
#696 = VECTOR ( 'NONE', #309, 1000.000000000000114 ) ;
#697 = LINE ( 'NONE', #13, #1050 ) ;
#698 = APPROVAL_PERSON_ORGANIZATION ( #28, #817, #279 ) ;
#699 = EDGE_CURVE ( 'NONE', #408, #850, #624, .T. ) ;
#700 = CARTESIAN_POINT ( 'NONE',  ( 260.0000000000000000, 0.000000000000000000, 20.00000000000000000 ) ) ;
#701 = CARTESIAN_POINT ( 'NONE',  ( 2.068965517241379892, -24.82758620689655515, 40.00000000000000000 ) ) ;
#702 = CARTESIAN_POINT ( 'NONE',  ( 282.5000000000000568, -30.00000000000000000, 60.00000000000000000 ) ) ;
#703 = AXIS2_PLACEMENT_3D ( 'NONE', #41, #895, #985 ) ;
#704 = DIRECTION ( 'NONE',  ( 1.000000000000000000, 0.000000000000000000, 0.000000000000000000 ) ) ;
#705 = DIRECTION ( 'NONE',  ( 0.000000000000000000, 1.000000000000000000, 0.000000000000000000 ) ) ;
#706 = VECTOR ( 'NONE', #156, 1000.000000000000000 ) ;
#707 = EDGE_CURVE ( 'NONE', #392, #263, #185, .T. ) ;
#708 = PERSON_AND_ORGANIZATION ( #627, #893 ) ;
#709 = DIRECTION ( 'NONE',  ( 1.000000000000000000, 0.000000000000000000, 0.000000000000000000 ) ) ;
#710 = EDGE_CURVE ( 'NONE', #150, #1010, #300, .T. ) ;
#711 = PERSON_AND_ORGANIZATION_ROLE ( 'creator' ) ;
#712 = ORIENTED_EDGE ( 'NONE', *, *, #670, .T. ) ;
#713 = DIRECTION ( 'NONE',  ( 0.000000000000000000, -0.7071067811865476838, 0.7071067811865474617 ) ) ;
#714 = PERSON_AND_ORGANIZATION ( #627, #893 ) ;
#715 = CIRCLE ( 'NONE', #24, 20.00000000000000000 ) ;
#716 = ORIENTED_EDGE ( 'NONE', *, *, #1008, .F. ) ;
#717 = AXIS2_PLACEMENT_3D ( 'NONE', #456, #47, #804 ) ;
#718 = CARTESIAN_POINT ( 'NONE',  ( 8.152029380831066874, -24.32066421826407776, 3.107375234897534533 ) ) ;
#719 = EDGE_CURVE ( 'NONE', #44, #1069, #887, .T. ) ;
#720 = FACE_BOUND ( 'NONE', #939, .T. ) ;
#721 = ORIENTED_EDGE ( 'NONE', *, *, #446, .T. ) ;
#722 = AXIS2_PLACEMENT_3D ( 'NONE', #700, #881, #528 ) ;
#723 = CIRCLE ( 'NONE', #246, 15.00000000000000178 ) ;
#724 = VERTEX_POINT ( 'NONE', #469 ) ;
#725 = DIRECTION ( 'NONE',  ( 0.000000000000000000, 0.000000000000000000, 1.000000000000000000 ) ) ;
#726 = EDGE_CURVE ( 'NONE', #581, #747, #807, .T. ) ;
#727 = CARTESIAN_POINT ( 'NONE',  ( 0.000000000000000000, 0.000000000000000000, 0.000000000000000000 ) ) ;
#728 = DIRECTION ( 'NONE',  ( -0.000000000000000000, 0.000000000000000000, 1.000000000000000000 ) ) ;
#729 = ORIENTED_EDGE ( 'NONE', *, *, #470, .F. ) ;
#730 = EDGE_LOOP ( 'NONE', ( #1000, #162, #237, #1002 ) ) ;
#731 = DIRECTION ( 'NONE',  ( 1.000000000000000000, 0.000000000000000000, -0.000000000000000000 ) ) ;
#732 = DIRECTION ( 'NONE',  ( -1.000000000000000000, -0.000000000000000000, -0.000000000000000000 ) ) ;
#733 = CARTESIAN_POINT ( 'NONE',  ( 0.000000000000000000, 0.000000000000000000, 0.000000000000000000 ) ) ;
#734 = VERTEX_POINT ( 'NONE', #738 ) ;
#735 = ADVANCED_FACE ( 'NONE', ( #545, #205 ), #136, .F. ) ;
#736 = VERTEX_POINT ( 'NONE', #799 ) ;
#737 = VECTOR ( 'NONE', #283, 1000.000000000000000 ) ;
#738 = CARTESIAN_POINT ( 'NONE',  ( 260.0000000000000000, 0.000000000000000000, 35.00000000000000000 ) ) ;
#739 = AXIS2_PLACEMENT_3D ( 'NONE', #966, #108, #969 ) ;
#740 = FACE_OUTER_BOUND ( 'NONE', #399, .T. ) ;
#741 = ORIENTED_EDGE ( 'NONE', *, *, #577, .F. ) ;
#742 = ORIENTED_EDGE ( 'NONE', *, *, #950, .T. ) ;
#743 = VECTOR ( 'NONE', #143, 1000.000000000000000 ) ;
#744 = CARTESIAN_POINT ( 'NONE',  ( -4.336808689942017736E-16, -25.00000000000000000, 40.00000000000000000 ) ) ;
#745 = CYLINDRICAL_SURFACE ( 'NONE', #215, 15.00000000000000178 ) ;
#746 = LINE ( 'NONE', #1085, #853 ) ;
#747 = VERTEX_POINT ( 'NONE', #894 ) ;
#748 = ORIENTED_EDGE ( 'NONE', *, *, #207, .F. ) ;
#749 = EDGE_CURVE ( 'NONE', #573, #498, #464, .T. ) ;
#750 = PLANE ( 'NONE',  #586 ) ;
#751 = ORIENTED_EDGE ( 'NONE', *, *, #760, .T. ) ;
#752 = DIRECTION ( 'NONE',  ( 0.3987261114144504126, 1.123086908984407195E-16, 0.9170700562532347888 ) ) ;
#753 = CARTESIAN_POINT ( 'NONE',  ( 60.00000000000000711, -8.284271247461918009, -1.040834085586084257E-14 ) ) ;
#754 = ORIENTED_EDGE ( 'NONE', *, *, #192, .T. ) ;
#755 = EDGE_LOOP ( 'NONE', ( #459, #393, #808, #282, #661 ) ) ;
#756 = CARTESIAN_POINT ( 'NONE',  ( 60.00000000000000711, 19.99999999999998934, 11.71572875253809798 ) ) ;
#757 = EDGE_LOOP ( 'NONE', ( #1116, #488 ) ) ;
#758 = DIRECTION ( 'NONE',  ( 0.000000000000000000, 0.000000000000000000, -1.000000000000000000 ) ) ;
#759 = CARTESIAN_POINT ( 'NONE',  ( -1.682305551180306669, 25.00000000000000000, 38.66561815340720187 ) ) ;
#760 = EDGE_CURVE ( 'NONE', #506, #734, #538, .T. ) ;
#761 = CIRCLE ( 'NONE', #615, 25.00000000000000000 ) ;
#762 = PRODUCT ( 'delta l1_Default_sldprt', 'delta l1_Default_sldprt', '', ( #194 ) ) ;
#763 = ORIENTED_EDGE ( 'NONE', *, *, #603, .T. ) ;
#764 = CARTESIAN_POINT ( 'NONE',  ( 275.0000000000000000, 6.938893903907228378E-15, 20.00000000000000000 ) ) ;
#765 = ORIENTED_EDGE ( 'NONE', *, *, #880, .F. ) ;
#766 = CARTESIAN_POINT ( 'NONE',  ( 60.00000000000000711, -20.00000000000000000, 40.00000000000000000 ) ) ;
#767 = DIRECTION ( 'NONE',  ( -0.000000000000000000, -0.000000000000000000, -1.000000000000000000 ) ) ;
#768 = ORIENTED_EDGE ( 'NONE', *, *, #278, .F. ) ;
#769 = LINE ( 'NONE', #1115, #175 ) ;
#770 = LINE ( 'NONE', #744, #884 ) ;
#771 = CARTESIAN_POINT ( 'NONE',  ( 282.5000000000000568, -30.00000000000000000, 0.000000000000000000 ) ) ;
#772 =( BOUNDED_CURVE ( )  B_SPLINE_CURVE ( 3, ( #86, #233, #1109, #662 ),
 .UNSPECIFIED., .F., .F. ) 
 B_SPLINE_CURVE_WITH_KNOTS ( ( 4, 4 ),
 ( 5.837270467274739083, 6.038805314717490269 ),
 .UNSPECIFIED. ) 
 CURVE ( )  GEOMETRIC_REPRESENTATION_ITEM ( )  RATIONAL_B_SPLINE_CURVE ( ( 1.000000000000000000, 0.9966181718366513564, 0.9966181718366513564, 1.000000000000000000 ) ) 
 REPRESENTATION_ITEM ( '' )  );
#773 = ORIENTED_EDGE ( 'NONE', *, *, #277, .F. ) ;
#774 = CARTESIAN_POINT ( 'NONE',  ( 275.0000000000000000, -40.00000000000000000, 39.99999999999999289 ) ) ;
#775 = ADVANCED_FACE ( 'NONE', ( #906 ), #57, .T. ) ;
#776 = DIRECTION ( 'NONE',  ( 0.000000000000000000, -0.7071067811865479058, 0.7071067811865471286 ) ) ;
#777 = CIRCLE ( 'NONE', #440, 17.00000000000000355 ) ;
#778 = ADVANCED_FACE ( 'NONE', ( #130 ), #1003, .T. ) ;
#779 = VECTOR ( 'NONE', #1123, 1000.000000000000000 ) ;
#780 = CARTESIAN_POINT ( 'NONE',  ( 266.3766493842637715, -2.966651479061024776, -0.000000000000000000 ) ) ;
#781 = DIRECTION ( 'NONE',  ( 0.3987261114144504126, 0.000000000000000000, -0.9170700562532347888 ) ) ;
#782 = APPROVAL_PERSON_ORGANIZATION ( #708, #1070, #885 ) ;
#783 = VECTOR ( 'NONE', #479, 1000.000000000000000 ) ;
#784 = DIRECTION ( 'NONE',  ( -0.000000000000000000, -0.000000000000000000, -1.000000000000000000 ) ) ;
#785 = VECTOR ( 'NONE', #776, 1000.000000000000114 ) ;
#786 = DIRECTION ( 'NONE',  ( 1.000000000000000000, 0.000000000000000000, 0.000000000000000000 ) ) ;
#787 = DIRECTION ( 'NONE',  ( 0.000000000000000000, 1.000000000000000000, 0.000000000000000000 ) ) ;
#788 = CARTESIAN_POINT ( 'NONE',  ( 287.5000000000000568, -30.00000000000000000, 39.99999999999999289 ) ) ;
#789 = EDGE_CURVE ( 'NONE', #244, #73, #374, .T. ) ;
#790 = CIRCLE ( 'NONE', #1063, 15.00000000000000178 ) ;
#791 = VECTOR ( 'NONE', #781, 1000.000000000000000 ) ;
#792 = DIRECTION ( 'NONE',  ( 1.000000000000000000, 0.000000000000000000, 0.000000000000000000 ) ) ;
#793 = EDGE_CURVE ( 'NONE', #498, #519, #809, .T. ) ;
#794 = CARTESIAN_POINT ( 'NONE',  ( 282.5000000000000568, -30.00000000000000000, 60.00000000000000000 ) ) ;
#795 = EDGE_CURVE ( 'NONE', #654, #925, #305, .T. ) ;
#796 = AXIS2_PLACEMENT_3D ( 'NONE', #855, #588, #3 ) ;
#797 = SECURITY_CLASSIFICATION_LEVEL ( 'unclassified' ) ;
#798 = ORIENTED_EDGE ( 'NONE', *, *, #153, .F. ) ;
#799 = CARTESIAN_POINT ( 'NONE',  ( 60.00000000000000711, 1.836970198721029589E-15, 5.000000000000000888 ) ) ;
#800 = CARTESIAN_POINT ( 'NONE',  ( 260.0000000000000000, 0.000000000000000000, 20.00000000000000000 ) ) ;
#801 = EDGE_CURVE ( 'NONE', #898, #818, #601, .T. ) ;
#802 = APPLICATION_PROTOCOL_DEFINITION ( 'international standard', 'config_control_design', 1994, #1099 ) ;
#803 = ORIENTED_EDGE ( 'NONE', *, *, #789, .T. ) ;
#804 = DIRECTION ( 'NONE',  ( -1.000000000000000000, 0.000000000000000000, 0.000000000000000000 ) ) ;
#805 = CARTESIAN_POINT ( 'NONE',  ( -15.00000000000000178, 1.836970198721029983E-15, 0.000000000000000000 ) ) ;
#806 = EDGE_CURVE ( 'NONE', #573, #850, #556, .T. ) ;
#807 = CIRCLE ( 'NONE', #330, 15.00000000000000178 ) ;
#808 = ORIENTED_EDGE ( 'NONE', *, *, #278, .T. ) ;
#809 = LINE ( 'NONE', #219, #351 ) ;
#810 = PLANE ( 'NONE',  #196 ) ;
#811 = DIRECTION ( 'NONE',  ( 1.000000000000000000, 0.000000000000000000, -0.000000000000000000 ) ) ;
#812 = ORIENTED_EDGE ( 'NONE', *, *, #289, .T. ) ;
#813 = ORIENTED_EDGE ( 'NONE', *, *, #749, .T. ) ;
#814 = CARTESIAN_POINT ( 'NONE',  ( 0.000000000000000000, 0.000000000000000000, -30.00000000000000000 ) ) ;
#815 = CARTESIAN_POINT ( 'NONE',  ( 60.00000000000000711, -8.284271247461932219, 40.00000000000000711 ) ) ;
#816 = PLANE ( 'NONE',  #869 ) ;
#817 = APPROVAL ( #363, 'UNSPECIFIED' ) ;
#818 = VERTEX_POINT ( 'NONE', #949 ) ;
#819 = ORIENTED_EDGE ( 'NONE', *, *, #913, .F. ) ;
#820 = DIRECTION ( 'NONE',  ( 0.000000000000000000, -1.000000000000000000, 0.000000000000000000 ) ) ;
#821 = FACE_BOUND ( 'NONE', #905, .T. ) ;
#822 = DIRECTION ( 'NONE',  ( -0.000000000000000000, 0.000000000000000000, 1.000000000000000000 ) ) ;
#823 = EDGE_LOOP ( 'NONE', ( #145, #1007, #982, #241 ) ) ;
#824 = ORIENTED_EDGE ( 'NONE', *, *, #562, .F. ) ;
#825 = ORIENTED_EDGE ( 'NONE', *, *, #534, .T. ) ;
#826 = AXIS2_PLACEMENT_3D ( 'NONE', #888, #465, #532 ) ;
#827 = DIRECTION ( 'NONE',  ( -1.000000000000000000, -0.000000000000000000, -0.000000000000000000 ) ) ;
#828 = AXIS2_PLACEMENT_3D ( 'NONE', #290, #460, #124 ) ;
#829 = DIRECTION ( 'NONE',  ( -0.9831788361446832658, -0.08193156967872361474, 0.1632378450212034482 ) ) ;
#830 = ADVANCED_FACE ( 'NONE', ( #333 ), #671, .T. ) ;
#831 = CARTESIAN_POINT ( 'NONE',  ( 260.0000000000000000, 1.836970198721029589E-15, 5.000000000000000888 ) ) ;
#832 = ORIENTED_EDGE ( 'NONE', *, *, #1042, .T. ) ;
#833 = CARTESIAN_POINT ( 'NONE',  ( 273.9444639575642100, -31.83771166747497006, 0.000000000000000000 ) ) ;
#834 = DIRECTION ( 'NONE',  ( -0.000000000000000000, -0.000000000000000000, -1.000000000000000000 ) ) ;
#835 = ORIENTED_EDGE ( 'NONE', *, *, #1061, .F. ) ;
#836 = CIRCLE ( 'NONE', #543, 25.00000000000000000 ) ;
#837 = CARTESIAN_POINT ( 'NONE',  ( 266.3043478260869961, 1.786041673937891701E-20, 40.00000000000000000 ) ) ;
#838 = DIRECTION ( 'NONE',  ( 0.000000000000000000, 0.7071067811865479058, -0.7071067811865471286 ) ) ;
#839 = DIRECTION ( 'NONE',  ( -0.9702875252478136980, 0.2419547857523658418, -0.000000000000000000 ) ) ;
#840 = ORIENTED_EDGE ( 'NONE', *, *, #913, .T. ) ;
#841 = ORIENTED_EDGE ( 'NONE', *, *, #695, .T. ) ;
#842 = DIRECTION ( 'NONE',  ( 0.000000000000000000, 0.000000000000000000, 1.000000000000000000 ) ) ;
#843 = VERTEX_POINT ( 'NONE', #142 ) ;
#844 = ADVANCED_FACE ( 'NONE', ( #325, #171 ), #59, .F. ) ;
#845 = FACE_OUTER_BOUND ( 'NONE', #916, .T. ) ;
#846 = APPROVAL_ROLE ( '' ) ;
#847 = LINE ( 'NONE', #1032, #1073 ) ;
#848 = ORIENTED_EDGE ( 'NONE', *, *, #251, .F. ) ;
#849 = FACE_OUTER_BOUND ( 'NONE', #320, .T. ) ;
#850 = VERTEX_POINT ( 'NONE', #837 ) ;
#851 = CARTESIAN_POINT ( 'NONE',  ( 275.0000000000000000, -40.00000000000000000, 0.000000000000000000 ) ) ;
#852 = CARTESIAN_POINT ( 'NONE',  ( 275.0000000000000000, -34.64101615137754209, 0.000000000000000000 ) ) ;
#853 = VECTOR ( 'NONE', #69, 1000.000000000000000 ) ;
#854 = ORIENTED_EDGE ( 'NONE', *, *, #652, .F. ) ;
#855 = CARTESIAN_POINT ( 'NONE',  ( 260.0000000000000000, 6.938893903907228378E-15, 20.00000000000000000 ) ) ;
#856 = LINE ( 'NONE', #766, #779 ) ;
#857 = AXIS2_PLACEMENT_3D ( 'NONE', #702, #619, #533 ) ;
#858 = CARTESIAN_POINT ( 'NONE',  ( 60.00000000000000711, -20.00000000000003197, 11.71572875253809976 ) ) ;
#859 = EDGE_CURVE ( 'NONE', #653, #244, #770, .T. ) ;
#860 = EDGE_LOOP ( 'NONE', ( #742, #840, #6, #401, #368 ) ) ;
#861 = CC_DESIGN_SECURITY_CLASSIFICATION ( #609, ( #541 ) ) ;
#862 = CARTESIAN_POINT ( 'NONE',  ( 60.00000000000000711, 8.284271247461887810, -6.938893903907228378E-15 ) ) ;
#863 = LINE ( 'NONE', #344, #791 ) ;
#864 = DIRECTION ( 'NONE',  ( -1.000000000000000000, -0.000000000000000000, -0.000000000000000000 ) ) ;
#865 = CC_DESIGN_PERSON_AND_ORGANIZATION_ASSIGNMENT ( #372, #711, ( #877 ) ) ;
#866 = CARTESIAN_POINT ( 'NONE',  ( 272.9158536619720508, -29.02477996700528706, -0.000000000000000000 ) ) ;
#867 = DIRECTION ( 'NONE',  ( 0.000000000000000000, 0.000000000000000000, -1.000000000000000000 ) ) ;
#868 = ADVANCED_FACE ( 'NONE', ( #845 ), #591, .F. ) ;
#869 = AXIS2_PLACEMENT_3D ( 'NONE', #733, #571, #49 ) ;
#870 = CIRCLE ( 'NONE', #928, 15.00000000000000000 ) ;
#871 = CARTESIAN_POINT ( 'NONE',  ( 267.0009356105895222, -8.191994068030666654, -0.000000000000000000 ) ) ;
#872 = DIRECTION ( 'NONE',  ( 0.000000000000000000, -0.000000000000000000, 1.000000000000000000 ) ) ;
#873 = CIRCLE ( 'NONE', #1009, 7.500000000000007105 ) ;
#874 = CARTESIAN_POINT ( 'NONE',  ( 266.3043478260871098, -1.480222976287429493, 0.000000000000000000 ) ) ;
#875 = AXIS2_PLACEMENT_3D ( 'NONE', #975, #32, #792 ) ;
#876 = CARTESIAN_POINT ( 'NONE',  ( 60.00000000000000711, -20.00000000000003197, 28.28427124746189847 ) ) ;
#877 = PRODUCT_DEFINITION ( 'UNKNOWN', '', #541, #268 ) ;
#878 = LINE ( 'NONE', #882, #690 ) ;
#879 = FACE_OUTER_BOUND ( 'NONE', #549, .T. ) ;
#880 = EDGE_CURVE ( 'NONE', #199, #736, #870, .T. ) ;
#881 = DIRECTION ( 'NONE',  ( -1.000000000000000000, -0.000000000000000000, -0.000000000000000000 ) ) ;
#882 = CARTESIAN_POINT ( 'NONE',  ( 5.457389924549897131, 21.88523507703380133, 0.000000000000000000 ) ) ;
#883 = VECTOR ( 'NONE', #900, 1000.000000000000000 ) ;
#884 = VECTOR ( 'NONE', #494, 1000.000000000000000 ) ;
#885 = APPROVAL_ROLE ( '' ) ;
#886 = EDGE_LOOP ( 'NONE', ( #741, #660 ) ) ;
#887 = LINE ( 'NONE', #119, #883 ) ;
#888 = CARTESIAN_POINT ( 'NONE',  ( 275.0000000000000000, 6.938893903907228378E-15, 20.00000000000000000 ) ) ;
#889 = EDGE_CURVE ( 'NONE', #135, #653, #772, .T. ) ;
#890 = CIRCLE ( 'NONE', #407, 15.00000000000000178 ) ;
#891 = PERSON_AND_ORGANIZATION_ROLE ( 'creator' ) ;
#892 = EDGE_LOOP ( 'NONE', ( #312, #803, #29, #323 ) ) ;
#893 = ORGANIZATION ( 'UNSPECIFIED', 'UNSPECIFIED', '' ) ;
#894 = CARTESIAN_POINT ( 'NONE',  ( -15.00000000000000178, 1.836970198721029983E-15, -30.00000000000000000 ) ) ;
#895 = DIRECTION ( 'NONE',  ( 0.000000000000000000, 0.000000000000000000, 1.000000000000000000 ) ) ;
#896 = ADVANCED_FACE ( 'NONE', ( #339 ), #937, .F. ) ;
#897 = CC_DESIGN_DATE_AND_TIME_ASSIGNMENT ( #281, #1076, ( #877 ) ) ;
#898 = VERTEX_POINT ( 'NONE', #596 ) ;
#899 = B_SPLINE_CURVE_WITH_KNOTS ( 'NONE', 3,
 ( #370, #193, #361, #1066, #457, #1068, #992, #116, #383, #121, #970, #621, #376, #206 ),
 .UNSPECIFIED., .F., .F.,
 ( 4, 2, 2, 2, 2, 2, 4 ),
 ( 0.09430622693029987180, 0.09877161173293241836, 0.1010043041342486847, 0.1032369965355649510, 0.1121677661408300303, 0.1210985357460951234, 0.1300293053513602026 ),
 .UNSPECIFIED. ) ;
#900 = DIRECTION ( 'NONE',  ( 0.000000000000000000, 0.000000000000000000, -1.000000000000000000 ) ) ;
#901 = DIRECTION ( 'NONE',  ( -0.9965457582448795648, 0.08304547985373998686, 0.000000000000000000 ) ) ;
#902 = CARTESIAN_POINT ( 'NONE',  ( 5.457389924549898019, 21.88523507703379423, 40.00000000000000000 ) ) ;
#903 = ORIENTED_EDGE ( 'NONE', *, *, #334, .F. ) ;
#904 = VECTOR ( 'NONE', #505, 1000.000000000000000 ) ;
#905 = EDGE_LOOP ( 'NONE', ( #329, #89 ) ) ;
#906 = FACE_OUTER_BOUND ( 'NONE', #373, .T. ) ;
#907 = LINE ( 'NONE', #220, #696 ) ;
#908 = DIRECTION ( 'NONE',  ( 1.000000000000000000, 0.000000000000000000, 0.000000000000000000 ) ) ;
#909 = ORIENTED_EDGE ( 'NONE', *, *, #634, .F. ) ;
#910 = ORIENTED_EDGE ( 'NONE', *, *, #1056, .F. ) ;
#911 = EDGE_LOOP ( 'NONE', ( #1027, #763, #1025, #315 ) ) ;
#912 = CARTESIAN_POINT ( 'NONE',  ( 282.5000000000000568, -30.00000000000000000, 54.40983005625050595 ) ) ;
#913 = EDGE_CURVE ( 'NONE', #129, #925, #317, .T. ) ;
#914 = DIRECTION ( 'NONE',  ( 1.000000000000000000, 0.000000000000000000, 0.000000000000000000 ) ) ;
#915 = FACE_OUTER_BOUND ( 'NONE', #347, .T. ) ;
#916 = EDGE_LOOP ( 'NONE', ( #935, #127, #134, #990 ) ) ;
#917 = ORIENTED_EDGE ( 'NONE', *, *, #626, .F. ) ;
#918 = ADVANCED_FACE ( 'NONE', ( #1020, #927 ), #683, .F. ) ;
#919 = DIRECTION ( 'NONE',  ( 0.000000000000000000, 0.000000000000000000, 1.000000000000000000 ) ) ;
#920 = CARTESIAN_POINT ( 'NONE',  ( 282.5000000000000568, -30.00000000000000000, -19.99999999999999645 ) ) ;
#921 = CARTESIAN_POINT ( 'NONE',  ( 282.5000000000000568, -30.00000000000000000, 39.99999999999999289 ) ) ;
#922 = ORIENTED_EDGE ( 'NONE', *, *, #595, .F. ) ;
#923 = FACE_OUTER_BOUND ( 'NONE', #55, .T. ) ;
#924 = LINE ( 'NONE', #148, #706 ) ;
#925 = VERTEX_POINT ( 'NONE', #1118 ) ;
#926 = AXIS2_PLACEMENT_3D ( 'NONE', #480, #126, #228 ) ;
#927 = FACE_OUTER_BOUND ( 'NONE', #1019, .T. ) ;
#928 = AXIS2_PLACEMENT_3D ( 'NONE', #158, #432, #164 ) ;
#929 = CARTESIAN_POINT ( 'NONE',  ( 1.732349601522546578, -24.85563753320645830, 37.95848852698911458 ) ) ;
#930 = CALENDAR_DATE ( 2021, 22, 7 ) ;
#931 = CARTESIAN_POINT ( 'NONE',  ( 260.0000000000000000, 9.020793462457730629E-15, 2.999999999999992450 ) ) ;
#932 = ORIENTED_EDGE ( 'NONE', *, *, #203, .F. ) ;
#933 = EDGE_CURVE ( 'NONE', #160, #216, #1037, .T. ) ;
#934 = LINE ( 'NONE', #508, #1036 ) ;
#935 = ORIENTED_EDGE ( 'NONE', *, *, #122, .F. ) ;
#936 = AXIS2_PLACEMENT_3D ( 'NONE', #764, #1107, #1121 ) ;
#937 = PLANE ( 'NONE',  #149 ) ;
#938 = LINE ( 'NONE', #689, #904 ) ;
#939 = EDGE_LOOP ( 'NONE', ( #553, #224 ) ) ;
#940 = LOCAL_TIME ( 23, 18, 46.00000000000000000, #981 ) ;
#941 = EDGE_CURVE ( 'NONE', #925, #118, #945, .T. ) ;
#942 = ORIENTED_EDGE ( 'NONE', *, *, #983, .T. ) ;
#943 = CARTESIAN_POINT ( 'NONE',  ( 287.5000000000000568, -30.00000000000000000, 60.00000000000000000 ) ) ;
#944 = ORIENTED_EDGE ( 'NONE', *, *, #695, .F. ) ;
#945 = LINE ( 'NONE', #851, #441 ) ;
#946 = CARTESIAN_POINT ( 'NONE',  ( -4.336808689942017736E-16, -25.00000000000000000, 38.24611169927459287 ) ) ;
#947 = ORIENTED_EDGE ( 'NONE', *, *, #634, .T. ) ;
#948 = DIRECTION ( 'NONE',  ( -1.000000000000000000, -0.000000000000000000, -0.000000000000000000 ) ) ;
#949 = CARTESIAN_POINT ( 'NONE',  ( 275.0000000000000000, -30.00000000000000000, -19.99999999999999645 ) ) ;
#950 = EDGE_CURVE ( 'NONE', #44, #129, #1043, .T. ) ;
#951 = AXIS2_PLACEMENT_3D ( 'NONE', #639, #1072, #451 ) ;
#952 = PERSON_AND_ORGANIZATION_ROLE ( 'classification_officer' ) ;
#953 = FACE_OUTER_BOUND ( 'NONE', #667, .T. ) ;
#954 = VECTOR ( 'NONE', #225, 1000.000000000000114 ) ;
#955 = ORIENTED_EDGE ( 'NONE', *, *, #476, .F. ) ;
#956 = LINE ( 'NONE', #862, #679 ) ;
#957 = CARTESIAN_POINT ( 'NONE',  ( 282.5000000000000568, -30.00000000000000000, 54.40983005625050595 ) ) ;
#958 = CIRCLE ( 'NONE', #265, 4.999999999999990230 ) ;
#959 = DATE_AND_TIME ( #496, #355 ) ;
#960 = CARTESIAN_POINT ( 'NONE',  ( -5.004333721923176270, 24.49401241119189976, 40.00000000000000000 ) ) ;
#961 = PRODUCT_RELATED_PRODUCT_CATEGORY ( 'detail', '', ( #762 ) ) ;
#962 = CARTESIAN_POINT ( 'NONE',  ( 268.3827246478801385, -14.78823641527242749, -0.000000000000000000 ) ) ;
#963 = CARTESIAN_POINT ( 'NONE',  ( 15.00000000000000178, 0.000000000000000000, 0.000000000000000000 ) ) ;
#964 = EDGE_CURVE ( 'NONE', #1122, #73, #856, .T. ) ;
#965 = DIRECTION ( 'NONE',  ( 1.000000000000000000, 0.000000000000000000, 0.000000000000000000 ) ) ;
#966 = CARTESIAN_POINT ( 'NONE',  ( 260.0000000000000000, 6.938893903907228378E-15, 20.00000000000000000 ) ) ;
#967 = AXIS2_PLACEMENT_3D ( 'NONE', #34, #1095, #200 ) ;
#968 = PLANE ( 'NONE',  #518 ) ;
#969 = DIRECTION ( 'NONE',  ( 0.000000000000000000, 0.000000000000000000, 1.000000000000000000 ) ) ;
#970 = CARTESIAN_POINT ( 'NONE',  ( 270.9618938080108137, -23.37074200022802017, 39.99999999999998579 ) ) ;
#971 = CARTESIAN_POINT ( 'NONE',  ( 277.5000000000000000, -30.00000000000000000, -14.40983005625049884 ) ) ;
#972 = ADVANCED_FACE ( 'NONE', ( #308 ), #657, .T. ) ;
#973 = DIRECTION ( 'NONE',  ( 0.000000000000000000, 0.000000000000000000, 1.000000000000000000 ) ) ;
#974 = DIRECTION ( 'NONE',  ( 0.08304547985374000074, 0.9965457582448796758, -0.000000000000000000 ) ) ;
#975 = CARTESIAN_POINT ( 'NONE',  ( 0.000000000000000000, 0.000000000000000000, 0.000000000000000000 ) ) ;
#976 = CARTESIAN_POINT ( 'NONE',  ( 260.0000000000000000, 0.000000000000000000, 20.00000000000000000 ) ) ;
#977 = EDGE_CURVE ( 'NONE', #263, #392, #169, .T. ) ;
#978 = CARTESIAN_POINT ( 'NONE',  ( 2.068965517241379892, 24.82758620689655515, 40.00000000000000000 ) ) ;
#979 = VECTOR ( 'NONE', #566, 1000.000000000000000 ) ;
#980 = AXIS2_PLACEMENT_3D ( 'NONE', #381, #642, #1083 ) ;
#981 = COORDINATED_UNIVERSAL_TIME_OFFSET ( 5, 30, .AHEAD. ) ;
#982 = ORIENTED_EDGE ( 'NONE', *, *, #438, .T. ) ;
#983 = EDGE_CURVE ( 'NONE', #498, #252, #863, .T. ) ;
#984 = CARTESIAN_POINT ( 'NONE',  ( 60.00000000000000711, 0.000000000000000000, 40.00000000000000000 ) ) ;
#985 = DIRECTION ( 'NONE',  ( 1.000000000000000000, 0.000000000000000000, -0.000000000000000000 ) ) ;
#986 = CC_DESIGN_PERSON_AND_ORGANIZATION_ASSIGNMENT ( #61, #952, ( #609 ) ) ;
#987 = AXIS2_PLACEMENT_3D ( 'NONE', #105, #786, #442 ) ;
#988 = CIRCLE ( 'NONE', #497, 20.00000000000000000 ) ;
#989 = COORDINATED_UNIVERSAL_TIME_OFFSET ( 5, 30, .AHEAD. ) ;
#990 = ORIENTED_EDGE ( 'NONE', *, *, #933, .F. ) ;
#991 = FACE_OUTER_BOUND ( 'NONE', #1033, .T. ) ;
#992 = CARTESIAN_POINT ( 'NONE',  ( 267.0009356120548318, -8.191994076872687103, 40.00000000000000000 ) ) ;
#993 = CARTESIAN_POINT ( 'NONE',  ( 0.000000000000000000, 0.000000000000000000, 40.00000000000000000 ) ) ;
#994 = B_SPLINE_CURVE_WITH_KNOTS ( 'NONE', 3,
 ( #490, #833, #866, #20, #107, #962, #267, #871, #612, #439, #270, #780, #874, #183 ),
 .UNSPECIFIED., .F., .F.,
 ( 4, 2, 2, 2, 2, 2, 4 ),
 ( 0.03911041860726850034, 0.04809443091441765322, 0.05707844322156681305, 0.06606245552871596594, 0.06830845860550324722, 0.07055446168229054238, 0.07504646783586510495 ),
 .UNSPECIFIED. ) ;
#995 = ORIENTED_EDGE ( 'NONE', *, *, #452, .T. ) ;
#996 = VERTEX_POINT ( 'NONE', #604 ) ;
#997 = CARTESIAN_POINT ( 'NONE',  ( 282.5000000000000568, -30.00000000000000000, -19.99999999999999645 ) ) ;
#998 = DIRECTION ( 'NONE',  ( 1.000000000000000000, 0.000000000000000000, 0.000000000000000000 ) ) ;
#999 = LINE ( 'NONE', #154, #979 ) ;
#1000 = ORIENTED_EDGE ( 'NONE', *, *, #1011, .T. ) ;
#1001 = AXIS2_PLACEMENT_3D ( 'NONE', #921, #144, #319 ) ;
#1002 = ORIENTED_EDGE ( 'NONE', *, *, #652, .T. ) ;
#1003 = CYLINDRICAL_SURFACE ( 'NONE', #717, 25.00000000000000000 ) ;
#1004 = DIRECTION ( 'NONE',  ( -0.000000000000000000, 0.000000000000000000, -1.000000000000000000 ) ) ;
#1005 = DIRECTION ( 'NONE',  ( 0.000000000000000000, 0.000000000000000000, 1.000000000000000000 ) ) ;
#1006 = ORIENTED_EDGE ( 'NONE', *, *, #1042, .F. ) ;
#1007 = ORIENTED_EDGE ( 'NONE', *, *, #232, .T. ) ;
#1008 = EDGE_CURVE ( 'NONE', #519, #64, #1093, .T. ) ;
#1009 = AXIS2_PLACEMENT_3D ( 'NONE', #353, #435, #8 ) ;
#1010 = VERTEX_POINT ( 'NONE', #610 ) ;
#1011 = EDGE_CURVE ( 'NONE', #380, #160, #436, .T. ) ;
#1012 = CARTESIAN_POINT ( 'NONE',  ( 290.0000000000000568, 0.000000000000000000, 0.000000000000000000 ) ) ;
#1013 = CARTESIAN_POINT ( 'NONE',  ( 266.3043478260869961, 6.938893903907228378E-15, 20.00000000000000000 ) ) ;
#1014 =( BOUNDED_CURVE ( )  B_SPLINE_CURVE ( 3, ( #297, #1112, #659, #644 ),
 .UNSPECIFIED., .F., .T. ) 
 B_SPLINE_CURVE_WITH_KNOTS ( ( 4, 4 ),
 ( 2.695677813684943303, 2.897212661127697597 ),
 .UNSPECIFIED. ) 
 CURVE ( )  GEOMETRIC_REPRESENTATION_ITEM ( )  RATIONAL_B_SPLINE_CURVE ( ( 1.000000000000000000, 0.9966181718366511344, 0.9966181718366511344, 1.000000000000000000 ) ) 
 REPRESENTATION_ITEM ( '' )  );
#1015 = PLANE ( 'NONE',  #629 ) ;
#1016 = PRODUCT_DEFINITION_SHAPE ( 'NONE', 'NONE',  #877 ) ;
#1017 = ORIENTED_EDGE ( 'NONE', *, *, #362, .T. ) ;
#1018 = CARTESIAN_POINT ( 'NONE',  ( -5.004333721923161171, 24.49401241119190331, 0.000000000000000000 ) ) ;
#1019 = EDGE_LOOP ( 'NONE', ( #575, #338, #1046, #910, #812 ) ) ;
#1020 = FACE_BOUND ( 'NONE', #886, .T. ) ;
#1021 = CARTESIAN_POINT ( 'NONE',  ( -4.336808689942017736E-16, 25.00000000000000000, 1.753888300725425786 ) ) ;
#1022 = DIRECTION ( 'NONE',  ( -1.000000000000000000, -0.000000000000000000, -0.000000000000000000 ) ) ;
#1023 = EDGE_CURVE ( 'NONE', #898, #818, #400, .T. ) ;
#1024 = ORIENTED_EDGE ( 'NONE', *, *, #1023, .F. ) ;
#1025 = ORIENTED_EDGE ( 'NONE', *, *, #93, .T. ) ;
#1026 = LINE ( 'NONE', #492, #656 ) ;
#1027 = ORIENTED_EDGE ( 'NONE', *, *, #1056, .T. ) ;
#1028 = AXIS2_PLACEMENT_3D ( 'NONE', #984, #731, #564 ) ;
#1029 = CARTESIAN_POINT ( 'NONE',  ( 260.0000000000000000, 0.000000000000000000, 0.000000000000000000 ) ) ;
#1030 = ADVANCED_FACE ( 'NONE', ( #99 ), #616, .T. ) ;
#1031 = AXIS2_PLACEMENT_3D ( 'NONE', #976, #632, #113 ) ;
#1032 = CARTESIAN_POINT ( 'NONE',  ( 5.457389924549908677, -21.88523507703384396, 0.000000000000000000 ) ) ;
#1033 = EDGE_LOOP ( 'NONE', ( #922, #500, #568, #832, #416, #1108, #293, #462 ) ) ;
#1034 = DIRECTION ( 'NONE',  ( -0.000000000000000000, -0.000000000000000000, -1.000000000000000000 ) ) ;
#1035 = ORIENTED_EDGE ( 'NONE', *, *, #806, .F. ) ;
#1036 = VECTOR ( 'NONE', #239, 1000.000000000000000 ) ;
#1037 = LINE ( 'NONE', #249, #954 ) ;
#1038 = LINE ( 'NONE', #250, #1092 ) ;
#1039 = LOCAL_TIME ( 23, 18, 46.00000000000000000, #542 ) ;
#1040 = VERTEX_POINT ( 'NONE', #963 ) ;
#1041 = CARTESIAN_POINT ( 'NONE',  ( -5.004333721923076794, -24.49401241119192107, 40.00000000000000000 ) ) ;
#1042 = EDGE_CURVE ( 'NONE', #380, #150, #1057, .T. ) ;
#1043 = LINE ( 'NONE', #80, #527 ) ;
#1044 = COORDINATED_UNIVERSAL_TIME_OFFSET ( 5, 30, .AHEAD. ) ;
#1045 = CARTESIAN_POINT ( 'NONE',  ( 282.5000000000000568, -30.00000000000000000, 0.000000000000000000 ) ) ;
#1046 = ORIENTED_EDGE ( 'NONE', *, *, #429, .F. ) ;
#1047 = CARTESIAN_POINT ( 'NONE',  ( 282.5000000000000568, -30.00000000000000000, 60.00000000000000000 ) ) ;
#1048 = DIRECTION ( 'NONE',  ( -0.000000000000000000, -0.000000000000000000, -1.000000000000000000 ) ) ;
#1049 = AXIS2_PLACEMENT_3D ( 'NONE', #53, #728, #406 ) ;
#1050 = VECTOR ( 'NONE', #445, 1000.000000000000000 ) ;
#1051 = CARTESIAN_POINT ( 'NONE',  ( -3.356077199922099741, 24.83076514720589856, 39.25223141222200240 ) ) ;
#1052 = AXIS2_PLACEMENT_3D ( 'NONE', #187, #872, #704 ) ;
#1053 = APPLICATION_CONTEXT ( 'configuration controlled 3d designs of mechanical parts and assemblies' ) ;
#1054 = ORIENTED_EDGE ( 'NONE', *, *, #232, .F. ) ;
#1055 = DIRECTION ( 'NONE',  ( 0.08304547985374000074, -0.9965457582448796758, 0.000000000000000000 ) ) ;
#1056 = EDGE_CURVE ( 'NONE', #1069, #332, #181, .T. ) ;
#1057 = LINE ( 'NONE', #444, #785 ) ;
#1058 = VECTOR ( 'NONE', #829, 1000.000000000000114 ) ;
#1059 = DIRECTION ( 'NONE',  ( -0.000000000000000000, -0.000000000000000000, -1.000000000000000000 ) ) ;
#1060 = CARTESIAN_POINT ( 'NONE',  ( 275.0000000000000000, -39.99999999999999289, 20.00000000000000000 ) ) ;
#1061 = EDGE_CURVE ( 'NONE', #734, #506, #291, .T. ) ;
#1062 = DIRECTION ( 'NONE',  ( -1.000000000000000000, 0.000000000000000000, 0.000000000000000000 ) ) ;
#1063 = AXIS2_PLACEMENT_3D ( 'NONE', #384, #1005, #665 ) ;
#1064 = CARTESIAN_POINT ( 'NONE',  ( 0.000000000000000000, 0.000000000000000000, 0.000000000000000000 ) ) ;
#1065 = CARTESIAN_POINT ( 'NONE',  ( -5.004333721923055478, -24.49401241119192107, 0.000000000000000000 ) ) ;
#1066 = CARTESIAN_POINT ( 'NONE',  ( 266.5884388824462690, -5.205163502932818709, 39.99999999999997868 ) ) ;
#1067 = CALENDAR_DATE ( 2021, 22, 7 ) ;
#1068 = CARTESIAN_POINT ( 'NONE',  ( 266.8827585060134879, -7.448882079228828168, 40.00000000000000000 ) ) ;
#1069 = VERTEX_POINT ( 'NONE', #531 ) ;
#1070 = APPROVAL ( #628, 'UNSPECIFIED' ) ;
#1071 = CARTESIAN_POINT ( 'NONE',  ( 287.5000000000000568, -30.00000000000000000, 60.00000000000000000 ) ) ;
#1072 = DIRECTION ( 'NONE',  ( -0.000000000000000000, 0.000000000000000000, -1.000000000000000000 ) ) ;
#1073 = VECTOR ( 'NONE', #511, 1000.000000000000114 ) ;
#1074 = VECTOR ( 'NONE', #463, 1000.000000000000114 ) ;
#1075 = ADVANCED_FACE ( 'NONE', ( #9 ), #271, .F. ) ;
#1076 = DATE_TIME_ROLE ( 'creation_date' ) ;
#1077 = ORIENTED_EDGE ( 'NONE', *, *, #251, .T. ) ;
#1078 = DIRECTION ( 'NONE',  ( -1.000000000000000000, -0.000000000000000000, -0.000000000000000000 ) ) ;
#1079 = CARTESIAN_POINT ( 'NONE',  ( 0.000000000000000000, 0.000000000000000000, -30.00000000000000000 ) ) ;
#1080 = AXIS2_PLACEMENT_3D ( 'NONE', #174, #501, #602 ) ;
#1081 = ORIENTED_EDGE ( 'NONE', *, *, #170, .F. ) ;
#1082 = ORIENTED_EDGE ( 'NONE', *, *, #806, .T. ) ;
#1083 = DIRECTION ( 'NONE',  ( 0.000000000000000000, 0.000000000000000000, 1.000000000000000000 ) ) ;
#1084 = CARTESIAN_POINT ( 'NONE',  ( 287.5000000000000568, -30.00000000000000000, 54.40983005625050595 ) ) ;
#1085 = CARTESIAN_POINT ( 'NONE',  ( 15.00000000000000178, 0.000000000000000000, -30.00000000000000000 ) ) ;
#1086 = ORIENTED_EDGE ( 'NONE', *, *, #534, .F. ) ;
#1087 = ORIENTED_EDGE ( 'NONE', *, *, #749, .F. ) ;
#1088 = CARTESIAN_POINT ( 'NONE',  ( 290.0000000000000568, 0.000000000000000000, 40.00000000000000000 ) ) ;
#1089 = FACE_OUTER_BOUND ( 'NONE', #1113, .T. ) ;
#1090 = FACE_OUTER_BOUND ( 'NONE', #245, .T. ) ;
#1091 = ORIENTED_EDGE ( 'NONE', *, *, #977, .F. ) ;
#1092 = VECTOR ( 'NONE', #592, 1000.000000000000114 ) ;
#1093 = CIRCLE ( 'NONE', #739, 17.00000000000000355 ) ;
#1094 = VERTEX_POINT ( 'NONE', #21 ) ;
#1095 = DIRECTION ( 'NONE',  ( 0.000000000000000000, 1.734723475976807094E-16, -1.000000000000000000 ) ) ;
#1096 = CARTESIAN_POINT ( 'NONE',  ( 266.3043478260869961, 6.938893903907228378E-15, 0.000000000000000000 ) ) ;
#1097 = CARTESIAN_POINT ( 'NONE',  ( 0.000000000000000000, 0.000000000000000000, 0.000000000000000000 ) ) ;
#1098 = VERTEX_POINT ( 'NONE', #269 ) ;
#1099 = APPLICATION_CONTEXT ( 'configuration controlled 3d designs of mechanical parts and assemblies' ) ;
#1100 = CONICAL_SURFACE ( 'NONE', #936, 40.00000000000000000, 1.160668986253405199 ) ;
#1101 = VERTEX_POINT ( 'NONE', #1065 ) ;
#1102 = EDGE_CURVE ( 'NONE', #747, #409, #191, .T. ) ;
#1103 = CARTESIAN_POINT ( 'NONE',  ( 60.00000000000000711, 8.284271247461887810, -6.938893903907228378E-15 ) ) ;
#1104 = DIRECTION ( 'NONE',  ( 0.000000000000000000, 0.000000000000000000, 1.000000000000000000 ) ) ;
#1105 = DIRECTION ( 'NONE',  ( -0.000000000000000000, 0.000000000000000000, -1.000000000000000000 ) ) ;
#1106 = ORIENTED_EDGE ( 'NONE', *, *, #7, .F. ) ;
#1107 = DIRECTION ( 'NONE',  ( 1.000000000000000000, 0.000000000000000000, 0.000000000000000000 ) ) ;
#1108 = ORIENTED_EDGE ( 'NONE', *, *, #207, .T. ) ;
#1109 = CARTESIAN_POINT ( 'NONE',  ( -1.682305551180274028, -25.00000000000000000, 38.66561815340723030 ) ) ;
#1110 = CC_DESIGN_PERSON_AND_ORGANIZATION_ASSIGNMENT ( #198, #891, ( #541 ) ) ;
#1111 = COORDINATED_UNIVERSAL_TIME_OFFSET ( 5, 30, .AHEAD. ) ;
#1112 = CARTESIAN_POINT ( 'NONE',  ( -3.356077199922062881, 24.83076514720590211, 0.7477685877779989276 ) ) ;
#1113 = EDGE_LOOP ( 'NONE', ( #123, #298 ) ) ;
#1114 = EDGE_LOOP ( 'NONE', ( #944, #712, #1077, #917 ) ) ;
#1115 = CARTESIAN_POINT ( 'NONE',  ( -4.336808689942017736E-16, 25.00000000000000000, 40.00000000000000000 ) ) ;
#1116 = ORIENTED_EDGE ( 'NONE', *, *, #507, .T. ) ;
#1117 = AXIS2_PLACEMENT_3D ( 'NONE', #550, #1078, #295 ) ;
#1118 = CARTESIAN_POINT ( 'NONE',  ( 275.0000000000000000, -40.00000000000000000, 20.00000000000000000 ) ) ;
#1119 = CARTESIAN_POINT ( 'NONE',  ( 275.0000000000000000, -34.64101615137754919, 39.99999999999999289 ) ) ;
#1120 = ORIENTED_EDGE ( 'NONE', *, *, #371, .T. ) ;
#1121 = DIRECTION ( 'NONE',  ( 0.000000000000000000, 0.000000000000000000, -1.000000000000000000 ) ) ;
#1122 = VERTEX_POINT ( 'NONE', #876 ) ;
#1123 = DIRECTION ( 'NONE',  ( -0.000000000000000000, -0.000000000000000000, -1.000000000000000000 ) ) ;
ENDSEC;
END-ISO-10303-21;
